<?xml version="1.0" encoding="UTF-8" standalone="no"?>
<svg
   xmlns:dc="http://purl.org/dc/elements/1.1/"
   xmlns:cc="http://creativecommons.org/ns#"
   xmlns:rdf="http://www.w3.org/1999/02/22-rdf-syntax-ns#"
   xmlns:svg="http://www.w3.org/2000/svg"
   xmlns="http://www.w3.org/2000/svg"
   xmlns:sodipodi="http://sodipodi.sourceforge.net/DTD/sodipodi-0.dtd"
   xmlns:inkscape="http://www.inkscape.org/namespaces/inkscape"
   version="1.1"
   id="svg2"
   xml:space="preserve"
   width="45.125565"
   height="69.113335"
   viewBox="0 0 45.125565 69.113335"
   sodipodi:docname="AlchemistsBench_EU_vertical.svg"
   inkscape:version="1.0.2 (1.0.2+r75+1)"><metadata
     id="metadata62"><rdf:RDF><cc:Work
         rdf:about=""><dc:format>image/svg+xml</dc:format><dc:type
           rdf:resource="http://purl.org/dc/dcmitype/StillImage" /><dc:title></dc:title></cc:Work></rdf:RDF></metadata><defs
     id="defs6" /><sodipodi:namedview
     id="namedview4"
     pagecolor="#ffffff"
     bordercolor="#666666"
     borderopacity="1.0"
     inkscape:pageshadow="2"
     inkscape:pageopacity="0.0"
     inkscape:pagecheckerboard="0"
     inkscape:document-rotation="0"
     showgrid="false"
     inkscape:zoom="12.766878"
     inkscape:cx="22.650393"
     inkscape:cy="34.560284"
     inkscape:window-width="1853"
     inkscape:window-height="1025"
     inkscape:window-x="67"
     inkscape:window-y="27"
     inkscape:window-maximized="1"
     inkscape:current-layer="g8" /><g
     id="g8"
     inkscape:groupmode="layer"
     inkscape:label="ink_ext_XXXXXX"
     transform="matrix(1.3333333,0,0,-1.3333333,-12.009606,57.140284)"><g
       id="g10"
       transform="matrix(0,0.1,-0.1,0,42.867005,-8.9915804)"><path
         d="M 259.949,169.336 Z"
         style="fill:#000000;fill-opacity:1;fill-rule:nonzero;stroke:none"
         id="path12" /><path
         d="m 514.789,302.867 c -0.48,-11.711 -0.18,-28.808 -0.43,-66.191 0.192,-10.981 0.711,-22.379 -0.75,-33.321 C 515.82,150.797 514.082,98.0156 515,45.4258 515.512,43.168 515.512,43.168 517.34,14.3984 518.48,9.08594 519.809,7.09766 515.5,4.24609 473.891,3.51563 471.402,3.90625 397.391,3.08594 374.359,2.14844 351.402,1.81641 328.332,1.41797 314.422,0.0976563 300.512,0.925781 286.512,0.257813 284.699,0.65625 274.121,0.476563 270.301,0.875 265.48,0.617188 260.699,0.386719 255.91,0.15625 180.871,0.355469 105.84,2.36719 30.8203,2.99609 24.3086,2.625 13.6602,0.136719 7.75,2.70703 5.92188,8.28516 4.82031,13.5977 3.75,19.418 3.23047,49.1172 3.23047,49.1172 2.33203,73.8359 2.28125,128.309 2.28125,128.309 1.92969,148.105 c 0.1289,0.793 0.26172,1.622 0.42969,2.461 -2.257817,154.571 -2.257817,154.571 -2.238286,179.77 0.480469,1.051 1.007816,2.109 1.531246,3.191 24.91796,1.809 50.12896,1.52 75.10936,1.961 0.4297,0.149 0.8906,0.297 1.3594,0.489 21.75,-0.231 43.4489,0.691 65.2189,1.57 88.82,0.398 177.609,0.289 266.422,1.051 2.379,-0.282 4.797,-0.532 7.207,-0.77 66.383,0.731 66.383,0.731 93.613,0.52 0.52,-0.75 1.07,-1.493 1.617,-2.211 1.813,-10.949 1.942,-22.18 2.602,-33.262"
         style="fill:#000000;fill-opacity:1;fill-rule:evenodd;stroke:none"
         id="path14" /><path
         d="m 508.422,282.047 c -0.242,-25.68 -0.242,-25.68 -0.883,-40.09 -0.199,-0.648 -0.367,-1.301 -0.539,-1.922 -5.449,-1.387 -10.059,-3.129 -11.648,3.07 -0.2,19.942 -0.411,39.891 -0.582,59.833 -0.579,4.558 -0.071,10.371 -1.731,14.48 -0.508,0.168 -0.98,0.34 -1.449,0.547 -39.488,-0.688 -79.149,0.422 -118.598,-0.27 -3.883,-0.539 -7.121,-0.199 -11.023,0.243 -10.797,-0.192 -29.707,0.378 -43.207,0.148 -0.762,0.281 -1.52,0.551 -2.282,0.859 -24.148,-0.418 -48.289,-1.738 -72.41,-2.16 -21.191,1.43 -25.23,1.363 -27.5,1.793 -29.238,0.43 -58.48,0.348 -87.738,-0.633 -26.102,-0.019 -26.102,-0.019 -31.5117,0.352 -3.1601,-0.52 -28.3594,-0.961 -66.3515,-2.531 -13.3985,0.339 -14.2696,0.761 -15.9688,-13.098 0.2813,-16.23 -0.3711,-32.371 -0.5195,-48.621 0.6992,-6.969 2.0781,-13.82 1.1601,-20.789 -2.6914,-0.84 -5.0586,-0.84 -7.73826,-0.031 -1.04296,2 -1.01171,4.05 -1.26171,6.281 0.10937,45.48 0.66796,64.82 0.55078,85.988 1.03906,0.52 2.07031,1.039 3.10939,1.602 94.2692,3.769 188.7112,3.91 283.0312,4.937 33.25,-1.258 66.648,-0.277 99.918,-0.058 36.039,-1.93 72.32,0.648 108.441,0.558 3.61,-0.84 3.61,-0.84 5.43,-1.918 0.43,-16.191 0.848,-32.39 1.32,-48.59"
         style="fill:#ffffff;fill-opacity:1;fill-rule:evenodd;stroke:none"
         id="path16" /><path
         d="m 512.57,17.4883 c -0.578,-1.9922 -1.16,-3.9531 -1.699,-5.9024 -1.941,-0.289 -3.879,-0.539 -5.82,-0.789 C 410.609,10.5156 315.98,8.89844 221.559,7.64844 c -2.379,-1.63281 -5.707,-1 -8.547,-1.05078 -0.332,0.27734 -0.621,0.55859 -0.922,0.8789 -35.238,1.46875 -70.551,1.25 -105.801,3.12114 C 76.3789,10.0781 46.4219,10.3477 16.5313,8.55859 10.1523,9.16797 10.7695,10.5469 9.17969,16.7852 8.19922,73.0078 7,129.266 6.24219,185.496 c 0.33984,5.332 0.67969,10.563 1.73828,15.801 1.39062,0.531 2.82813,1.058 4.25003,1.621 4.2304,-1.223 9.1601,-0.813 12.8711,-3.121 2.4101,-55.41 2.1484,-111.0392 3.1172,-166.4689 0.3398,-2.8711 0.6718,-5.7109 1.0507,-8.5508 2.8828,-2.1093 4.8594,-2.1523 8.4024,-2.7695 109.9181,0.3672 219.8791,2.6875 329.8281,3.0586 97.871,1.7109 97.871,1.7109 115.641,2.4492 1.441,0.1328 11.808,-0.1875 13.199,2.7227 -0.391,22.5273 3.172,47.1094 -0.738,69.2969 -0.461,15.8708 -0.883,31.7808 -1.301,47.6798 -2.891,19.461 0.039,38.992 -1.922,58.473 1.613,8.917 3.062,7.937 11.812,8.089 3.399,-1.089 2.989,-2.218 3.45,-5.562 0.328,-19.11 -0.012,-38.777 1.91,-57.828 0,-36.981 0.39,-73.9495 1.039,-110.9104 1.16,-14.8086 1.652,-16.168 1.969,-22"
         style="fill:#ffffff;fill-opacity:1;fill-rule:evenodd;stroke:none"
         id="path18" /><path
         d="m 492.25,46.8359 c -0.75,-4.4101 -0.52,-7.3906 -5.25,-8.4492 -3.129,-0.0508 -5.84,0.3711 -25.648,0.4492 -24.563,-1.8007 -52.293,-5.6679 -76.95,-1.3398 -4.25,-0.0703 -7.992,-0.25 -12.121,-1.1094 C 343.5,34.875 314.719,33.7969 285.879,35.7773 283.621,35.3086 270.59,35.0781 267,34.5469 c -6.301,-0.1094 -7.668,0.3281 -27.48,0.4179 -5.391,-0.5273 -6.719,-1.0195 -10.989,-1.5195 -19.121,0.1016 -24.531,0.4727 -35.801,0.2813 -5.39,-0.5586 -5.39,-0.5586 -41.8,-2.1016 -18.141,1.8398 -35.43,1.9023 -53.5784,-0.0391 -19.293,-0.3398 -38.7305,1.3789 -58.0703,1.6914 -6.0313,0.9805 -5.1719,3.2188 -5.8125,9.1485 -0.3086,69.0512 0.0898,73.3402 -0.0079,78.7422 -0.3515,1.648 -0.6718,3.297 -0.9921,4.949 -0.9297,26.449 -1.3868,52.942 -1.168,79.41 1.4883,1.539 2.3515,1.371 4.4687,1.661 0.5313,-1.571 2.4727,-3.27 3.4727,-4.911 2.6797,-25.519 1.668,-52.211 0.8867,-77.832 0.5899,-2.66 0.1211,-4.929 -0.2969,-7.679 0.6485,-37.5785 0.6485,-37.5785 0.6485,-63.8988 0.289,-4.3516 0.2383,-7.8399 2.1093,-11.7695 0.7891,-0.1993 1.5899,-0.3711 2.379,-0.5313 21.6914,5.6406 47.7421,2.4922 69.9612,2.1211 34.011,0.5977 68.5,-2.8711 102.371,1.7891 4.789,0.082 9.578,0.1718 14.398,0.25 3.41,-1.6289 5.242,-1.168 8.531,0.1484 17.739,0.7109 36.411,1.7109 54.012,0.043 38.547,0.6679 77.137,-0.8907 115.699,-0.6797 15.27,-2.1524 33.551,-1.4297 48.551,3.1172 6.598,-0.5703 10.238,-0.5391 16.61,1.1914 4.109,-0.3203 7.507,-1.2383 11.367,0.3086 1.25,2.4297 0.191,5.7304 -0.5,8.2031 -2.008,42.7383 -2.469,85.5004 -4.039,128.2184 -1.149,14.379 -2.188,22.461 -2.258,26.5 1.32,5.032 3.23,4.668 7.93,3.418 1.48,-8.757 2.187,-16.449 1.019,-25.289 -0.199,-15.668 -0.57,-31.441 1.25,-47.039 0.238,-14.039 -1.012,-28.609 1.211,-42.5 0.387,-17.8514 0.77,-35.699 1.148,-53.5193"
         style="fill:#ffffff;fill-opacity:1;fill-rule:evenodd;stroke:none"
         id="path20" /><path
         d="m 487.809,225.418 c -1.157,-1.75 -1.789,-2.441 -3.539,-3.453 -3.379,-0.488 -3.379,-0.488 -44.969,-2.11 -17.422,-0.308 -34.801,-0.859 -52.18,-1.597 -0.191,0.75 -0.351,1.508 -0.512,2.258 0.75,0.23 1.512,0.461 2.262,0.691 5.328,3.91 10.551,5.981 16.969,7.488 10.82,7.321 24.769,8.211 37.121,12.352 4.098,0.609 10.379,1.371 12.07,5.859 1.141,0.629 3.028,1.891 3.289,3.192 2.672,1.597 4.34,7.347 5.692,10 4.699,7.07 4.39,14.66 0.519,22.078 -2.539,2.871 -2.539,2.871 -2.992,3.98 -0.32,-0.008 -0.609,-0.008 -0.898,-0.019 -0.012,0.289 -0.012,0.578 -0.02,0.898 -0.32,-0.008 -0.609,-0.008 -0.902,-0.019 -0.008,0.293 -0.008,0.582 -0.02,0.902 -0.898,0.199 -0.898,0.199 -5.14,3.398 -5.477,8.832 -19.618,2.071 -25.977,-1.031 -2.051,-0.039 -3.07,0.274 -4.953,1.07 -0.149,0.321 -0.258,0.641 -0.379,1 -8.73,4.922 -19.008,10.333 -28.508,3.641 -3.59,-0.93 -7.14,-3.73 -10.73,-3.789 -3.633,1.738 -5.461,3.07 -7.27,3.719 0,0.289 -0.012,0.582 -0.012,0.902 -2.281,0.61 -3.628,1.488 -5.91,2.129 -0.011,0.289 -0.011,0.578 -0.011,0.898 -3.938,0.762 -7.84,1.52 -11.739,2.282 -7.84,-0.571 -24.609,-5.289 -25.851,-14.641 -2.399,-0.828 -7.02,-10.488 -8.098,-12.738 -1.609,-10.832 -1.609,-10.832 -2.551,-14.551 -3.398,-1.07 -4.14,-4.031 -5.168,-7.18 -4.601,-6.851 -7.402,-11 -2.281,-18.152 5.231,-2.648 9.59,1.391 14.008,4.172 1.801,0.031 1.801,0.031 13.082,-2.899 8.598,0.149 16.711,2.09 25.168,2.239 2.711,-0.852 2.711,-0.852 5.012,-2.18 1.98,0.031 10.238,2.981 11.199,2 -1.848,-1.332 -3.699,-2.621 -5.551,-3.91 -0.918,-3.082 -1.879,-5.789 -3.449,-8.59 0.101,-5.621 1.25,-5.769 -3.688,-7.519 -16.203,-0.282 -32.371,0.339 -48.613,0.05 -23.84,-1.75 -23.84,-1.75 -44.957,-2.59 -3.363,0.52 -6.113,-0.363 -9.453,-1.07 -46.649,-0.812 -93.27,-0.941 -139.93,-1.07 -29.5388,-1.09 -59.1599,-1.75 -88.6795,-0.223 -4.75,-0.078 -12.8984,-1.488 -17.2109,0.281 -0.0391,2.02 -0.0664,4.032 -0.1094,6.082 2.8594,0.989 1.9922,3.739 6.3594,2.918 68.5312,3.289 137.3634,-2.25 205.9024,0.891 7.598,1.93 15.949,0.102 21.019,6.449 3.891,24.731 -1.441,49.66 2.879,74.403 25.371,0.589 50.801,0.097 76.18,0.539 8.18,-0.223 16.352,-0.071 24.34,-1.813 37.902,2.57 76.633,1.231 114.512,1.531 6.898,-1.461 7.23,-1.711 7.359,-9.089 -1.32,-7.012 -0.539,-14.161 0.371,-21.129 0.359,-12.59 0.731,-25.192 1.09,-37.789 0.191,-0.5 0.379,-1 0.598,-1.473 0.332,-0.098 0.652,-0.199 1.011,-0.309 0.539,-2.082 1.66,-1.922 2.332,-3.562 0.289,0.012 0.578,0.012 0.899,0.023 0.679,-1.793 0.679,-1.793 1,-5.851"
         style="fill:#ffffff;fill-opacity:1;fill-rule:evenodd;stroke:none"
         id="path22" /><path
         d="M 476.809,55.0977 C 476.5,54.1875 476.23,53.2852 475.961,52.375 466.742,50.2656 456.969,50.9648 448.129,48.0781 425.172,47.3164 402.48,47.6055 379.5,48.2148 362,48.0586 344.539,47.8984 327.082,47.7656 c -22.711,3.1992 -45.75,-0.9804 -68.43,1.043 -1.672,0.4766 -3.332,0.9883 -4.992,1.5 1.512,4.0977 1.512,4.0977 3.789,7.8398 -0.429,0.0274 -0.828,0.0586 -1.23,0.0899 -1.078,-2 -2.438,-2.5313 -4.438,-3.6797 -2.961,-5.4531 -7.929,-5.9023 -13.422,-4.5234 -0.007,0.2929 -0.007,0.582 -0.019,0.9023 -7.738,5.9492 -7.738,5.9492 -8.641,6.1484 -0.008,0.2891 -0.008,0.5821 -0.008,0.9024 -5.621,2.0195 -9.711,7.3203 -14.711,9.539 -1.55,4.4688 -9.55,6.8204 -11.21,11.2891 -3.348,2.1406 -4.161,3.0586 -3.61,7.0313 6.582,13.0078 16.211,24.5503 23.43,37.5273 5.941,8.102 11.73,22.922 21.14,26.902 2.852,-0.312 3.84,-1.41 6.34,-2.339 0.012,-0.333 0.012,-0.61 0.012,-0.903 1.809,-0.648 3.637,-1.988 5.449,-2.597 0.008,-0.321 0.008,-0.61 0.008,-0.903 2.641,-0.707 10.242,-4.828 10.922,-7.008 0.578,-0.172 1.191,-0.3 1.809,-0.441 0.109,-0.359 0.23,-0.68 0.339,-1 0.653,-0.277 1.313,-0.52 1.961,-0.758 0.11,-0.363 0.231,-0.68 0.34,-1 1.891,-0.723 3.25,-2.25 5.121,-2.5 0.719,-2.07 5.071,-4.09 7.278,-4.371 -0.02,0.898 -0.028,1.801 -0.047,2.699 -2.5,0.86 -4.102,1.942 -5.442,2.172 -0.91,2.578 -4.691,2.219 -5.488,4.84 -4.203,0.969 -6.602,6.98 -10.941,7.91 0,0.289 -0.012,0.578 -0.012,0.899 -2.309,0.25 -3.27,1.738 -5.438,2.171 -1.14,3.219 -13.199,9.778 -16.402,11.629 -6.437,-0.109 -6.41,-3.902 -10.449,-8.07 -3.961,-8.281 -10.61,-15.129 -14.899,-23.199 -2.949,-4.012 -6.582,-8.653 -8.769,-13.223 -2.5,-3.07 -4.93,-6.129 -6.82,-9.547 -0.321,-0.011 -0.61,-0.011 -0.903,-0.023 -0.648,-1.809 -0.648,-1.809 -10.707,-17.5392 0.988,-5.1289 0.988,-5.1289 2.149,-7.8086 0.289,0.0078 0.578,0.0078 0.898,0.0195 0.621,-2.3711 15.75,-13.0781 16.43,-13.2187 0.082,-0.3203 0.152,-0.6094 0.23,-0.9024 0.512,-0.3086 1.051,-0.5976 1.602,-0.8672 0.078,-0.3203 0.148,-0.6132 0.23,-0.9023 1.129,-0.5898 1.559,-0.7305 1.938,-1.9102 0.472,-0.0976 0.972,-0.1992 1.48,-0.3007 1.481,-4.1875 10.41,-6.7266 11.11,-11.6172 -1.067,-0.5196 -2.137,-1.0508 -3.207,-1.5313 -43.161,-2.5508 -43.161,-2.5508 -54.43,-2.75 -23.672,2.6094 -48.32,1.8594 -72.0197,0.5391 -3.6015,0.2226 -7.2109,0.4492 -10.8125,0.7109 -7.8007,-0.5 -29.8789,-4.4492 -34.289,5.0508 -0.3594,0.0977 -0.6914,0.1992 -1.0117,0.3086 -1.7383,6.8789 -0.8203,13.6992 -0.9375,20.7891 -1.1797,11.9296 -2.1016,23.5117 -1.5196,35.5508 0.8399,3.609 0.8399,3.609 1.2383,7.652 -3.1015,26.84 -1.2617,51.5 -0.039,78.309 1.789,6.801 4.3984,5.691 10.9375,6.281 5.4726,-1.742 2.6914,-9.64 9.2031,-11.543 12.6094,-0.43 25.1679,-0.457 37.8081,-0.238 3.661,-3.539 2.192,-7.52 7.801,-9.762 6.321,-0.789 6.321,-0.789 10.84,-2.078 6.66,-0.141 14.5,0.25 20.848,-1.98 0.273,-5.18 -2.008,-10.512 -3.438,-15.469 -2.402,-0.903 -1.519,-3.813 -1.48,-5.891 3.34,-9.992 7.781,-20.57 10.008,-30.859 5.332,-12.801 7.781,-27.0822 14.191,-39.3596 1.559,-4.5507 5.281,-19.7109 11.391,-21.4023 0.011,-0.3281 0.011,-0.6094 0.011,-0.8984 3.977,-1.1211 4.36,-0.3516 7.27,2.25 0.117,5.3984 -2.332,12.0195 -3.793,17.1406 -2.34,6.2578 -3.27,7.6094 -3.5,8.9375 -0.899,0.0625 -1.797,0.1094 -2.699,0.1719 -2.188,3.5976 -3.848,6.1289 -4.821,10.1796 1.371,0.129 2.77,0.2697 4.172,0.3987 0.141,-1.6877 0.278,-3.3791 0.41,-5.0705 0.68,0.0117 1.368,0.0195 2.051,0.0312 2.207,5.8013 7.199,10.2813 6.91,16.5783 -0.363,0.101 -0.691,0.203 -1.011,0.312 -2.262,5.719 3.519,10.578 -3.391,12.539 -0.371,4.461 0.961,8.95 1.129,13.52 -1.758,-0.25 -2.008,-0.469 -3.25,-1.75 -2.32,-7.238 -5.59,-13.777 -7.84,-20.949 -3.25,-3.371 0.191,-6.512 0.07,-10.012 -0.359,-0.039 -0.679,-0.078 -1.007,-0.117 -2.422,2.328 -4.09,9.687 -3.832,13.219 1.121,-0.231 1.121,-0.231 2.8,0.371 2.942,9.16 8.789,18.48 8.621,28.16 -1.031,1.597 -1.152,1.738 -2.949,2.219 0.008,3.211 0.77,7.5 -0.543,10.429 -0.937,0.242 -1.879,0.469 -2.82,0.742 -0.18,4.43 0.953,7.579 -2.977,9.739 -0.57,1.539 -1.132,3.109 -1.66,4.691 -3.863,0.078 -2.89,-1.64 -5.472,-2.441 0.121,1.191 0.25,2.379 0.41,3.609 4.25,1.981 10.101,2.879 12.922,6.742 1.027,0.59 2.07,1.219 3.14,1.848 13.559,1.141 27.11,2.269 40.66,3.41 8.797,-0.57 11.68,0.922 13.34,9.449 1.008,1.641 1.789,2.731 3.317,3.871 2.691,0.512 2.691,0.512 34.601,1.969 7.789,-0.469 15.832,0.711 23.422,-0.707 2.098,-6.91 2.098,-15.23 2.867,-22.453 0.41,-6.617 0.813,-13.199 1.25,-19.777 0.942,-2.403 1.883,-4.789 2.821,-7.153 0.55,-6.547 -1.618,-20.41 8.609,-16.738 33.301,0.109 33.301,0.109 36.91,-0.262 4.52,-3.34 6.973,-7.218 12.75,-8.777 33.762,0.59 33.762,0.59 35.09,1.047 12.152,1.113 12.152,1.113 13.582,1.711 0.168,0.789 0.328,1.59 0.539,2.39 -2.16,2.09 -15.871,-0.82 -18.668,-1.007 -11.16,-0.192 -22.91,-1.481 -33.762,1.429 -3.019,4.008 -3.019,4.008 -3.699,5.797 2.231,0.043 4.461,0.082 6.731,0.121 0.007,-0.898 0.027,-1.801 0.05,-2.699 0.578,-0.102 1.188,-0.16 1.809,-0.219 12.551,2.918 26.059,0.309 38.641,3.84 4.148,3.309 2.757,9.231 7.918,10.469 3.621,-0.84 3.621,-0.84 4.199,-1.371 -0.047,-3.02 -0.848,-6.891 0.39,-9.68 1.911,-0.07 7.762,0.93 18.543,2.02 10.137,0.609 20.629,0.109 30.059,4.121 0.988,1.031 0.988,1.031 1.961,3.422 2.34,18.437 -1.731,36.976 0.828,55.347 0.32,0.481 0.629,0.981 0.98,1.492 3.489,0.028 6.981,0.047 10.481,0.079 0.551,-2.692 1.141,-5.379 1.719,-8.071 1.511,-47.57 3.39,-95.07 5.41,-142.5896"
         style="fill:#ffffff;fill-opacity:1;fill-rule:evenodd;stroke:none"
         id="path24" /><path
         d="m 461.332,271.758 c -0.473,-0.012 -0.902,-0.02 -1.332,-0.02 -0.559,1.028 -0.668,1.457 -1.828,1.77 -0.293,2.078 -1.32,3.539 -2.363,5.359 -0.329,-0.012 -0.61,-0.012 -0.899,-0.012 -0.148,0.571 -0.308,1.18 -0.461,1.793 -0.898,0.2 -0.898,0.2 -4.539,2.399 -7.129,0.418 -14.769,-1.621 -18.539,-8.211 -0.812,-5.27 -0.101,-14.508 5.02,-17.449 1.199,-4.77 16.75,-2.34 18.429,2.121 0.981,-0.16 1.95,-0.293 2.922,-0.422 -1.152,-2.398 -2.312,-3.527 -4.633,-4.578 0.012,-0.332 0.012,-0.61 0.012,-0.903 -3.25,-1.277 -5.012,-1.667 -8.539,-1.73 -1.723,1.66 -4.992,1.461 -7.34,1.781 -0.113,0.321 -0.23,0.68 -0.34,1.039 -0.761,0.133 -1.523,0.262 -2.281,0.391 -0.012,0.289 -0.012,0.582 -0.019,0.902 -4.012,3.098 -3.383,4.258 -8.75,4.02 -0.973,-1.922 -0.973,-1.922 -1.922,-5.223 -5.141,-0.16 -8.809,-0.476 -13.559,-2.609 -9.012,0.312 -9.012,0.312 -10.812,0.711 -3.629,1.73 -4.547,2.621 -6.789,3.269 -0.008,0.289 -0.008,0.582 -0.02,0.903 -2.281,0.636 -2.281,0.636 -5.879,0.578 -1.73,-1.789 -2.18,-2.879 -3.039,-5.239 -1.391,-0.492 -2.742,-2.031 -3.43,-3.339 -0.933,-0.454 -1.863,-0.864 -2.793,-1.274 0.012,-0.32 0.012,-0.609 0.012,-0.898 -3.371,-0.961 -3.371,-0.961 -4.039,-1.66 -8.98,-1.379 -23.203,-1.489 -27.582,8.308 -0.32,-0.008 -0.609,-0.008 -0.898,-0.019 -2.813,6.293 -6.641,11.05 -8.2,17.859 0.348,6.563 2.75,11.75 4.188,18.07 8.301,5.012 18.539,6.051 28.039,4.563 0.012,-0.32 0.012,-0.61 0.012,-0.903 1.191,-0.296 2.39,-0.57 3.621,-0.839 0.98,-2.828 5.008,-2.438 5.808,-4.981 0.469,-0.097 0.981,-0.199 1.481,-0.297 0.719,-2.07 3.441,-3.25 4.168,-5.8 4.761,-0.2 5.851,1 7.543,5.32 3.429,1.539 6.859,3.109 10.289,4.68 5.539,0.097 17.39,-0.129 19.91,-6.172 2.391,-0.969 3.129,-2 5.871,-1.95 3.137,1.852 4.02,2.77 8.477,5.122 11.91,2.468 24.093,-3.973 25.023,-16.45"
         style="fill:#ffffff;fill-opacity:1;fill-rule:evenodd;stroke:none"
         id="path26" /><path
         d="m 453.27,268.918 c -0.411,-0.941 -0.79,-1.891 -1.168,-2.832 -0.36,-0.109 -0.68,-0.231 -1,-0.34 -1.403,-4.449 -8.461,-4.141 -12.11,-3.379 -0.711,1.641 -1.433,3.289 -2.101,4.93 -0.082,4.898 1.351,4.879 3.101,8.262 7.828,5.027 12.27,2.629 13.289,-6.653"
         style="fill:#ffffff;fill-opacity:1;fill-rule:evenodd;stroke:none"
         id="path28" /><path
         d="m 453.031,206.375 c -0.23,-1.09 -0.429,-2.129 -0.629,-3.18 0.059,-13.968 0.157,-27.898 0.258,-41.828 0.192,-0.359 0.371,-0.711 0.602,-1.031 -2.352,-1.438 -4.75,-1.988 -7.492,-2.039 0.281,0.289 0.562,0.59 0.882,0.918 -0.183,0.14 -0.332,0.281 -0.48,0.461 0.32,0.332 0.637,0.66 0.988,1.031 -0.23,17.031 -0.699,33.941 -0.308,50.981 1.398,2.187 2.23,2.488 4.679,2.308 1.34,-2.598 1.301,-4.66 1.5,-7.609"
         style="fill:#ffffff;fill-opacity:1;fill-rule:evenodd;stroke:none"
         id="path30" /><path
         d="m 434.852,165.078 c -6.731,-2.031 -14.45,-1.121 -21.571,-1.961 -3.039,0.918 -6.101,2.809 -9.062,3.442 9.883,1.5 20.211,1.789 30.121,0.777 0.16,-0.75 0.312,-1.508 0.512,-2.258"
         style="fill:#ffffff;fill-opacity:1;fill-rule:evenodd;stroke:none"
         id="path32" /><path
         d="m 433.641,183.059 c -5.469,-0.133 -10.899,-0.262 -16.34,-0.391 0.019,0.789 0.039,1.578 0.101,2.379 4.86,1.781 10.11,0.711 15.297,0.269 0.301,-0.75 0.602,-1.5 0.942,-2.25"
         style="fill:#ffffff;fill-opacity:1;fill-rule:evenodd;stroke:none"
         id="path34" /><path
         d="m 430.75,193.816 c -2.09,0.071 -4.141,0.141 -6.199,0.219 0.211,0.512 0.41,1.051 0.621,1.602 3.047,0.629 3.047,0.629 5.539,0.461 0.008,-0.75 0.031,-1.512 0.039,-2.27"
         style="fill:#ffffff;fill-opacity:1;fill-rule:evenodd;stroke:none"
         id="path36" /><path
         d="m 429.289,173.988 c -14.18,-0.461 -14.18,-0.461 -18,-0.101 3.742,1.941 13.41,0.84 18,0.101"
         style="fill:#ffffff;fill-opacity:1;fill-rule:evenodd;stroke:none"
         id="path38" /><path
         d="m 426.469,205.906 c -0.84,-1.379 -1.457,-3.16 -3.067,-3.648 -0.172,-0.621 -0.3,-1.231 -0.441,-1.813 -0.332,-0.007 -0.609,-0.007 -0.902,-0.007 -0.688,-1.961 -1.86,-4.821 -3.938,-5.473 -1.062,-2.93 -6.609,-13.328 -10.539,-14.59 -0.172,-0.609 -0.301,-1.227 -0.441,-1.809 -0.332,-0.007 -0.61,-0.007 -0.899,-0.019 -0.73,-3.43 -6.613,-7.129 -8.25,-10.192 -6.793,-5.089 -15.66,-2 -23.07,-0.507 -4.551,2.617 -4.551,2.617 -6.793,3.269 0,0.289 -0.008,0.578 -0.008,0.899 -1.23,0.269 -2.422,0.531 -3.609,0.839 -0.153,0.321 -0.262,0.641 -0.383,1 -1.078,0.231 -2.168,0.461 -3.25,0.731 -0.008,0.289 -0.008,0.582 -0.02,0.902 -4.699,1.18 -8.988,3.34 -13.168,5.86 -8.16,3.461 -10.89,5.211 -12.23,5.398 0,0.289 -0.012,0.582 -0.012,0.902 -1.23,0.27 -2.418,0.528 -3.609,0.84 -0.531,1.539 -2.188,1.91 -3.649,2.637 -0.011,0.293 -0.011,0.582 -0.011,0.902 -0.61,-0.011 -1.219,-0.019 -1.801,-0.031 -3.047,7.652 2.48,12.32 7.812,16.563 15.289,0.406 30.59,0.816 45.879,1.269 14.899,-1.43 29.59,-1.75 44.559,-1.492 1.242,-0.809 1.531,-0.949 1.84,-2.418"
         style="fill:#ffffff;fill-opacity:1;fill-rule:evenodd;stroke:none"
         id="path40" /><path
         d="m 421.91,157.656 c -25.051,-0.508 -50.101,-1.019 -75.121,-1.531 -1.18,-0.598 -1.898,-0.789 -2.23,-2.059 -3.52,-0.281 -5.657,0.661 -9.028,1.391 -22.711,-0.398 -22.711,-0.398 -26.539,0 -0.183,0.141 -0.332,0.281 -0.48,0.43 1.64,0.601 3.289,1.238 4.937,1.89 19.531,1.168 39.16,1.008 58.711,0.809 0.371,-0.25 0.731,-0.461 1.129,-0.668 14.883,-0.531 29.77,0.52 44.563,0.777 1.339,-0.367 2.679,-0.707 4.05,-1.047"
         style="fill:#ffffff;fill-opacity:1;fill-rule:evenodd;stroke:none"
         id="path42" /><path
         d="m 408.809,264.547 c -1.977,-2.34 -3.188,-2.969 -6.25,-3.031 -4.707,1.902 -4.45,3.492 -7.11,7.293 -0.097,5.539 0.242,13.179 8.25,10.148 0.121,-0.359 0.231,-0.68 0.383,-1 0.289,-0.07 0.578,-0.141 0.898,-0.199 1.641,-2.813 1.36,-5.52 1.489,-8.762 1.883,-0.578 2.133,-2.629 2.351,-4.461"
         style="fill:#000000;fill-opacity:1;fill-rule:evenodd;stroke:none"
         id="path44" /><path
         d="m 376.961,257.688 c -6.379,-6.129 -8.68,-6.313 -17.43,-6.141 -0.011,0.289 -0.011,0.578 -0.019,0.898 -6.192,1.66 -10.223,10.082 -11.332,16 -0.071,4.211 -1.149,12.043 3.242,14.313 1.129,3.66 9.558,3.148 12.547,3.168 -0.008,-1.188 -0.028,-2.34 -0.047,-3.5 -0.473,-0.258 -0.891,-0.481 -1.32,-0.711 -1.411,-3.547 -3.622,-5.067 -7.102,-5.957 -0.141,-4.043 0.789,-5.68 1.969,-9.442 0.332,-0.101 0.652,-0.199 1.011,-0.308 5.18,-6.141 9.961,-5.121 17.52,-4.992 0.582,-0.571 0.582,-0.571 0.961,-3.368"
         style="fill:#000000;fill-opacity:1;fill-rule:evenodd;stroke:none"
         id="path46" /><path
         d="m 374.969,140.637 c -3.278,-0.059 -6.59,-0.121 -9.899,-0.172 0,0.14 -0.011,0.293 -0.011,0.473 3.281,0.058 6.593,0.121 9.902,0.167 0,-0.14 0.008,-0.289 0.008,-0.468"
         style="fill:#ffffff;fill-opacity:1;fill-rule:evenodd;stroke:none"
         id="path48" /><path
         d="m 359.23,165.559 c -16.078,-2.731 -33.16,-2.161 -49.46,-2.454 -1.469,1.993 -1.68,3.18 -0.239,5.293 14.559,1.079 29.18,1.09 43.758,1.34 2.652,-1.25 3.793,-2.453 5.941,-4.179"
         style="fill:#ffffff;fill-opacity:1;fill-rule:evenodd;stroke:none"
         id="path50" /><path
         d="m 347.379,147.348 c -1.078,-2.25 -2.508,-2.532 -4.887,-2.571 -1.101,1.059 -0.64,3.34 -0.66,4.848 1.828,-0.008 3.668,-0.008 5.508,-0.008 0.012,-0.75 0.031,-1.512 0.039,-2.269"
         style="fill:#ffffff;fill-opacity:1;fill-rule:evenodd;stroke:none"
         id="path52" /><path
         d="m 333.352,177.715 c -7.743,-0.348 -17.75,-2.289 -25.301,-0.547 -0.121,0.789 -0.242,1.578 -0.371,2.367 8.5,1.66 17.109,1.453 25.629,0.453 0.011,-0.761 0.031,-1.511 0.043,-2.273"
         style="fill:#ffffff;fill-opacity:1;fill-rule:evenodd;stroke:none"
         id="path54" /><path
         d="m 315.16,188.195 c -5.73,-3.699 -11.308,-1.707 -8.781,5.832 6.441,0.289 4.16,-3.312 8.781,-5.832"
         style="fill:#ffffff;fill-opacity:1;fill-rule:evenodd;stroke:none"
         id="path56" /><path
         d="m 312.242,200.746 c -1.402,0.082 -2.812,0.172 -4.183,0.25 -0.258,0.641 -0.52,1.289 -0.789,1.93 1.472,0.031 2.992,0.051 4.5,0.082 0.16,-0.75 0.312,-1.512 0.472,-2.262"
         style="fill:#ffffff;fill-opacity:1;fill-rule:evenodd;stroke:none"
         id="path58" /><path
         d="m 303.129,155.578 c -1.047,-0.019 -2.09,-0.031 -3.129,-0.051 -0.258,0.571 -0.488,1.18 -0.719,1.789 -0.179,10.18 -0.57,20.481 -2.801,30.551 0.391,16.891 0.391,16.891 0.84,18.02 0.43,0.011 0.86,0.019 1.332,0.031 0.879,-11.223 0.879,-11.223 1.918,-46.313 0.34,-1 2.559,-4.027 2.559,-4.027"
         style="fill:#ffffff;fill-opacity:1;fill-rule:evenodd;stroke:none"
         id="path60" /><path
         d="m 294.359,117.617 c -0.57,-0.332 -1.539,-2.73 -4.828,-7.719 -0.441,0.239 -0.84,0.489 -1.242,0.727 0.621,1.41 1.281,2.871 1.941,4.32 1.579,0.532 2.149,2.703 3.422,4.02 0.219,-0.457 0.45,-0.93 0.707,-1.36"
         style="fill:#000000;fill-opacity:1;fill-rule:evenodd;stroke:none"
         id="path62" /><path
         d="m 248.25,232.035 c -0.18,-0.328 -0.309,-0.617 -0.449,-0.91 -1.332,-0.238 -1.789,-0.707 -5.379,-1.207 -1.813,0.398 -3.152,1.277 -5.43,1.699 -30.453,-0.531 -60.883,-0.519 -91.351,0.418 -0.539,2.113 -0.512,2.512 -2.332,3.563 -0.008,0.289 -0.008,0.578 -0.008,0.898 -7.512,1.063 -16.141,0.692 -23.012,4.102 0,0.289 -0.008,0.578 -0.008,0.898 -1.711,0.832 -3.41,1.672 -5.121,2.5 -0.781,1.25 -2.539,3.231 -3.988,3.641 -1.031,3.359 -7.543,8.98 -2,11.449 8.707,0.152 5.219,0.199 8.867,-6.828 0.512,-0.391 1.051,-0.742 1.602,-1.09 11.609,-1.133 24.789,-0.902 35.609,3.859 0.379,0.938 0.762,1.891 1.172,2.871 4.687,1.668 8.469,1.797 13.469,2.04 0.011,-0.321 0.011,-0.61 0.011,-0.903 0.578,-0.168 1.188,-0.297 1.809,-0.437 -0.559,-9.121 -12.231,-19.039 -20.43,-21.852 0.051,-0.789 0.098,-1.578 0.149,-2.34 4.492,0.731 4.492,0.731 8.531,2.172 12.129,0.348 24.258,0.707 36.418,1.07 12.172,-0.222 42.301,0.309 46.383,-0.089 2.547,-1.614 3.758,-3.071 5.5,-5.524"
         style="fill:#ffffff;fill-opacity:1;fill-rule:evenodd;stroke:none"
         id="path64" /><path
         d="m 247.039,301.797 c -5.328,-7.942 -9.508,-1.899 -14.219,1.98 4.149,1.438 9.309,0.7 13.711,0.711 0.16,-0.902 0.321,-1.793 0.508,-2.691"
         style="fill:#ffffff;fill-opacity:1;fill-rule:evenodd;stroke:none"
         id="path66" /><path
         d="m 243.441,274.727 c -1.871,-4.571 -2.332,-4.789 -7.121,-4.879 -2.871,1.347 -6.109,1.187 -9.238,1.418 3.5,3.632 1.887,7.062 0.34,11.382 4.66,1.161 11.117,2.207 15.558,-0.203 0.149,-2.59 0.309,-5.179 0.461,-7.73"
         style="fill:#ffffff;fill-opacity:1;fill-rule:evenodd;stroke:none"
         id="path68" /><path
         d="m 240.531,262.066 c -0.789,-2.14 -1.582,-4.238 -2.379,-6.339 -3.363,-3.481 -6.343,-5.731 -10.882,-8.079 -10.18,-0.183 -29.168,-1.453 -31.969,12.477 0.91,1.352 2.75,1.422 4.25,1.883 11.23,0.34 22.488,0.68 33.758,1.058 2.652,0.77 4.113,1.582 6.722,0.801 0.16,-0.609 0.309,-1.219 0.5,-1.789"
         style="fill:#ffffff;fill-opacity:1;fill-rule:evenodd;stroke:none"
         id="path70" /><path
         d="m 235.969,290.328 c -0.457,-0.262 -0.887,-0.48 -1.317,-0.711 -17.093,-0.73 -17.093,-0.73 -40.062,-0.922 0.199,1.192 0.39,2.383 0.621,3.614 9.508,9.847 25.41,8.617 37.148,4.359 0.11,-0.359 0.231,-0.68 0.383,-1 2.528,-0.781 3,-3.012 3.227,-5.34"
         style="fill:#ffffff;fill-opacity:1;fill-rule:evenodd;stroke:none"
         id="path72" /><path
         d="m 223.73,269.418 c -5.789,-0.352 -10.421,-3.352 -16.171,-1.871 -13.528,-0.238 -27.5,-0.52 -40.957,1.09 -7.032,4.879 -1.532,17.261 -11.641,21.179 -1.02,2.68 -2.039,5.372 -3.059,8.051 3.18,3.289 9.387,-3.691 11.688,-5.519 0.582,-2.153 0.582,-2.153 0.66,-6.871 0.512,-0.391 1.051,-0.739 1.602,-1.09 7.57,-0.481 15.14,-0.961 22.75,-1.399 8.418,0.149 17.3,1.2 25.57,-0.562 0.398,-4.488 -0.192,-7.461 1.328,-11.93 1.492,-0.508 1.492,-0.508 8.23,-1.078"
         style="fill:#ffffff;fill-opacity:1;fill-rule:evenodd;stroke:none"
         id="path74" /><path
         d="m 222.301,274.785 c -0.899,-0.008 -1.801,-0.027 -2.699,-0.047 -0.012,0.43 -0.02,0.899 -0.02,1.367 0.719,0.161 1.469,0.313 2.219,0.473 0.16,-0.613 0.308,-1.223 0.5,-1.793"
         style="fill:#ffffff;fill-opacity:1;fill-rule:evenodd;stroke:none"
         id="path76" /><path
         d="m 219.461,204.527 c -9.93,-0.57 -19.731,-1.929 -29.66,-2.531 -19.371,-0.187 -38.699,-0.391 -58.031,-0.578 -7.688,1.34 -15.598,0.629 -23.411,0.488 -5.41,0.481 -10.8199,1 -16.2301,1.52 -6.7695,0.062 -16.0391,-1.289 -22.1094,2.312 1.4922,1.028 2.6797,1.129 4.4805,1.45 20.0898,0.097 40.031,0.449 60.07,1.48 12.391,-0.223 12.391,-0.223 48.821,0.418 11.418,-0.41 24.839,0.223 36.039,-1.859 0.019,-0.899 0.031,-1.801 0.05,-2.7"
         style="fill:#ffffff;fill-opacity:1;fill-rule:evenodd;stroke:none"
         id="path78" /><path
         d="m 213.449,163.016 c -2.879,-0.051 -5.328,2.211 -7.73,3.679 -7.449,-0.129 -11.809,-6.078 -11.68,-13.457 0.641,-1.543 1.32,-3.07 1.992,-4.613 4.071,-1.937 6.84,-2.078 11.418,-2.359 -2.508,-6.668 -10.039,-6.258 -15.699,-3.868 -0.008,0.29 -0.008,0.579 -0.02,0.899 -0.5,0.101 -1.011,0.199 -1.48,0.301 -0.121,0.32 -0.23,0.64 -0.34,1 -3.719,0.828 -5.758,8.109 -6.711,11.148 -0.179,10.371 3.332,11.332 12.121,15.262 5.649,0.097 9.18,0.117 14.43,-1.762 0.012,-0.328 0.012,-0.609 0.02,-0.898 1.449,-0.301 1.46,-0.95 1.839,-2.2 0.332,-0.14 0.653,-0.242 1.012,-0.339 0.27,-0.934 0.539,-1.864 0.84,-2.793"
         style="fill:#000000;fill-opacity:1;fill-rule:evenodd;stroke:none"
         id="path80" /><path
         d="m 188.141,245.387 c -3.61,-5.789 -13.43,-3.942 -19.262,-3.93 0.613,4.078 3.551,7.078 5.863,10.469 1.637,3.34 2.629,6.019 5.508,8.41 1.98,0 3.961,0 5.941,-0.008 2.45,-4.461 1.801,-10.012 1.95,-14.941"
         style="fill:#ffffff;fill-opacity:1;fill-rule:evenodd;stroke:none"
         id="path82" /><path
         d="m 186,291.727 c -1.641,-5.282 -14.059,-3.231 -17.66,-0.879 -0.41,0.968 -0.789,1.929 -1.168,2.898 2.949,2.18 14.027,0.789 18.32,0.211 0.16,-0.75 0.309,-1.512 0.508,-2.23"
         style="fill:#ffffff;fill-opacity:1;fill-rule:evenodd;stroke:none"
         id="path84" /><path
         d="m 163.871,192.328 c -0.82,-0.269 -1.652,-0.5 -2.469,-0.73 -0.472,0.347 -0.91,0.711 -1.351,1.09 1.058,1.097 2.328,0.578 3.808,0.527 0.012,-0.317 0.012,-0.61 0.02,-0.899"
         style="fill:#ffffff;fill-opacity:1;fill-rule:evenodd;stroke:none"
         id="path86" /><path
         d="m 163.582,183.746 c -2.691,-0.73 -4.043,-1.66 -8.941,-3.539 -6.942,-0.84 -36.661,-3.769 -41.739,4.668 0.309,0.551 0.629,1.133 0.977,1.711 4.391,0.223 8.09,-1.231 12.32,-2.379 9.942,-0.148 20.93,-0.82 30.571,1.898 2.05,0.043 4.632,0.551 6.41,-0.457 0.121,-0.652 0.242,-1.293 0.39,-1.902"
         style="fill:#ffffff;fill-opacity:1;fill-rule:evenodd;stroke:none"
         id="path88" /><path
         d="m 161.91,124.777 c -0.269,-1.05 -0.5,-2.062 -0.738,-3.07 -2.422,0.75 -2.602,4.391 -2.492,6.621 0.941,-0.422 1.89,-0.832 2.832,-1.211 0.117,-0.789 0.238,-1.582 0.398,-2.34"
         style="fill:#ffffff;fill-opacity:1;fill-rule:evenodd;stroke:none"
         id="path90" /><path
         d="m 157.871,277.738 c -0.281,-2.562 -0.519,-5.121 -0.769,-7.679 -2.543,-0.801 -5.911,-1.582 -8.52,-1.051 -0.23,2.867 0,4.027 1,6.789 -0.293,2.371 -0.551,4.781 -0.812,7.191 2.3,0.508 6.742,1.668 8.679,-0.211 0.141,-1.691 0.27,-3.379 0.41,-5.031"
         style="fill:#ffffff;fill-opacity:1;fill-rule:evenodd;stroke:none"
         id="path92" /><path
         d="m 158.141,134.617 c -0.45,-1.371 -0.45,-1.371 -0.879,-1.379 -0.012,0.289 -0.012,0.578 -0.02,0.899 -0.32,-0.012 -0.613,-0.012 -0.902,-0.02 -0.008,0.289 -0.008,0.578 -0.02,0.899 -0.32,-0.008 -0.609,-0.008 -0.898,-0.02 -1.141,3.262 -3.203,6.172 -1.75,9.442 0.699,-0.993 0.848,-1.43 2.047,-1.77 0.082,-0.32 0.16,-0.609 0.23,-0.902 0.512,-0.309 1.051,-0.59 1.602,-0.868 0.179,-2.121 0.359,-4.21 0.578,-6.293"
         style="fill:#ffffff;fill-opacity:1;fill-rule:evenodd;stroke:none"
         id="path94" /><path
         d="m 147.871,259.086 c -5.969,-2.621 -16.152,-3.379 -21.961,-0.059 0.102,0.649 0.192,1.301 0.332,1.95 5.758,1.832 14.66,1.449 20.699,0.359 0.301,-0.75 0.598,-1.5 0.938,-2.25"
         style="fill:#ffffff;fill-opacity:1;fill-rule:evenodd;stroke:none"
         id="path96" /><path
         d="m 145.5,291.445 c -5.18,-2.609 -9.988,-1.289 -15.75,-1.386 -1.809,0.398 -1.809,0.398 -2.719,1.277 4.449,3.062 11.989,1.871 17.071,1.879 0.007,-0.328 0.007,-0.61 0.007,-0.899 0.903,-0.199 0.903,-0.199 1.383,-0.878"
         style="fill:#ffffff;fill-opacity:1;fill-rule:evenodd;stroke:none"
         id="path98" /><path
         d="m 140.82,275.168 c -2.418,0.348 -3.269,1.738 -4.461,3.629 0.86,-0.02 1.731,-0.039 2.59,-0.059 0.012,-0.32 0.012,-0.613 0.02,-0.902 0.582,-0.129 1.191,-0.27 1.812,-0.398 0.008,-0.762 0.028,-1.512 0.039,-2.27"
         style="fill:#ffffff;fill-opacity:1;fill-rule:evenodd;stroke:none"
         id="path100" /><path
         d="m 128.57,281.715 c -1.539,-4.309 -1.668,-7.699 -1.949,-12.309 -3.91,-0.859 -7.969,-1.039 -11.91,-0.211 -1.582,3.864 -2.711,10.723 -0.719,14.614 4.61,0.117 9.637,0.886 14.078,-0.293 0.16,-0.61 0.309,-1.219 0.5,-1.789"
         style="fill:#ffffff;fill-opacity:1;fill-rule:evenodd;stroke:none"
         id="path102" /><path
         d="m 126.012,298.309 c -0.461,-0.153 -0.891,-0.301 -1.321,-0.461 -0.171,-0.621 -0.3,-1.231 -0.441,-1.813 -0.32,-0.008 -0.609,-0.008 -0.898,-0.008 -1.36,-2.871 -4.731,-5.742 -8,-5.789 -0.332,0.278 -0.622,0.571 -0.922,0.879 2.172,3.848 6.269,7.781 11.129,7.86 0.152,-0.25 0.293,-0.461 0.441,-0.668"
         style="fill:#ffffff;fill-opacity:1;fill-rule:evenodd;stroke:none"
         id="path104" /><path
         d="m 118.871,191.965 c -1.75,-0.68 -3.359,-1.18 -5.07,-0.199 0.019,0.793 0.039,1.582 0.101,2.382 1.368,-0.121 2.739,-0.203 4.137,-0.293 0.262,-0.64 0.531,-1.289 0.832,-1.89"
         style="fill:#ffffff;fill-opacity:1;fill-rule:evenodd;stroke:none"
         id="path106" /><path
         d="m 106.75,293.938 c -1.238,-0.993 -2.668,-1.672 -3.109,-3.223 -5.6215,-1.828 -11.4301,-1.238 -16.7191,-3.317 0.0078,-0.832 0.0273,-1.66 0.039,-2.492 4.8204,-1.75 12.5079,-0.82 17.6911,-0.91 0.008,-0.328 0.008,-0.609 0.02,-0.898 0.578,-0.172 1.187,-0.301 1.808,-0.442 -0.07,-3.929 -0.148,-7.82 -0.23,-11.699 -0.359,-0.121 -0.711,-0.23 -1.039,-0.34 -0.102,-0.359 -0.199,-0.691 -0.309,-1.019 -3.593,-0.75 -3.593,-0.75 -13.9098,-1.61 -0.4531,-3.211 -1.6602,-5.793 0.0078,-8.679 1.082,-0.231 2.1719,-0.473 3.2891,-0.704 0.1132,-0.359 0.2304,-0.707 0.3398,-1.039 3.6016,-2.058 5.082,-10.5 5.332,-14.628 -1.5703,-0.641 -3.1523,-1.282 -4.6914,-1.879 -0.4492,-1.344 -0.4492,-1.344 -0.1797,-2.243 4.9412,-0.601 4.9412,-0.601 8.2302,-1.55 0.739,-1.028 0.93,-1.528 2.16,-1.868 0.231,-0.902 0.93,-1.57 1.051,-2.363 -1.902,-0.609 -1.902,-0.609 -5.711,-1.109 -19.1208,0.101 -19.1208,0.101 -34.4177,-0.379 -4.9414,-7.719 -7.6523,-2.91 -13.0703,-0.012 -4.4297,0.172 -27.2109,3.774 -30.8906,-1.976 -0.3594,0.097 -0.6914,0.199 -1.0117,0.308 -1.1094,3.508 -1.0078,4.449 -0.1406,8.098 1.0507,-0.117 2.0898,-0.25 3.1406,-0.379 0.0117,-0.32 0.0117,-0.609 0.0117,-0.898 10.0508,0.07 20.0899,0.167 30.168,0.277 1.1328,1.172 0.3515,4.941 0.3203,6.562 -4.2695,1.508 -9,0.059 -13.5274,1.309 -0.9218,0.879 -0.9218,0.879 -5.8906,3.281 0,0.289 -0.0117,0.578 -0.0117,0.899 -2.2109,0.832 -3.4492,1.812 -4.1406,4 -3.7305,1.16 -5.6992,9.121 -6.7305,12.48 -0.0898,5.219 0.082,13.942 6.25,15.41 0.5508,-2.691 1.1406,-5.379 1.7305,-8.07 0.5625,-7.188 0.5625,-7.188 1.1601,-8.66 1.5196,-0.481 2.1719,-2.66 3.1993,-4.008 7.8007,-3.141 16.6601,-1.262 24.8906,-0.793 0.6719,3.113 3.4922,4.16 3.5703,7.84 -1.4492,0.523 -1.4492,0.523 -12.2695,1.48 -0.1914,0.364 -0.3399,0.711 -0.4883,1.114 -0.9024,-0.024 -0.9024,-0.024 -1.3203,-0.711 -9.3399,0.629 -12.7813,-3.93 -12.9727,6.98 0.6524,6.238 0.7109,6.559 6.9805,6.527 1.2617,-2.207 0.6797,-6.07 0.7304,-8.628 0.629,-1.11 1.3008,-2.168 1.961,-3.239 6.6992,0.047 13.418,-1.242 13.2578,7.539 -0.9375,2.25 -0.9375,2.25 -1.1992,4.95 6.4414,0.332 12.8828,0.66 19.3203,0.988 3.3398,2.363 1.4922,5.64 1.4219,9.281 0.8593,2.25 1.75,3.16 3.2695,6.359 2.3398,-0.179 3.8398,-1.046 4.5586,-3.519 5.6992,-0.91 11.6993,-0.16 17.5393,-0.16 0.16,-0.75 0.312,-1.508 0.511,-2.231"
         style="fill:#ffffff;fill-opacity:1;fill-rule:evenodd;stroke:none"
         id="path108" /><path
         d="m 106.359,110.309 c -1.519,-7.731 -7.2692,-22.8129 -16.8473,-22.4731 -0.0508,0.4727 -0.0898,0.9727 -0.1328,1.4727 2.9414,2.6797 8.2734,6.5469 9.9727,10.5078 0.289,0.0117 0.5781,0.0117 0.8984,0.0117 1.469,4.5269 1.469,4.5269 4.082,9.9689 0.82,4.519 0.82,4.519 1.188,9.918 0.269,-3.156 0.539,-6.289 0.851,-9.418"
         style="fill:#000000;fill-opacity:1;fill-rule:evenodd;stroke:none"
         id="path110" /><path
         d="m 99.1211,112.418 c -2.3398,-8.141 -3.2188,-9.492 -3.8594,-11.77 -0.3594,-0.113 -0.6797,-0.23 -1,-0.339 -4.2812,-6.2035 -15.7226,-6.8715 -22.3008,-5.2504 -3.6289,1.7383 -5.4492,3.0664 -6.9414,3.5898 -0.6797,1.9996 -3.3203,2.7496 -4.0195,5.4766 -0.3203,-0.008 -0.6094,-0.008 -0.8984,-0.02 -2.8008,9.922 -4.0821,17.43 1.2304,26.672 1.1094,0.379 1.1368,0.7 1.6602,1.719 8.3594,5.981 15.3281,6.859 24.5898,2.34 0.1094,-0.359 0.2266,-0.68 0.3789,-1 1.3399,-0.188 1.8086,-0.648 3.1485,-0.84 0.1211,-0.359 0.2304,-0.68 0.3398,-1 6.6328,-4.488 7.2696,-12.328 7.6797,-19.558"
         style="fill:#000000;fill-opacity:1;fill-rule:evenodd;stroke:none"
         id="path112" /><path
         d="m 95.0703,138.016 c -2.5781,1.07 -5.1484,2.14 -7.7305,3.211 -6.0312,0.8 -12.3906,0.429 -18.4296,-0.321 -2.1407,-1.121 -4.2813,-2.238 -6.3907,-3.347 -0.3672,-1.192 -0.6601,-1.204 -1.7695,-1.832 -2.2812,-3.321 -2.2812,-3.321 -4.9414,-6.059 -0.8594,-2.281 -1.7188,-4.531 -2.5781,-6.781 0.3711,-4.489 0.7304,-8.989 1.1406,-13.481 1.3203,-3.148 7.0195,-14.3083 9.9375,-14.9099 0.3008,-0.5313 0.6016,-1.0703 0.9336,-1.5703 0.4297,0.0117 0.8594,0.0117 1.3281,0.0195 0.0117,-0.3203 0.0117,-0.6094 0.0195,-0.8984 3.4805,-1.0196 13.0899,-1.1094 12.2813,-6.0899 -4.2109,-2.1992 -13.9219,1.4102 -16.1914,5.2188 -1.4492,0.4492 -1.4297,1.6015 -2.8477,2.1094 -0.5,1.9726 -3.3203,4.5507 -5.1797,5.6406 -5.9414,10.0122 -7.4921,18.6332 -4.2304,29.7422 5.5586,9.707 10.75,13.469 22,16.367 3.8867,0.07 18.5586,1.153 20.3086,-4.359 0.7617,-0.379 1.5312,-0.77 2.289,-1.11 -0.3476,-0.55 -0.3476,-0.55 0.0313,-1.55"
         style="fill:#000000;fill-opacity:1;fill-rule:evenodd;stroke:none"
         id="path114" /><path
         d="m 90.1211,240.078 c -2.0703,-2.769 -13.1406,-2.172 -16.7422,-2.203 -0.1367,1.582 -0.1094,2.383 1.4297,2.832 0.6016,2.711 4.6602,3.25 6.9219,3.941 1.6015,-0.91 1.789,-1.23 2.5312,-2.871 2.2383,-0.25 4.3906,0 5.8594,-1.699"
         style="fill:#000000;fill-opacity:1;fill-rule:evenodd;stroke:none"
         id="path116" /><path
         d="m 85.6602,109.945 c -2.0704,-7.019 -2.3789,-10.1989 -9.7188,-10.32 -5.4297,1.711 -5.4297,1.711 -8.1601,3.242 -0.0118,0.289 -0.0118,0.578 -0.0196,0.899 -0.3203,-0.008 -0.6094,-0.008 -0.9023,-0.008 -5.0196,6.969 -2.4492,8.379 1.2695,15.789 5.2305,3.801 11.3008,2.359 15.7031,-1.891 1.0586,-3.218 1.0586,-3.218 1.8282,-7.711"
         style="fill:#ffffff;fill-opacity:1;fill-rule:evenodd;stroke:none"
         id="path118" /><path
         d="m 61.8086,289.988 c -5.5469,-1.793 -15.6563,-2.429 -20.6992,-0.14 1.7929,0.929 2.6719,1.847 3.9922,2.34 4.4882,0.437 8.5586,0.289 13.0703,0.007 0.0078,-0.32 0.0078,-0.609 0.0195,-0.898 1.1992,-0.449 2.3906,-0.891 3.6172,-1.301"
         style="fill:#ffffff;fill-opacity:1;fill-rule:evenodd;stroke:none"
         id="path120" /></g></g></svg>
