<?xml version="1.0" encoding="UTF-8" standalone="no"?>
<!-- Created with Inkscape (http://www.inkscape.org/) -->

<svg
   version="1.1"
   id="svg2"
   xml:space="preserve"
   width="24.893333"
   height="23.466667"
   viewBox="0 0 24.893333 23.466667"
   sodipodi:docname="Barbarian_EU.eps"
   xmlns:inkscape="http://www.inkscape.org/namespaces/inkscape"
   xmlns:sodipodi="http://sodipodi.sourceforge.net/DTD/sodipodi-0.dtd"
   xmlns="http://www.w3.org/2000/svg"
   xmlns:svg="http://www.w3.org/2000/svg"><defs
     id="defs6" /><sodipodi:namedview
     id="namedview4"
     pagecolor="#ffffff"
     bordercolor="#666666"
     borderopacity="1.0"
     inkscape:pageshadow="2"
     inkscape:pageopacity="0.0"
     inkscape:pagecheckerboard="0" /><g
     id="g8"
     inkscape:groupmode="layer"
     inkscape:label="ink_ext_XXXXXX"
     transform="matrix(1.3333333,0,0,-1.3333333,0,23.466667)"><g
       id="g10"
       transform="scale(0.1)"><path
         d="m 93.3398,88.0195 v 0 0 z"
         style="fill:#000000;fill-opacity:1;fill-rule:nonzero;stroke:none"
         id="path12" /><path
         d="m 40.0391,13.1914 c -12.6289,7.8711 -25.9102,9.0977 -28.6289,20.75 14.957,4.918 25.5,13.9297 41.789,12.2188 C 52.8203,30.4023 51.7891,40.4219 51.7891,30.3516 53.7773,28.8711 48.2266,17.2109 50.2188,15.7305 47.2188,15 42.6875,14.1797 40.0273,13.1914"
         style="fill:#ffffff;fill-opacity:1;fill-rule:evenodd;stroke:none"
         id="path14" /><path
         d="m 28.9688,40.2188 c 0,1.7109 -0.8594,-8.1368 -0.8594,-6.5899 C 26.0195,33.2891 11.4102,23.6211 9.5,23.1016 c -2.60156,3.9609 8.5469,25.0273 10.5977,31.7382 7.1211,0.5118 10.7695,1.5508 17.0195,-1.7304 0.5195,-2.5781 1.0508,-5.3281 1.5625,-8.0899 -3.293,-1.5507 -6.5899,-3.0976 -9.7227,-4.8086"
         style="fill:#ffffff;fill-opacity:1;fill-rule:evenodd;stroke:none"
         id="path16" /><path
         d="m 168.93,38.6289 c 7.699,-29.00781 -21.883,-3.6601 -21.973,1.4609 12.82,3.4415 12.352,13.8008 26.32,12.6094 2.243,-10.457 8.133,-12.1094 8.133,-19.1484 1.707,-1.0313 -13.25,-5.9219 -12.48,5.0898"
         style="fill:#ffffff;fill-opacity:1;fill-rule:evenodd;stroke:none"
         id="path18" /><path
         d="m 149.238,22.0703 c 5.039,7.9102 7.809,11.8985 16.672,14.6602 0.168,1.3789 0.348,2.75 0.688,4.1289 1.562,0.5117 3.3,1.0312 5.031,1.5508 0.691,-4.8204 0.691,-4.8204 -2.602,-11.0079 -7.289,-1.5507 -12.668,-7.6132 -19.789,-9.3203"
         style="fill:#ffffff;fill-opacity:1;fill-rule:evenodd;stroke:none"
         id="path20" /><path
         d="m 100.098,0.871094 c 0,0.929686 0,0.929686 0,0.929686 -12.0394,2.78125 -23.1605,4.64844 -34.2699,6.51172 -2.7812,1.8594 -10.1914,4.6484 -12.039,8.3672 -2.7696,1.8594 -5.5625,3.7226 -7.4102,4.6523 -1.8516,1.8594 -3.6992,3.7188 -4.6289,4.6485 -2.7812,2.789 -4.6328,5.582 -6.4922,7.4414 -2.7812,2.789 -4.6289,4.6484 -6.4805,6.5078 C 26,44.582 24.1484,49.2305 22.2969,53.8789 20.4492,61.3203 18.5977,67.832 17.668,74.3398 c 0,6.5118 0,13.0196 0,18.5899 0,1.8594 4.6289,28.8323 11.1093,28.8323 0,4.648 2.7813,9.301 6.4805,11.16 0,3.719 5.5625,9.297 9.2695,9.297 0,5.582 3.6993,0.933 3.6993,4.652 1.8515,1.859 3.7031,2.789 5.5625,3.719 4.6289,3.711 10.1875,6.512 15.75,9.289 2.7812,0.934 5.5586,1.863 9.2578,1.863 3.7031,3.719 36.1211,3.719 39.8321,0 5.559,-0.929 10.191,-1.863 13.891,-5.582 6.488,0 17.597,-11.16 22.23,-14.879 3.699,-5.582 7.41,-11.16 12.039,-16.742 0.918,-3.719 2.781,-7.437 4.629,-11.16 3.699,-3.719 3.699,-13.9376 6.48,-19.5196 0,-7.4375 0.93,-19.5196 -1.851,-26.0274 0,-9.3007 -7.41,-16.7422 -7.41,-26.0429 -1.848,0 -2.77,-0.9297 -3.699,-1.8594 C 159.387,34.3516 154.75,28.7813 150.117,22.2617 149.188,21.332 148.27,20.4023 147.34,18.5391 139.008,14.8203 130.668,10.1719 123.258,5.51953 119.559,4.58984 100.109,3.66016 100.109,0.871094"
         style="fill:#ffffff;fill-opacity:1;fill-rule:evenodd;stroke:none"
         id="path22" /><path
         d="M 79.0977,0.0898438 C 64.3398,8.69141 64.3398,8.69141 51.3203,13.6797 43.1602,11.1094 43.1602,11.1094 34.6602,11.2813 33.9688,13 33.2695,14.7188 32.5781,16.4414 21.4688,13.5117 21.4688,13.5117 17.2891,14.3711 c 2.9492,6.1992 2.9492,6.1992 1.7382,8.5977 C 15.8984,20.3906 3.91797,8.35156 0.0976563,15.2305 3.57031,17.6406 3.57031,17.6406 15.207,43.1016 13.4688,37.25 11.7266,31.4023 10.168,25.5508 c 7.4687,1.7187 9.7304,3.7812 14.7695,9.1211 1.5625,-0.1797 3.1211,-0.3516 4.8594,-0.6914 -2.7774,-5.3282 -2.7774,-5.3282 -3.2969,-11.6992 3.8203,0.6875 7.6484,1.2109 11.6367,1.7187 0.1719,-2.9297 0.3516,-5.8477 0.5235,-8.7695 2.0781,0.3398 4.3476,0.6797 6.5976,0.8593 6.2617,9.1094 5.9102,13.0821 6.6016,24.2618 -1.5625,-0.1719 -3.1328,-0.5196 -4.5117,-0.8594 -1.2188,4.2969 -2.2579,8.6094 -3.3008,12.7266 -1.2188,-2.9297 -2.4297,-6.0196 -3.4688,-9.1172 -1.7304,0 -3.3008,0 -4.8593,0 3.9882,18.5898 13.7187,91.3674 36.1093,95.6794 0.3516,-3.449 0.8789,-7.062 1.3907,-10.672 4.3398,4.993 8.8593,9.813 13.371,14.633 1.3868,-8.953 1.5586,-16 7.9805,-22.371 0.8672,2.578 1.7266,5 2.7695,7.399 6.7692,0 6.7692,0 9.3672,-2.579 2.43,9.122 2.43,9.122 5.731,12.731 3.652,-2.75 7.3,-5.512 10.941,-8.43 1.219,2.918 2.43,5.68 3.648,8.43 17.543,-27.012 26.911,-61.6095 24.653,-93.7814 -5.211,4.8203 -5.211,4.8203 -9.383,5.6797 0.351,-10.1484 2.082,-19.9609 12.332,-25.4609 0.859,2.75 1.91,5.332 2.949,7.9101 2.262,0 4.52,0 6.77,0 0.859,-1.7187 1.73,-3.4375 2.601,-5.1601 0.871,2.582 1.731,5.1601 2.778,7.582 6.593,0 6.593,0 9.203,-2.7617 0,14.1211 -13.032,25.1328 -19.282,37.3398 -7.64,69.6995 -15.628,80.3715 -85.2496,80.3715 -41.5,-24.09 -31.7812,-60.2308 -53.8398,-98.9418 -17.19141,36.8203 -0.1797,76.5818 26.0391,103.4218 54.6993,21.848 101.0703,19.961 129.8903,-38.902 8.5,-29.9377 -3.48,-58.6682 10.071,-86.5471 -0.692,-1.211 -1.219,-2.4219 -1.731,-3.6094 -3.66,1.8867 -7.129,3.7773 -10.601,5.6797 -0.86,-3.2734 -1.727,-6.543 -2.59,-9.9805 -4.348,0 -4.348,0 -11.637,5.5078 -1.223,-4.3007 -2.43,-8.5976 -3.652,-13.0781 C 146.797,22.1406 127.359,6.48047 118.488,1.66016 105.289,1.15234 92.0977,0.628906 79.0703,0.109375"
         style="fill:#000000;fill-opacity:1;fill-rule:evenodd;stroke:none"
         id="path24" /><path
         d="M 95.9375,19.3594 C 72.3203,29.5117 52.8672,36.0508 53.918,63.2422 c 2.2617,0.168 4.5195,0.3398 6.7695,0.3398 0,7.2188 -2.5898,9.6368 -7.1094,15.3203 1.7422,16.5196 6.0703,29.7697 11.6211,45.4297 1.5703,-1.902 3.3008,-3.793 5.0391,-5.68 3.8203,4.129 7.6484,8.078 11.4687,12.039 5.0313,-5.851 10.0703,-11.699 15.2696,-17.55 1.9218,2.75 3.8204,5.511 5.9024,8.089 1.918,-1.21 3.988,-2.41 6.078,-3.621 2.43,7.231 2.43,7.231 5.91,10.661 3.641,-1.54 7.301,-3.09 10.942,-4.809 0.519,1.199 1.05,2.41 1.57,3.441 1.551,0 3.121,0 4.68,0 4.519,-16.863 8.339,-30.6325 8.339,-48.0114 -9.199,-11.6992 -9.199,-11.6992 -9.199,-15.3203 1.391,0 2.778,-0.168 4.168,-0.3398 0,-27.6992 -13.547,-34.7617 -39.4178,-43.8789"
         style="fill:#ffffff;fill-opacity:1;fill-rule:evenodd;stroke:none"
         id="path26" /><path
         d="m 110.359,38.4609 c -11.6402,6.1914 -25.6988,4.2891 -38.5504,4.6407 0,1.7187 0,3.2695 0,4.8203 20.8398,2.5781 31.0784,7.0586 50.3714,-5.3321 -4,-1.3789 -7.992,-2.7578 -11.813,-4.1289"
         style="fill:#000000;fill-opacity:1;fill-rule:evenodd;stroke:none"
         id="path28" /><path
         d="m 16.4102,45.5195 c 0,0.6914 0,1.5508 0,2.4024 0.6875,0 1.5586,0 2.4296,0 0,-0.6914 0,-1.5508 0,-2.4024 -0.7031,0 -1.5625,0 -2.4296,0"
         style="fill:#000000;fill-opacity:1;fill-rule:evenodd;stroke:none"
         id="path30" /><path
         d="m 69.3789,55.1602 c 2.0781,4.3007 4.168,8.6093 6.25,12.9023 10.9414,0.3398 10.9414,0.3398 24.8281,-2.0625 6.602,4.4688 6.602,4.4688 13.191,4.4688 3.829,-6.379 4.872,-7.918 5.219,-15.3165 -3.297,5.668 -4.687,6.1875 -10.59,8.4297 -13.2067,-8.4297 -20.1481,0.3399 -33.5192,-1.7304 -2.0781,-5.1524 -2.0781,-5.1524 -5.3789,-6.6993"
         style="fill:#000000;fill-opacity:1;fill-rule:evenodd;stroke:none"
         id="path32" /><path
         d="m 88.6602,76.6602 c 0.6875,7.2304 1.5586,14.4609 2.4296,21.5117 -4.8632,0 -9.7226,0 -14.4101,0 -0.8594,3.2691 -1.7422,6.3671 -2.4297,9.4571 -2.4414,0 -4.8633,0 -7.3008,0 0,0.863 0,1.73 0,2.422 C 81.0195,107.469 89,103.68 101.328,96.4492 c 0.52,-2.5781 1.211,-5.1679 1.91,-7.9101 C 99.9375,87.8516 96.6367,87 93.5078,86.1211 91.7773,83.0313 90.207,79.9297 88.6602,76.6602"
         style="fill:#000000;fill-opacity:1;fill-rule:evenodd;stroke:none"
         id="path34" /><path
         d="m 122.508,76.6602 c -6.598,5.5117 -11.121,8.7812 -14.418,16.6914 7.82,3.4375 12.16,6.3672 20.668,5.1679 -4.86,-9.8203 -4.86,-9.8203 -4.86,-16.8593 1.04,-1.0313 2.09,-2.0704 3.129,-3.0977 -1.558,-0.5117 -3.129,-1.2109 -4.519,-1.9023"
         style="fill:#000000;fill-opacity:1;fill-rule:evenodd;stroke:none"
         id="path36" /><path
         d="m 76.668,79.082 c 0,1.7071 0,3.2578 0,4.8086 -2.0899,-0.3398 -4.1797,-0.8593 -6.0782,-1.3711 -2.6015,3.961 -2.6015,3.961 -2.7812,11.1914 7.1211,0.5079 10.7695,1.5508 17.0195,-1.7304 0.5196,-2.5782 1.0508,-5.3282 1.5586,-8.0899 -3.289,-1.5508 -6.5898,-3.1015 -9.7187,-4.8086"
         style="fill:#000000;fill-opacity:1;fill-rule:evenodd;stroke:none"
         id="path38" /><path
         d="m 103.238,98.1719 c 5.039,7.9101 9.731,7.3981 18.582,10.1481 0.168,1.379 0.348,2.75 0.688,4.129 1.562,0.512 3.301,1.031 5.031,1.543 0.688,-4.82 0.688,-4.82 -2.601,-11.012 -7.29,-1.55 -14.59,-3.1089 -21.711,-4.8198"
         style="fill:#000000;fill-opacity:1;fill-rule:evenodd;stroke:none"
         id="path40" /><path
         d="m 62.2578,110.051 c 0,0.679 0,1.539 0,2.398 0.6914,0 1.5625,0 2.4297,0 0,-0.687 0,-1.547 0,-2.398 -0.6875,0 -1.5703,0 -2.4297,0"
         style="fill:#000000;fill-opacity:1;fill-rule:evenodd;stroke:none"
         id="path42" /></g></g></svg>
