<?xml version="1.0" encoding="UTF-8" standalone="no"?>
<!-- Created with Inkscape (http://www.inkscape.org/) -->

<svg
   version="1.1"
   id="svg2"
   xml:space="preserve"
   width="22.466667"
   height="24.626667"
   viewBox="0 0 22.466667 24.626667"
   sodipodi:docname="ChaosWarrior_EU.eps"
   xmlns:inkscape="http://www.inkscape.org/namespaces/inkscape"
   xmlns:sodipodi="http://sodipodi.sourceforge.net/DTD/sodipodi-0.dtd"
   xmlns="http://www.w3.org/2000/svg"
   xmlns:svg="http://www.w3.org/2000/svg"><defs
     id="defs6" /><sodipodi:namedview
     id="namedview4"
     pagecolor="#ffffff"
     bordercolor="#666666"
     borderopacity="1.0"
     inkscape:pageshadow="2"
     inkscape:pageopacity="0.0"
     inkscape:pagecheckerboard="0" /><g
     id="g8"
     inkscape:groupmode="layer"
     inkscape:label="ink_ext_XXXXXX"
     transform="matrix(1.3333333,0,0,-1.3333333,0,24.626667)"><g
       id="g10"
       transform="scale(0.1)"><path
         d="m 84.2383,92.3516 v 0 0 z"
         style="fill:#000000;fill-opacity:1;fill-rule:nonzero;stroke:none"
         id="path12" /><path
         d="m 82.0313,0.09375 c -2.8438,1.39844 -3.1329,4.53906 -3.8204,7.62891 -0.9023,1.37109 -0.9023,1.37109 -3.6015,9.89844 -2.1992,1.3516 -4.5313,2.2812 -6.9297,3.0195 -2.9609,0.5899 -5.8594,1.3203 -8.7109,2.211 -0.5586,0.1406 -1.129,0.2695 -1.6875,0.4218 -0.6524,0.2579 -1.293,0.5196 -1.9219,0.7891 C 23.1602,35.6914 0.0703125,66.1914 0.0703125,101.82 c 0,45.602 37.8007875,82.793 84.1484875,82.793 32.7192,0 61.1792,-18.543 75.0902,-45.492 0.031,0 0.07,0 0.101,0 0.098,-0.269 0.188,-0.519 0.278,-0.769 5.542,-11.032 8.671,-23.43 8.671,-36.532 0,-38.6677 -27.179,-71.277 -63.711,-80.3083 -2.488,-0.789 -5.0699,-1.5508 -7.7769,-2.3086 C 93.1992,17.3633 92.1875,17.2227 90.5703,13.582 90.2109,13.4727 89.8477,13.3633 89.5195,13.2617 87.1797,8.18359 86.5,7.50391 83.4688,0.410156 82.9688,0.300781 82.4609,0.191406 81.9883,0.09375"
         style="fill:#000000;fill-opacity:1;fill-rule:evenodd;stroke:none"
         id="path14" /><path
         d="M 82.9297,6.82031 C 82.3203,7 81.7109,7.14063 81.1289,7.29297 c -1.3281,3.19923 -2.1211,6.05083 -2.9101,9.42973 -5.8711,10.8007 -6.7696,11.6992 -6.9805,12.5976 -1.0078,0.3633 -2.6992,2.4922 -11.6992,9.25 -4.0703,1.8008 -26.668,7.4219 -17.668,15.4102 5.7187,-1.9766 10.4687,-6.5899 15.8672,-9.5782 13.5,-4.8593 18.7226,-12.8515 23.6211,-26.3203 0.5781,-0.8984 1.1914,-1.8007 1.8008,-2.6992 7.4882,5.6211 10.6875,17.3477 20.9488,19.8008 0,0.3281 0,0.6094 0,0.8984 8.321,4 15.661,6.9805 18.321,16.3086 1.578,0.5821 2.449,0.5 4.179,0.3203 1.301,-3.9609 1.579,-4.6796 0,-8.5273 C 125.711,43.9609 125.711,43.9609 119.84,39 115.02,36.4805 110.23,33.9219 105.438,31.3711 101.77,28.2734 88.3789,19.3125 87.4375,13.1211 87.0781,13.0117 86.7578,12.9023 86.4297,12.8008 85.5977,10.0313 84.8789,8.95313 82.9375,6.82031"
         style="fill:#ffffff;fill-opacity:1;fill-rule:evenodd;stroke:none"
         id="path16" /><path
         d="m 83.8281,22.1211 c -0.3203,0.1797 -0.6093,0.332 -0.8984,0.4727 -1.8711,7.7773 -9.4688,15.6562 -15.7305,20.4882 -7.6679,3.6016 -7.6679,3.6016 -14.8711,7.6289 -6.7695,4.9024 -9.8984,9.8594 -5.5078,18.3594 1.5078,0.9414 3.0586,1.8711 4.6094,2.8125 1.3281,1.8281 1.5078,2.3008 3.6016,2.9102 0.5781,1.7695 3.1992,3.8476 4.3867,5.5078 0.582,0 1.1914,0 1.8008,0 C 60.8594,69.4336 71.2305,65.6523 75.0391,57.2227 74.6406,53.8008 74.2813,50.3438 73.918,46.8906 c 3.7812,-1.8672 11.0195,-1.0078 15.3008,-1.1172 7.1289,0.7579 6.082,2.5586 6.082,10.1172 1.4805,1.8399 2.7695,2.9219 4.7192,4.2813 1.871,1.9804 4.609,6.1914 7.199,6.9492 2.59,8.6406 7.019,14.6914 -3.598,20.0508 -7.7421,0 -13.9726,-4.7891 -16.6327,-12.3789 -0.7578,0 -1.5078,0 -2.2695,0 -3.5313,7.0898 -5.2891,11.9179 -13.5,13.289 -2.5586,-0.9687 -5.1094,-1.9414 -7.629,-2.9492 -0.1093,-0.289 -0.1796,-0.582 -0.25,-0.9023 -1.2187,3.1015 0.7188,10.1523 0.8985,13.5 -0.9375,4.5425 -1.2578,7.9605 -1.1172,12.6015 9.5,4.32 12.668,6.051 20.3789,-1.66 0.9688,-1.578 1.9375,-3.172 2.9102,-4.75 0.8281,0 1.6601,0 2.4882,0 1.0821,2.629 1.5508,5.801 4.0313,7.199 0.4687,1.402 1.3008,1.481 2.5898,2.16 22.1015,0 20.0195,-31.1404 20.9105,-45.6872 3.531,-7.0625 4.539,-14.9415 -0.219,-21.6016 -1.66,-1.1094 -3.313,-2.2305 -4.93,-3.3789 C 101.418,37.75 91.4375,31.8438 85.7188,22.4805 85.0703,22.3711 84.418,22.2617 83.8086,22.1211"
         style="fill:#ffffff;fill-opacity:1;fill-rule:evenodd;stroke:none"
         id="path18" /><path
         d="m 90.1406,50.4922 c -0.4023,3.5312 -1.7695,9.3203 0,12.6016 4.9297,2.4492 10.4374,5.9765 12.5974,11.2265 0.293,0 0.582,0 0.903,0 0.648,2.6602 0.539,3.3516 2.808,4.8633 1.871,-4.1016 -1.769,-12.9609 -5.941,-14.293 -1.0783,-3.2773 -6.59,-2.6289 -7.8791,-6.2968 -0.0703,-2.7032 -0.1406,-5.4024 -0.2187,-8.1016 -0.7618,0 -1.5118,0 -2.2696,0"
         style="fill:#ffffff;fill-opacity:1;fill-rule:evenodd;stroke:none"
         id="path20" /><path
         d="m 79.3281,70.293 c -1.5468,3.5586 -4.9687,9.2187 -5.3984,13.0273 5.2891,-1.0078 6.3711,-8.0273 7.668,-12.5976 -0.7579,-0.1407 -1.5079,-0.2891 -2.2696,-0.4297"
         style="fill:#ffffff;fill-opacity:1;fill-rule:evenodd;stroke:none"
         id="path22" /><path
         d="m 43.3281,72.9922 c -1.3984,2.0195 -1.5781,2.4492 -1.5781,4.9297 9.1094,5.6914 14.3984,11.8086 14.3984,22.9691 -0.8984,3.601 -1.8007,5.402 -2.0195,7.203 6.0117,0.539 6.5508,-4.903 7.8906,-9.6838 C 59.75,88.7617 55,73.6836 43.3281,72.9922"
         style="fill:#ffffff;fill-opacity:1;fill-rule:evenodd;stroke:none"
         id="path24" /><path
         d="m 120.738,75.2227 c -1.367,8.7109 -1.937,19.9101 -5.617,28.3713 0,1.039 0,2.09 0,3.129 0.18,0.14 0.359,0.25 0.539,0.359 2.16,-0.828 2.301,-1.512 3.488,-3.488 2.27,-8.8206 5.582,-17.8635 3.383,-27.0002 -1.011,-0.3204 -1.011,-0.3204 -1.801,-1.3711"
         style="fill:#ffffff;fill-opacity:1;fill-rule:evenodd;stroke:none"
         id="path26" /><path
         d="m 128.828,79.293 c -0.32,0.1406 -0.609,0.289 -0.898,0.4297 -0.832,5.8711 -1.66,11.7382 -2.492,17.5703 -1.797,5.828 -1.797,5.828 -2.227,8.527 1.937,3.063 5.109,4.903 6.519,8.102 2.379,0.789 3.098,5.012 3.598,7.199 0.293,0 0.582,0 0.902,0 0.071,4.07 0.141,8.141 0.219,12.172 -4.14,11.59 -9.031,16.418 -19.691,23.289 0.043,0.789 0.07,1.578 0.14,2.34 13.571,-0.469 22.461,-6.371 30.133,-17.531 0.317,-0.11 0.649,-0.219 1.008,-0.328 7.34,-11.379 9.25,-24.442 5.512,-37.469 -1.731,-3.6018 -3.461,-7.2034 -5.153,-10.801 -0.328,0 -0.609,0 -0.898,0 -2.199,-5.8008 -10.73,-12.5703 -16.672,-13.5"
         style="fill:#ffffff;fill-opacity:1;fill-rule:evenodd;stroke:none"
         id="path28" /><path
         d="m 39.7305,83.3203 c -2.4102,2.1328 -7.6719,4.293 -8.5313,7.2031 -12.3789,8.75 -15.3398,23.0076 -13.289,37.3676 1.1875,3.461 2.3789,6.91 3.5976,10.332 2.3399,2.918 5.1133,5.257 7.3125,8.238 3.5977,1.191 4.6094,6.449 9.1094,7.531 0,0.321 0,0.61 0,0.899 7.0898,2.121 19.5781,8.929 27.5781,5.511 0.543,-1.48 0.543,-1.48 0.543,-2.808 -2.6602,-1.692 -3.4024,-2.211 -6.4922,-2.864 0,-0.289 -1.3477,-0.417 -1.3477,-0.738 -2.8828,-0.582 -9.0703,-2.558 -9.9023,-5.398 -4.4297,-1.731 -6.3711,-6.844 -8.7773,-10.801 -1.9805,-9 -1.5508,-15.621 3.1289,-23.871 5.3984,-6.699 9.8984,-8.711 9.8984,-17.5314 -0.4688,-1.7968 -0.8984,-3.5976 -1.3281,-5.3984 -1.8008,-3.1719 -2.6992,-4.0703 -3.3828,-5.8711 -2.8789,-0.4297 -5,-1.5781 -8.0977,-1.8008"
         style="fill:#ffffff;fill-opacity:1;fill-rule:evenodd;stroke:none"
         id="path30" /><path
         d="m 86.0977,111.223 c -1.5469,1.328 -3.0977,2.66 -4.6368,3.961 -0.0429,1.546 -0.0703,3.097 -0.1132,4.609 0.9414,0.937 1.8711,1.867 2.8125,2.809 5.1484,-0.18 6.7695,-3.711 6.4492,-8.68 -0.3281,0 -0.6094,0 -0.8985,0 -1.1914,-1.828 -1.582,-1.981 -3.6015,-2.699"
         style="fill:#ffffff;fill-opacity:1;fill-rule:evenodd;stroke:none"
         id="path32" /><path
         d="m 90.1406,136.422 c -12.8515,2.699 -19.582,8.711 -19.582,22.969 0.9023,4.929 0.9023,4.929 1.582,6.73 0.2891,0 1.3672,2.391 1.6992,2.391 l 2.0313,2.23 2.4492,1.449 2.8477,1.629 3.582,1.09 c 2.8398,0 5.6875,0 8.5703,0 10.3277,-3.777 15.5197,-9.648 15.5197,-20.91 -0.969,-3.527 -3.281,-7.449 -3.82,-10.797 -0.36,-0.109 -0.719,-0.223 -1.051,-0.332 -2.449,-4.391 -9.3596,-5.469 -13.8206,-6.437"
         style="fill:#ffffff;fill-opacity:1;fill-rule:evenodd;stroke:none"
         id="path34" /></g></g></svg>
