<?xml version="1.0" encoding="UTF-8" standalone="no"?>
<svg
   xmlns:dc="http://purl.org/dc/elements/1.1/"
   xmlns:cc="http://creativecommons.org/ns#"
   xmlns:rdf="http://www.w3.org/1999/02/22-rdf-syntax-ns#"
   xmlns:svg="http://www.w3.org/2000/svg"
   xmlns="http://www.w3.org/2000/svg"
   xmlns:sodipodi="http://sodipodi.sourceforge.net/DTD/sodipodi-0.dtd"
   xmlns:inkscape="http://www.inkscape.org/namespaces/inkscape"
   version="1.1"
   id="svg2"
   xml:space="preserve"
   width="13.628565"
   height="31.378603"
   viewBox="0 0 13.628565 31.378604"
   sodipodi:docname="Door_EU_vertical.svg"
   inkscape:version="1.0.2 (1.0.2+r75+1)"><metadata
     id="metadata1480"><rdf:RDF><cc:Work
         rdf:about=""><dc:format>image/svg+xml</dc:format><dc:type
           rdf:resource="http://purl.org/dc/dcmitype/StillImage" /><dc:title></dc:title></cc:Work></rdf:RDF></metadata><defs
     id="defs6" /><sodipodi:namedview
     id="namedview4"
     pagecolor="#ffffff"
     bordercolor="#666666"
     borderopacity="1.0"
     inkscape:pageshadow="2"
     inkscape:pageopacity="0.0"
     inkscape:pagecheckerboard="0"
     inkscape:document-rotation="0"
     showgrid="false"
     inkscape:zoom="28.184714"
     inkscape:cx="6.8109186"
     inkscape:cy="15.627855"
     inkscape:window-width="1853"
     inkscape:window-height="1025"
     inkscape:window-x="67"
     inkscape:window-y="27"
     inkscape:window-maximized="1"
     inkscape:current-layer="g8" /><g
     id="g8"
     inkscape:groupmode="layer"
     inkscape:label="ink_ext_XXXXXX"
     transform="matrix(1.3333333,0,0,-1.3333333,-8.8890812,22.514522)"><g
       id="g10"
       transform="matrix(0,0.1,-0.1,0,16.896438,-6.6586084)"><path
         d="M 117.758,51.6602 Z"
         style="fill:#000000;fill-opacity:1;fill-rule:nonzero;stroke:none"
         id="path12" /><path
         d="m 235.426,39.4727 c -0.321,0 -0.61,0 -0.899,0 -1.191,-5.0821 -11.453,-4.1836 -15.3,-6.3008 -1.262,-9.9414 0.941,-20.3399 -5.719,-28.48049 -3.711,-1.91016 -3.711,-1.91016 -7.781,-3.28125 -24.442,0 -48.891,-1.039066 -73.332,-1.3281287 C 125.625,0.511719 65.7969,1.41016 62.1953,1.87891 c -13.6094,0 -27.539,-1.257816 -40.9687,1.33203 -5.6211,3.10156 -8.5,7.98826 -10.5821,14.17966 0.1407,5.0821 0.293,10.1914 0.4727,15.3008 -2.30079,4.3906 -9.22267,1.6875 -10.10939,7.668 -0.332029,0 -0.613279,0 -0.902341,0 0.070312,7.4922 0.140625,14.9804 0.21875,22.5 1.910161,3.4609 3.492191,3.0625 7.421871,3.8203 1.21875,0.7617 2.44921,1.5508 3.71091,2.3398 0.9375,6.1914 1.8672,12.3828 2.8086,18.5821 3.1289,7.1601 3.8203,9.6797 11.0508,12.3789 46.8711,2.8785 93.8516,0.4295 140.8286,0.4295 12.351,0.86 26.351,2.813 38.703,1.371 1.757,-1.011 3.738,-3.3513 5.398,-3.8201 0,-0.332 0,-0.6093 0,-0.8984 9.68,-5.1836 7.09,-20.8398 9.219,-29.7031 2.922,-2.918 8.39,-2.8086 12.383,-3.5977 0,-0.332 0,-0.6094 0,-0.9023 3.457,-0.8594 3.379,-4.0703 3.379,-7.1992 -2.2,-4.4297 -0.903,-11.4102 0.218,-16.1993"
         style="fill:#000000;fill-opacity:1;fill-rule:evenodd;stroke:none"
         id="path14" /><path
         d="m 228.227,49.8125 c -0.5,-2.9219 -0.969,-5.4414 -4.032,-6.5234 -25.129,-0.9688 -50.078,-0.9375 -75.168,0.9023 -26.57,0.2891 -53.1012,0.5781 -79.6325,0.8984 -20.7695,1.9805 -41.7265,1.0118 -62.57028,2.2305 -0.5,0.3203 -1.00781,0.6524 -1.47656,1.0117 -0.11328,6.0078 -0.11328,6.4102 6.18754,7.0899 5.1796,-0.4297 16.8828,-0.4297 21.8515,-0.9024 48.3477,-0.4297 52.6289,-0.8984 87.0513,-0.8984 16.667,1.1211 33.66,-1.3008 50.179,0.4687 1.938,-0.1796 3.891,-0.3203 5.867,-0.4687 16.993,1.3281 34.274,0.8594 51.301,0.6914 0.141,-1.5117 0.289,-3.0234 0.43,-4.5"
         style="fill:#ffffff;fill-opacity:1;fill-rule:evenodd;stroke:none"
         id="path16" /><path
         d="m 211.598,72.7813 c -0.614,-2.629 -1.012,-5.5391 -2.59,-7.7813 -7.563,-1.3281 -17.5,-2.3789 -24.883,-0.3203 -2.09,4.1016 -2.77,13.4297 1.801,15.9492 8.5,0.6914 17.859,2.7734 25.672,-1.1094 0,-2.2695 0,-4.5 0,-6.7304"
         style="fill:#ffffff;fill-opacity:1;fill-rule:evenodd;stroke:none"
         id="path18" /><path
         d="m 210.688,34.0703 c -0.321,-2.4101 -0.614,-4.8203 -0.903,-7.1992 -8.168,-1.9102 -16.379,-2.2695 -24.769,-1.1484 -2.09,2.8789 -3.309,10.6562 0.468,12.5976 7.524,0.2188 14.981,0.4297 22.5,0 1.731,-1.1914 1.942,-2.3008 2.704,-4.25"
         style="fill:#ffffff;fill-opacity:1;fill-rule:evenodd;stroke:none"
         id="path20" /><path
         d="m 208.887,13.8125 c -1.692,-2.3828 -1.692,-2.3828 -2.699,-2.9219 -13.071,-0.4687 -13.071,-0.4687 -26.571,-0.2187 -1.012,9.3594 23.469,5.8672 28.367,5.8281 0.293,-0.8984 0.582,-1.8008 0.903,-2.6992"
         style="fill:#ffffff;fill-opacity:1;fill-rule:evenodd;stroke:none"
         id="path22" /><path
         d="m 171.086,67.3789 c -0.32,-0.8984 -0.609,-1.7969 -0.898,-2.6992 -1.981,-0.5391 -3.93,-1.0781 -5.872,-1.5781 -29.191,1.1875 -58.539,-0.3203 -87.7301,1.8007 -1.0781,0.3594 -2.1289,0.7188 -3.1679,1.1172 0,0.4297 0,0.9024 0,1.3711 0.289,0 0.5781,0 0.8984,0 4.3203,6.1485 11.7695,10.9102 18,15.0508 10.7696,10.0078 12.6676,8.6094 29.0196,9.4688 37.582,0 37.582,0 45.25,-0.4688 1.801,-0.4297 1.801,-0.4297 3.238,-1.4414 0.582,-2.8086 0.582,-2.8086 1.262,-22.6094"
         style="fill:#ffffff;fill-opacity:1;fill-rule:evenodd;stroke:none"
         id="path24" /><path
         d="m 170.625,14.2695 c -0.969,-4.1406 -2.27,-3.8203 -6.301,-4.74997 -31.5,0 -63.109,-2.76953 -94.4998,1.15237 -0.3984,5.3594 3.1719,6.7695 6.8828,10.2187 1.2188,3.711 8.168,4.75 9.3203,8.6797 1.3672,0.6524 6.0782,4.9297 10.3672,7.6289 0,0.293 0,0.5821 0,0.9024 2.2305,0.6797 2.2305,0.6797 8.7505,1.1093 19.152,0 23.652,-0.4296 55.152,-0.4296 3.527,-0.2188 6.59,-0.4024 9.898,-1.5821 0.141,-7.6679 0.289,-15.2969 0.43,-22.9297"
         style="fill:#ffffff;fill-opacity:1;fill-rule:evenodd;stroke:none"
         id="path26" /><path
         d="m 53.1953,12.4727 c -1.5781,-1.3711 -1.5781,-1.3711 -3.168,-2.0508 -6.3007,-0.1797 -29.4804,-4.07034 -29.4804,6.5508 1.0078,1.0078 1.5781,1.1875 2.9492,1.5468 8.8203,-0.1406 19.5117,1.1524 27.8984,-1.5468 0.5821,-1.5118 1.1914,-3.0235 1.8008,-4.5"
         style="fill:#ffffff;fill-opacity:1;fill-rule:evenodd;stroke:none"
         id="path28" /><path
         d="m 51.8242,34.5117 c -0.4687,-2.5625 -0.8984,-5.1094 -1.3281,-7.6328 -8.1719,-3.0976 -20.6602,-2.8398 -29.3789,-1.9375 -1.5508,3.5703 -3.7422,13.5 1.0078,15.1875 10.082,0 19.6211,0.3906 29.2695,-1.5469 0.1407,-1.3711 0.293,-2.7422 0.4297,-4.0703"
         style="fill:#ffffff;fill-opacity:1;fill-rule:evenodd;stroke:none"
         id="path30" /><path
         d="m 51.8242,67.8125 c -0.1367,-0.4727 -0.289,-0.9023 -0.4297,-1.332 -0.7578,-0.25 -1.5078,-0.4688 -2.2695,-0.6797 -9.3203,0.3594 -18.6094,0.7187 -27.8984,1.1211 -0.6797,3.8906 -0.2891,6.8398 0.2187,10.8008 4.8594,3.5586 27.25,5.4687 30.1719,-1.3321 0.0703,-2.8789 0.1406,-5.7304 0.2187,-8.5703"
         style="fill:#ffffff;fill-opacity:1;fill-rule:evenodd;stroke:none"
         id="path32" /></g></g></svg>
