<?xml version="1.0" encoding="UTF-8" standalone="no"?>
<!-- Created with Inkscape (http://www.inkscape.org/) -->

<svg
   version="1.1"
   id="svg2"
   xml:space="preserve"
   width="22.133333"
   height="22.133333"
   viewBox="0 0 22.133333 22.133333"
   sodipodi:docname="Fimir_EU.eps"
   xmlns:inkscape="http://www.inkscape.org/namespaces/inkscape"
   xmlns:sodipodi="http://sodipodi.sourceforge.net/DTD/sodipodi-0.dtd"
   xmlns="http://www.w3.org/2000/svg"
   xmlns:svg="http://www.w3.org/2000/svg"><defs
     id="defs6" /><sodipodi:namedview
     id="namedview4"
     pagecolor="#ffffff"
     bordercolor="#666666"
     borderopacity="1.0"
     inkscape:pageshadow="2"
     inkscape:pageopacity="0.0"
     inkscape:pagecheckerboard="0" /><g
     id="g8"
     inkscape:groupmode="layer"
     inkscape:label="ink_ext_XXXXXX"
     transform="matrix(1.3333333,0,0,-1.3333333,0,22.133333)"><g
       id="g10"
       transform="scale(0.1)"><path
         d="m 82.9844,82.9844 v 0 0 z"
         style="fill:#000000;fill-opacity:1;fill-rule:nonzero;stroke:none"
         id="path12" /><path
         d="m 82.9844,165.875 c 45.6606,0 82.8906,-37.242 82.8906,-82.8906 0,-45.6602 -37.242,-82.89065 -82.8906,-82.89065 -45.6602,0 -82.89065,37.23825 -82.89065,82.89065 0,45.6606 37.23825,82.8906 82.89065,82.8906"
         style="fill:#000000;fill-opacity:1;fill-rule:evenodd;stroke:none"
         id="path14" /><path
         d="M 85.9141,3.44531 C 77.2344,4.8125 69.2422,7.11328 66.582,16.4727 c -2.1172,1.0117 -4.6093,2.0507 -5.3984,4.5 -1.9805,0.7617 -3.9219,1.5117 -5.8711,2.2695 -2.2695,4.5703 -3.2773,9.1133 -5.2891,13.6133 -4.6406,3.5976 -5.789,14.039 -7.5195,19.2187 -1.6601,2.1289 -3.3086,4.211 -4.9687,6.3008 -8.6719,6.4375 -7.4219,18.8984 -1.8008,26.5703 -0.4297,6.9492 -1.0391,15.0897 0.4687,21.8167 -0.6484,6.953 3.0586,20.383 8.1016,25.422 6.3398,12.671 20.3008,16.421 33.0781,19.578 10.332,0 18.4727,0 28.1212,-3.817 5.539,-3.711 14.539,-8.281 16.879,-15.3 0.332,-0.11 0.652,-0.223 1.012,-0.321 3.71,-9.14 3.71,-9.14 5.507,-14.98 0,-4.789 0,-9.582 0,-14.399 -1.367,-4.902 -3.168,-11.4802 0,-15.7731 3.243,-8.2774 2.383,-14.3281 1.801,-23.3985 -2.738,-4.8593 -5.898,-9.9414 -9.68,-13.7187 -0.691,1.1172 -0.691,1.1172 -1.328,5.1797 -0.293,0.1094 -0.543,0.2187 -0.793,0.3203 0.332,2.3398 1.301,4.207 1.692,6.4101 0.898,0 1.801,0 2.699,0 0.289,-1.7617 0.582,-1.9101 2.23,-2.2304 0.5,2.4883 1.04,4.9687 1.582,7.4179 -0.183,1.8008 -0.613,10.7305 -2.273,12.3829 -2.199,-1.5821 -2.117,-2.8125 -2.918,-5.4024 -3.559,-1.1875 -4.461,-5.7187 -7.629,-7.418 -4.972,0.7891 -7.851,3.5977 -13.18,3.4883 0,-0.8281 0,-1.6601 0,-2.4804 4.43,-3.461 7.668,-9.1797 6.079,-14.8672 -3.422,-1.3008 -7.6293,0.3867 -11.4809,-0.6524 -1.5781,-4.0703 0.7891,-6.9101 2.5899,-10.4804 -0.0703,-1.6602 -0.1407,-3.3086 -0.2188,-4.9688 -6.0898,-0.4297 -6.0898,-0.4297 -7.1992,-0.8984 -0.3633,-3.6016 1.5469,-6.4805 1.5469,-10.3321 -0.4688,-2.0898 -0.8985,-4.1796 -1.3281,-6.3007 -4.8594,-3.961 -7.1993,-6.3672 -12.4883,-1.9102 -3.0235,5.6914 -0.8321,12.1992 2.5898,17.2109 0,0.7618 0,1.5118 0,2.2305 -2.1914,2.1992 -7.0234,-0.5391 -9.2226,-1.5508 -1.0782,0.0703 -2.1172,0.1407 -3.168,0.2188 0.3594,6.5234 3.418,10.1211 8.207,14.2929 0.043,2.2305 0.6914,4.75 -1.9062,5.5079 0.0664,0.7617 0.1367,1.5117 0.2187,2.2304 6.8086,4.8594 14.1485,2.4492 21.3789,0.4688 0.0703,0.4023 0.1407,0.7617 0.2188,1.1211 -4.3867,6.2304 -13.25,4.25 -19.5469,2.2695 -1.5508,-1.5508 -3.2695,-2.4805 -5.4023,-2.9492 -0.1797,-0.8985 -0.3204,-1.8008 -0.4688,-2.6992 -3.9219,-1.5118 -5.7187,-2.9102 -9.8984,-2.6993 -3.1328,10.4375 8.75,10.9375 12.5976,18 6.8399,3.8204 14.4688,1.4375 22.0703,0.4688 -0.1093,0.8984 -0.1796,1.8008 -0.25,2.6992 2.2696,1.7695 6.1216,2.1992 6.3006,4.9297 -5.2185,5.2227 1.981,7.3398 6.551,10.582 -0.973,0.3594 -1.91,0.6797 -2.852,1.0078 -0.25,5.6527 4.969,6.4807 7.34,10.9107 0.332,0.14 0.649,0.25 1.012,0.359 0.719,2.16 3.309,1.582 3.918,3.711 -2.59,-0.61 -4.391,-1.66 -6.73,-2.918 -6.84,-5.402 -11.8091,-8.8205 -20.27,-11.7033 -5.9375,0 -12.168,0.1133 -17.5313,2.9102 -0.6797,2.0901 -15.1875,10.1211 -17.6679,10.0121 0.0312,-1.219 0.0703,-2.45 0.1093,-3.711 1.9102,-1.039 2.6602,-1.618 3.8203,-3.379 -1.2187,-1.012 -1.2187,-1.012 -1.5507,-2.0198 5.1093,-4 8.2812,-6.0508 8.4218,-12.7109 2.6289,-2.0899 5.2891,-3.2383 5.2891,-6.6602 -2.7695,-2.7695 -6.9492,-2.8086 -10.5781,-3.3476 -6.3008,-1.8008 -6.3008,-1.8008 -9.4336,-3.1719 -6.5469,0 -10.7578,5.4687 -11.9492,11.4805 -1.3282,-6.0821 -7.668,-17.0586 1.582,-18.4688 -0.043,1.5469 -0.0703,3.0977 -0.1094,4.6367 0.7891,0.043 1.5781,0.0703 2.3789,0.1133 1.9102,-1.9101 1.9102,-1.9101 2.4492,-2.9531 -0.9687,-10.1172 -3.2382,-15.4375 6.6602,-19.6602 2.3789,-4.75 0.5391,-8.8203 0.5391,-14.0781 1.4804,-1.9414 2.9921,-3.8906 4.5,-5.8711 4.75,-2.5586 6.6211,-5.0781 7.8828,-10.3281 1.0781,-0.543 2.1562,-1.1211 3.2773,-1.6914 5.832,-11.0508 21.961,-10.3008 28.9102,-0.5781 6.699,4.207 7.09,7.1992 7.879,14.8671 1.801,0.6797 1.801,0.6797 4.933,0.9024 0.137,0.6094 0.29,1.2187 0.469,1.8008 0.289,0 0.578,0 0.899,0 -0.649,4.8164 0.031,7.3789 1.332,12.1289 1.578,0.8594 3.129,2.3008 4.968,1.8008 -0.578,-4.461 -1.941,-13.0313 -4.39,-16.3125 C 106.785,26.7344 108.195,17.082 101.203,12.1836 100.012,10.3828 97.2422,8.33203 96.7031,6.53516 92.9648,5.13281 89.8242,4.05469 85.9023,3.40234"
         style="fill:#ffffff;fill-opacity:1;fill-rule:evenodd;stroke:none"
         id="path16" /><path
         d="m 94.0234,17.375 c -1.7304,2.2969 -1.1211,4.0703 0.6797,5.8672 0.9024,2.7031 1.8008,4.0312 3.1289,9 2.883,-5.2188 2.453,-8.5977 0.3633,-14.0781 C 96.7148,17.625 96.7148,17.625 94.0117,17.375"
         style="fill:#ffffff;fill-opacity:1;fill-rule:evenodd;stroke:none"
         id="path18" /><path
         d="m 70.1836,18.2734 c -1.1484,1.8008 -2.2695,3.6016 -3.3789,5.3985 0,2.1328 0,4.2109 0,6.3008 2.5586,3.7109 3.707,4.9023 7.6289,6.9804 0.6094,-0.3281 1.2617,-0.6484 1.9102,-1.0078 C 72.3828,30.1445 73.0625,25.7539 72.9922,18.625 72.0547,18.5117 71.125,18.4023 70.1836,18.2617"
         style="fill:#ffffff;fill-opacity:1;fill-rule:evenodd;stroke:none"
         id="path20" /><path
         d="m 61.1836,30.875 c -6.0508,4.0273 -3.9219,10.3281 -1.3711,16.1992 0.293,0 0.582,0 0.9023,0 0.8282,3.418 4.5704,5.8711 7.668,7.4492 0.9024,0.0704 1.8008,0.1407 2.6992,0.2188 -0.6875,-1.3984 -1.1484,-3.1289 -2.6992,-3.5977 -0.289,-0.6093 -0.539,-1.2617 -0.789,-1.9101 C 63.4922,47.8633 63.5234,35.0547 63.4141,31.3438 62.6523,31.2031 61.9023,31.0547 61.1836,30.875"
         style="fill:#ffffff;fill-opacity:1;fill-rule:evenodd;stroke:none"
         id="path22" /><path
         d="m 107.984,31.7734 c -6.699,2.5196 -5.179,4 -5.179,11.2696 -1.153,3.1718 -2.27,6.3008 -3.3831,9.4297 0.7501,0.1093 1.5121,0.1796 2.2731,0.25 7.16,-6.3399 7.95,-11.6289 7.629,-20.9493 -0.469,0 -0.902,0 -1.332,0"
         style="fill:#ffffff;fill-opacity:1;fill-rule:evenodd;stroke:none"
         id="path24" /><path
         d="m 112.914,48.4453 c -0.359,0.2891 -0.68,0.5391 -1.012,0.7891 -0.109,3.0195 0.321,5.039 -0.109,11.8086 -1.371,5.4023 -1.371,5.4023 -1.371,7.6289 0.832,-1.4688 2.34,-1.9375 3.851,-2.6992 0.649,-1.8008 1.551,-2.6993 3.352,-8.0977 -0.363,-4.1406 0.219,-8.6719 -4.723,-9.4297"
         style="fill:#ffffff;fill-opacity:1;fill-rule:evenodd;stroke:none"
         id="path26" /><path
         d="m 50.3828,52.9453 c -0.3594,0.5781 -0.3594,0.5781 -1.3711,0.8985 -1.2578,3.6679 -1.1484,5.1796 -0.1094,9.1093 0.3204,0.1094 0.6524,0.2188 1.0118,0.3203 0.8984,5.6485 8.4609,9.25 13.9687,9.25 0.25,-0.1796 0.5,-0.3593 0.75,-0.5781 -1.1875,-2.0508 -3.4609,-4.4336 -5.3984,-5.832 -0.5391,-1.4805 -0.5391,-1.4805 -1.9102,-2.8516 -1.6211,-3.8164 -2.3789,-9.789 -6.9492,-10.3281"
         style="fill:#ffffff;fill-opacity:1;fill-rule:evenodd;stroke:none"
         id="path28" /><path
         d="m 88.1836,56.0742 c -2.2695,0.1797 -4.5391,0.3281 -6.7695,0.4688 -0.0391,0.5 -0.0703,1.0117 -0.1094,1.4804 2.1172,1.1914 5.9375,0.9414 7.8789,-0.4687 0,-0.3594 0,-0.7227 0,-1.1211 -0.3594,-0.1094 -0.6797,-0.2188 -1.0117,-0.3594"
         style="fill:#000000;fill-opacity:1;fill-rule:evenodd;stroke:none"
         id="path30" /><path
         d="m 82.7852,80.8438 c -5.3633,4.0703 -11.1602,4.7187 -10.3711,13.0312 0.75,0.1094 1.5078,0.1797 2.2695,0.25 2.0195,-2.4805 2.0195,-2.4805 5.2617,-7.5625 5.5078,-1.9102 8.207,-0.5781 11.5899,4.1797 1.6601,1.1523 3.1289,2.0195 5.1796,2.0195 0.25,-0.3281 0.5,-0.6484 0.7891,-1.0078 C 95.375,84.5938 89.875,81.2031 82.7734,80.8438"
         style="fill:#ffffff;fill-opacity:1;fill-rule:evenodd;stroke:none"
         id="path32" /><path
         d="m 49.0234,110.074 c -0.0703,0.61 -0.1406,1.219 -0.2187,1.801 0.1797,0.137 0.3594,0.25 0.5391,0.359 1.0781,-0.75 1.4804,-0.941 1.9414,-2.16 -0.7618,0 -1.5118,0 -2.2735,0"
         style="fill:#000000;fill-opacity:1;fill-rule:evenodd;stroke:none"
         id="path34" /><path
         d="m 94.0234,111.445 c -5.3984,0.68 -5.3984,0.68 -24.5195,1.797 5.9805,5.981 20.8399,6.262 26.1016,-0.898 -0.543,-0.289 -1.0821,-0.582 -1.5821,-0.899"
         style="fill:#000000;fill-opacity:1;fill-rule:evenodd;stroke:none"
         id="path36" /><path
         d="m 98.9844,122.242 c -11.4492,2.453 -22.3203,1.121 -33.7696,1.121 -0.332,0.321 -0.6093,0.61 -0.9023,0.899 1.8008,0.543 3.6016,1.082 5.4023,1.582 -0.0429,0.941 -0.0703,1.871 -0.1093,2.808 8.6797,3.243 17.6367,6.801 26.207,1.012 1.9414,-0.5 3.8906,-1.039 5.8715,-1.582 0.648,-2.699 0.648,-2.699 2.121,-5.508 -1.621,-0.109 -3.242,-0.219 -4.8206,-0.32"
         style="fill:#000000;fill-opacity:1;fill-rule:evenodd;stroke:none"
         id="path38" /><path
         d="m 95.8242,138.445 c -5.4414,2.77 -14.8711,1.727 -20.9219,1.797 4.3204,4.321 16.7422,2.09 21.9219,-0.32 0,-0.359 0,-0.758 0,-1.149 -0.3594,-0.109 -0.6797,-0.218 -1.0117,-0.32"
         style="fill:#000000;fill-opacity:1;fill-rule:evenodd;stroke:none"
         id="path40" /></g></g></svg>
