<?xml version="1.0" encoding="UTF-8" standalone="no"?>
<!-- Created with Inkscape (http://www.inkscape.org/) -->

<svg
   version="1.1"
   id="svg2"
   xml:space="preserve"
   width="31.586666"
   height="17.6"
   viewBox="0 0 31.586666 17.6"
   sodipodi:docname="OpenDoor_EU.eps"
   xmlns:inkscape="http://www.inkscape.org/namespaces/inkscape"
   xmlns:sodipodi="http://sodipodi.sourceforge.net/DTD/sodipodi-0.dtd"
   xmlns="http://www.w3.org/2000/svg"
   xmlns:svg="http://www.w3.org/2000/svg"><defs
     id="defs6" /><sodipodi:namedview
     id="namedview4"
     pagecolor="#ffffff"
     bordercolor="#666666"
     borderopacity="1.0"
     inkscape:pageshadow="2"
     inkscape:pageopacity="0.0"
     inkscape:pagecheckerboard="0" /><g
     id="g8"
     inkscape:groupmode="layer"
     inkscape:label="ink_ext_XXXXXX"
     transform="matrix(1.3333333,0,0,-1.3333333,0,17.6)"><g
       id="g10"
       transform="scale(0.1)"><path
         d="m 118.469,66.0078 v 0 0 z"
         style="fill:#000000;fill-opacity:1;fill-rule:nonzero;stroke:none"
         id="path12" /><path
         d="m 45.9805,131.93 c 3.207,-1.492 6.457,-3.672 8.2304,-6.711 0.2969,-0.102 0.5977,-0.199 0.8985,-0.289 1.8515,-3.203 7.1679,-7.93 10.5703,-9.114 44.8403,-0.429 89.5393,-2.089 134.2813,1.403 1.519,-0.621 3.047,-1.25 4.566,-1.871 2.922,-2.071 7.352,-8.399 10.442,-7.688 1.84,-2.512 1.84,-2.512 2.91,-3.101 0.281,-6.1606 2.5,-17.6996 0.461,-23.2699 0.269,-0.4805 0.539,-0.9414 0.801,-1.4102 3.839,-0.6406 7.687,-1.2891 11.527,-1.9219 6.172,-7.9687 5.57,-13.1093 5.762,-23.0273 -2.282,-1.0899 -3.719,-2.8711 -5.871,-4.4414 -2.739,-0.9297 -2.739,-0.9297 -11.36,-2.211 C 218.938,40.5195 218.668,32.7578 218.41,25 c -1.359,-3.4609 -2.711,-3.332 -5.941,-5.1328 -0.071,-0.2891 -0.16,-0.5781 -0.239,-0.8672 -2.269,-0.7617 -2.269,-0.7617 -3.132,-1.6406 -11.168,-2.6406 -24.379,-1.3008 -36.078,-1.8711 -0.551,-0.25 -1.102,-0.5 -1.661,-0.7617 0,-5.93754 9.579,-8.31644 10.27,-14.398475 C 175.367,0.25 169.117,0.160156 162.848,0.0898438 155.789,3.31641 151.32,10.2188 144.578,14.5586 c -9.469,-0.4609 -11.301,-0.9297 -15.527,-0.9297 -2.281,0.4688 -2.281,0.4688 -13.242,0.9297 -47.0512,0 -47.0512,0 -90.4418,0.4687 -9.6289,3.5313 -11.668,6.3008 -13.4063,16.9805 C 11.9805,36.457 12,40.9102 12.0195,45.3789 10.2578,49.4492 5.44922,48.7695 1.67969,50.75 0.9375,52.6094 0.9375,52.6094 0.0898438,53.4766 0.117188,62.7188 0.0976563,69.2188 1.67969,77.8086 c 5.25,0.4805 9.30081,-0.082 11.66011,5.1914 0.9883,9.1875 1.8594,16.8867 4.7774,25.609 2.75,1.688 2.75,1.688 6.2305,4.829 3.6718,0.46 9.6523,0.222 12.7304,2.222 -0.1679,5.918 -7.0508,7.887 -9.0195,12.887 -0.2695,0.043 -0.5313,0.07 -0.8086,0.121 0,0.469 0,0.93 0,1.398 6.3789,0.454 12.3984,1.622 18.7305,1.872"
         style="fill:#000000;fill-opacity:1;fill-rule:evenodd;stroke:none"
         id="path14" /><path
         d="m 166.559,106.727 c 2.871,-1.567 2.769,-3.469 3.441,-6.477 -0.012,-5.9414 1.598,-16.5117 -0.98,-21.7031 -0.79,-0.1797 -1.59,-0.3594 -2.391,-0.5274 -20.879,0 -43.34,-2.1718 -64.059,0.4571 -4.5114,4.2617 -9.2614,8.6601 -12.9528,13.7109 0.0937,4.6523 9.6523,11.4295 13.4098,13.3595 6.403,0.461 6.403,0.461 63.543,1.172"
         style="fill:#ffffff;fill-opacity:1;fill-rule:evenodd;stroke:none"
         id="path16" /><path
         d="m 196.711,96.457 c 3.887,-0.2382 9.687,0.5118 12.906,-1.75 0.094,-5.5195 0.352,-10.75 -1.488,-15.9804 -8.031,-1.2266 -17.668,-1.7266 -25.578,0 -1.133,3.0429 -2.363,14.4336 1.367,16.5703 4.27,0.3828 8.531,0.7695 12.793,1.1719"
         style="fill:#ffffff;fill-opacity:1;fill-rule:evenodd;stroke:none"
         id="path18" /><path
         d="m 46.8984,94.5977 c 7.2618,-3.6094 5.6797,-6.0079 5.1993,-14.1797 -0.2071,-0.4102 -0.418,-0.8203 -0.6289,-1.2188 -9.4102,-0.4101 -18.9102,0.6875 -28.3711,0.6875 -0.5079,0.3711 -1.0196,0.7422 -1.5274,1.1133 0,5.1367 -1.1523,10.2969 4.2695,12.418 9.1407,0.9414 9.1407,0.9414 21.0586,1.1797"
         style="fill:#ffffff;fill-opacity:1;fill-rule:evenodd;stroke:none"
         id="path20" /><path
         d="m 75.2109,80.5977 c 0.0664,-0.5313 0.1172,-1.0508 0.1797,-1.5782 -0.2734,0 -0.5312,0 -0.8008,0 0,0.418 0,0.8477 0,1.2774 0.211,0.0898 0.418,0.2031 0.6211,0.3008"
         style="fill:#ffffff;fill-opacity:1;fill-rule:evenodd;stroke:none"
         id="path22" /><path
         d="m 224.117,69.8594 c 0.613,-0.3203 1.223,-0.6211 1.832,-0.9297 -0.148,-5.1328 0.942,-9.1211 -3.59,-11.9102 -23.671,0 -47.261,0.168 -70.91,0.9297 -10.058,1.5 -20.011,0.5781 -30.09,2.1094 -0.57,1.2812 -2.308,3.3516 -3.66,3.7305 -0.672,1.8007 -0.672,1.8007 -0.621,3.4375 0.801,0.332 1.602,0.6523 2.402,0.9922 34.84,1.3085 69.758,-0.4297 104.649,1.6406"
         style="fill:#ffffff;fill-opacity:1;fill-rule:evenodd;stroke:none"
         id="path24" /><path
         d="M 14.0078,69.3984 C 39.4375,68.6992 64.8594,68 90.2891,67.2969 c 0.5,-0.1992 1,-0.3867 1.4882,-0.5899 0.5821,-1.8398 3.6524,-3.9375 5.0235,-5.1289 0,-0.5508 0,-1.0898 0,-1.6406 -2.9805,-1.6484 -8.5625,-1.2109 -11.9922,-1.5078 -25.5391,0 -51.1484,1.3984 -76.73047,1.8672 -2.94922,2.0625 -2.52735,5.8515 -0.10938,8.2812 1.94141,0.5899 1.94141,0.5899 6.05075,0.8203"
         style="fill:#ffffff;fill-opacity:1;fill-rule:evenodd;stroke:none"
         id="path26" /><path
         d="m 146.469,54 c 7,-0.5508 14.011,-1.0898 21.011,-1.6328 4.297,-2.4883 1.43,-21.0586 1.137,-25.8984 -4.898,-4.1211 -11.687,-2.3594 -14.84,3.2695 -1.5,0.8203 -6.929,5.8281 -7.308,7 -2.129,1.7812 -4.258,3.5703 -6.399,5.3711 -2.59,2.8594 -7.543,6.0078 -7.543,10.0273 3.442,2.4805 9.731,1.6328 13.934,1.8711"
         style="fill:#ffffff;fill-opacity:1;fill-rule:evenodd;stroke:none"
         id="path28" /><path
         d="M 43.2383,54 C 53.1406,51.7969 52.1289,52.3867 51.2305,41.3984 50.7383,40.7383 50.2383,40.0781 49.75,39.4102 40.3477,38.5977 31.1992,37.8984 21.7695,37.8984 19.1289,41.668 18.9688,50.0977 21.6602,53.6367 28.8594,53.75 36.0508,53.8672 43.2305,53.9883"
         style="fill:#ffffff;fill-opacity:1;fill-rule:evenodd;stroke:none"
         id="path30" /><path
         d="m 102.617,53.5273 c 7.172,-2.5585 10.321,-8.1875 16.16,-12.4296 3.161,-3.9883 15.071,-12.4297 15.071,-17.1407 -0.489,-0.3398 -0.989,-0.6679 -1.481,-1 -16.629,0 -33.2693,0 -49.8982,0 -11.418,0.9414 -11.418,0.9414 -14.1016,1.6407 0.2305,2.9218 0.4023,4.5703 2.9101,6.0625 1.0625,3.5898 9.1211,6.3086 10.6211,9.9765 1.6797,0.7813 8.0391,6.3321 8.3907,7.7735 1.8281,0.75 1.8281,0.75 5.8789,3.957 2.7422,0.9297 2.7422,0.9297 6.449,1.1797"
         style="fill:#ffffff;fill-opacity:1;fill-rule:evenodd;stroke:none"
         id="path32" /><path
         d="m 188.949,53.0664 c 5.942,-0.2266 11.871,-0.4687 17.809,-0.6992 3.422,-1.9375 1.633,-8.0195 1.031,-11.0899 -0.949,-0.5 -1.898,-1.0078 -2.859,-1.5078 -11.45,-0.9023 -29.16,-5.5117 -22.492,12.0078 1.023,0.5899 1.023,0.5899 6.511,1.2891"
         style="fill:#ffffff;fill-opacity:1;fill-rule:evenodd;stroke:none"
         id="path34" /><path
         d="m 197.617,32.0664 c 3.461,-0.4375 6.031,-0.8984 9.262,-2.2187 0.109,-1.9805 0.109,-1.9805 -0.461,-3.5 -0.34,-0.1211 -0.68,-0.2305 -1.027,-0.3477 0,-0.3203 0,-0.6328 0,-0.9336 -8.801,-0.75 -17.692,-1.2266 -26.493,-0.2383 -0.371,0.5391 -0.757,1.0821 -1.14,1.6289 0.351,0.9727 0.691,1.9414 1.031,2.9102 5.981,2.1719 12.539,2.2305 18.84,2.6914"
         style="fill:#ffffff;fill-opacity:1;fill-rule:evenodd;stroke:none"
         id="path36" /><path
         d="m 47.8086,32.0664 c 3.9414,-1.1992 4.8516,-3.5273 4.7422,-7.6484 -1.25,-0.4883 -2.5,-0.9805 -3.7617,-1.4688 -0.6016,0 -35.25,-2.6523 -27.5196,8.3985 0.461,0.1523 0.9102,0.3125 1.3711,0.4609 8.3985,0.0781 16.7891,0.1602 25.1797,0.2383"
         style="fill:#ffffff;fill-opacity:1;fill-rule:evenodd;stroke:none"
         id="path38" /></g></g></svg>
