<?xml version="1.0" encoding="UTF-8" standalone="no"?>
<!-- Created with Inkscape (http://www.inkscape.org/) -->

<svg
   version="1.1"
   id="svg2"
   xml:space="preserve"
   width="20.16"
   height="14.093333"
   viewBox="0 0 20.16 14.093333"
   sodipodi:docname="SecretDoor_EU.eps"
   xmlns:inkscape="http://www.inkscape.org/namespaces/inkscape"
   xmlns:sodipodi="http://sodipodi.sourceforge.net/DTD/sodipodi-0.dtd"
   xmlns="http://www.w3.org/2000/svg"
   xmlns:svg="http://www.w3.org/2000/svg"><defs
     id="defs6" /><sodipodi:namedview
     id="namedview4"
     pagecolor="#ffffff"
     bordercolor="#666666"
     borderopacity="1.0"
     inkscape:pageshadow="2"
     inkscape:pageopacity="0.0"
     inkscape:pagecheckerboard="0" /><g
     id="g8"
     inkscape:groupmode="layer"
     inkscape:label="ink_ext_XXXXXX"
     transform="matrix(1.3333333,0,0,-1.3333333,0,14.093333)"><g
       id="g10"
       transform="scale(0.1)"><path
         d="m 75.582,52.8477 v 0 0 z"
         style="fill:#000000;fill-opacity:1;fill-rule:nonzero;stroke:none"
         id="path12" /><path
         d="m 0.09375,24.6094 c 1.39844,2.8789 3.16797,5.1484 5.17969,7.6679 1.25781,3.7813 2.04687,3.4922 5.61716,4.9297 4.3633,6.4805 8.9297,10.7618 15.8828,14.293 2.5196,4.4297 0.6485,10.5469 3.7071,14.9766 1.1211,5.1132 2.4804,11.9922 5.4023,16.2031 1.3711,7.5586 2.0899,15.8789 5.1797,22.9293 33.9805,-0.14 67.9685,-0.293 101.9105,-0.429 0.757,-1.153 4.031,-5.071 5.179,-5.4027 1.801,-4.2773 1.801,-4.2773 2.918,-5.8671 0,-4.3516 -12.418,-15.1524 -15.976,-16.6329 0,-0.289 0,-0.5781 0,-0.8984 -2.274,-1.332 -5.18,-3.1289 -5.832,-5.8711 -0.289,0 -0.578,0 -0.899,0 C 127.57,68.6797 118.254,58.1992 115.762,57.4766 115.512,56.3281 100.352,40.1992 99.8906,40.0586 98.5938,38.1484 97.3008,36.2383 95.9609,34.2969 85.3828,28.4297 74.4336,23.8984 63.9922,17.668 57.6914,14.5391 51.3906,11.3672 45.0938,8.19922 38.2539,6.53906 31.4141,3.54688 25.293,0.0976563 21.8008,0.566406 17.6211,3.29688 16.293,6.61719 11.6133,8.55859 6.46094,15.4375 2.25391,18.6797 2.03125,19.2188 1.82031,19.7578 1.57031,20.2578 1.24219,20.3672 0.921875,20.4766 0.5625,20.5781 0.421875,21.9492 0.273438,23.2773 0.09375,24.6094"
         style="fill:#000000;fill-opacity:1;fill-rule:evenodd;stroke:none"
         id="path14" /><path
         d="m 6.39063,25.0781 c 0.9414,1.0821 8.21097,10.7305 9.58207,11.1211 2.8086,3.961 6.5078,4.7891 10.6914,7.0899 3.7382,4.6093 5.2578,10.2187 9.3164,14.289 1.8008,0.7188 2.2031,2.1602 3.7109,2.5899 1.3008,3.9297 9.8594,5.6211 11.2695,10.332 2.1602,0.8594 2.7422,3.418 4.9297,4.0664 0.6133,1.9102 4.6133,3.7813 6.3008,5.1836 6.5508,7.418 6.5508,7.418 6.7695,8.3164 1.9414,0.3203 4.8204,2.0938 5.4024,4.0313 3.5976,1.1914 5.039,6.6211 8.5273,7.6718 1.7305,4.8985 7.7032,2.6285 10.8008,0.8985 0,-0.289 0,-0.578 0,-0.8985 3.8516,-1.4414 6.5896,-4.75 8.3516,-8.3125 -1.012,-2.8086 -3.0625,-8.7773 -5.7617,-9.5781 -6.1172,-8.6406 -13.5,-15.7695 -20.918,-23.1797 -0.332,-0.1094 -0.6524,-0.2226 -1.0117,-0.332 -0.0703,-0.2891 -0.1407,-0.5781 -0.2188,-0.8984 -0.5,-0.2891 -1.039,-0.5821 -1.582,-0.9024 -0.0703,-0.2891 -0.1367,-0.5781 -0.2188,-0.8984 -0.5,-0.2891 -1.039,-0.5782 -1.5781,-0.8985 -0.5,-2.0898 -3.6406,-4.3203 -5.1836,-5.8711 -4.1367,-6.5898 -9.3867,-11.5195 -15.2969,-16.6289 -2.4101,-1.5507 -5.9023,-3.1328 -6.9804,-5.8711 -2.1992,-0.8593 -2.7696,-3.3789 -4.9297,-4.0312 -0.7227,-2.9102 -5.043,-3.707 -5.6211,-6.3008 -0.5,-0.2891 -1.0391,-0.5781 -1.5781,-0.8984 -0.6133,-2.5196 -5.2618,-5.0703 -7.6719,-6.07816 -4.5391,0.64844 -6.8789,2.76956 -10.4414,5.50786 -0.8281,1.4101 -3.91799,5.582 -5.28908,5.9804 -0.42969,1.5117 -0.89844,3.0196 -1.37109,4.5"
         style="fill:#ffffff;fill-opacity:1;fill-rule:evenodd;stroke:none"
         id="path16" /><path
         d="m 34.293,68.2773 c 0.5781,1.1211 1.1484,2.1993 1.6875,3.2813 0.6523,0.1094 1.3008,0.2187 1.9101,0.3203 1.3008,-2.7695 1.4805,-8.2422 -3.2383,-7.7812 -0.1093,1.4023 -0.2187,2.8125 -0.3593,4.1796"
         style="fill:#ffffff;fill-opacity:1;fill-rule:evenodd;stroke:none"
         id="path18" /><path
         d="m 38.793,85.8086 c 2.2304,11.8086 0.3593,18.1094 13.5,17.1014 1.7578,-7.3123 4.9297,-17.5702 1.8008,-24.7303 -0.3204,-0.1133 -0.6524,-0.2227 -1.0118,-0.3203 -3.1679,-3.9219 -6.3007,-4.9024 -11.2304,-4.75 -1.6602,4.0273 -2.2305,8.4179 -3.0586,12.707"
         style="fill:#ffffff;fill-opacity:1;fill-rule:evenodd;stroke:none"
         id="path20" /><path
         d="m 56.793,93.4766 c 1.3984,0.1132 2.3008,0.4023 3.4883,-0.3164 -0.3594,-0.6914 -0.7188,-1.3711 -1.1094,-2.0508 -0.7891,0.0273 -1.5781,0.0703 -2.3789,0.1094 0,0.7578 0,1.5078 0,2.2695"
         style="fill:#ffffff;fill-opacity:1;fill-rule:evenodd;stroke:none"
         id="path22" /><path
         d="m 58.1641,100.68 c 0.5781,0.32 1.2187,1.48 2.2265,2.019 3.3125,-0.07 6.6211,-0.14 9.9024,-0.222 0,-0.758 0,-1.508 0,-2.27 -0.3203,-0.109 -0.6524,-0.2187 -1.0117,-0.3203 -3.461,-4.8594 -7.7383,-2.1289 -11.1172,0.7933"
         style="fill:#ffffff;fill-opacity:1;fill-rule:evenodd;stroke:none"
         id="path24" /></g></g></svg>
