<?xml version="1.0" encoding="UTF-8" standalone="no"?>
<!-- Created with Inkscape (http://www.inkscape.org/) -->

<svg
   version="1.1"
   id="svg2"
   xml:space="preserve"
   width="22.52"
   height="24.719999"
   viewBox="0 0 22.52 24.719999"
   sodipodi:docname="SpearTrap_EU.eps"
   xmlns:inkscape="http://www.inkscape.org/namespaces/inkscape"
   xmlns:sodipodi="http://sodipodi.sourceforge.net/DTD/sodipodi-0.dtd"
   xmlns="http://www.w3.org/2000/svg"
   xmlns:svg="http://www.w3.org/2000/svg"><defs
     id="defs6" /><sodipodi:namedview
     id="namedview4"
     pagecolor="#ffffff"
     bordercolor="#666666"
     borderopacity="1.0"
     inkscape:pageshadow="2"
     inkscape:pageopacity="0.0"
     inkscape:pagecheckerboard="0" /><g
     id="g8"
     inkscape:groupmode="layer"
     inkscape:label="ink_ext_XXXXXX"
     transform="matrix(1.3333333,0,0,-1.3333333,0,24.72)"><g
       id="g10"
       transform="scale(0.1)"><path
         d="m 84.4727,92.7188 v 0 0 z"
         style="fill:#000000;fill-opacity:1;fill-rule:nonzero;stroke:none"
         id="path12" /><path
         d="m 0.445313,22.2383 h 2.48047 v 2.53125 h -2.48047 z"
         style="fill:#ffffff;fill-opacity:1;fill-rule:evenodd;stroke:none"
         id="path14" /><path
         d="m 68.543,67.3086 -4.2383,-6.8398 -18.25,18.5703 6.8398,4.8867 15.6407,-16.6172"
         style="fill:#ffffff;fill-opacity:1;fill-rule:evenodd;stroke:none"
         id="path16" /><path
         d="M 37.5859,71.5469 56.4844,52.6484 38.5664,37.6563 23.2461,58.5078 l 6.5195,7.168 7.8203,5.8633"
         style="fill:#ffffff;fill-opacity:1;fill-rule:evenodd;stroke:none"
         id="path18" /><path
         d="M 0.09375,0.0859375 C 0.203125,7.57813 0.316406,15.0273 0.414063,22.4766 c 0.359375,0 0.761717,0 1.152347,0 0.10937,0.3593 0.21875,0.6797 0.3164,1.0117 0.29297,0.0703 0.58203,0.1406 0.90235,0.2187 C 2.45313,24.0273 2.17578,24.3164 1.88281,24.6094 1.38281,24.4258 0.875,24.2461 0.40625,24.0664 0.292969,28.5273 0.183594,32.9961 0.0859375,37.418 2.13281,37.8867 3.64453,39.2578 5.48438,39.6875 c 0.07031,0.3203 0.14062,0.6094 0.21875,0.8984 0.5,0.3204 1.05078,0.6133 1.58203,0.9024 0.07031,0.3203 0.14062,0.6094 0.21875,0.8984 0.5,0.3203 1.05078,0.6094 1.58203,0.9024 0.53906,3.3789 4.45706,3.9179 6.07816,6.7304 0.2187,1.2188 0.4297,2.4063 0.6914,3.5977 3.4609,1.8008 4.5,2.6601 6.6172,5.9805 0.7929,0.1093 1.582,0.2187 2.3828,0.3203 1.7578,-3.6407 4.5703,-8.5 8.5273,-9.8985 1.9102,-3.8515 4.3516,-8.1406 9.1133,-6.8437 0.1797,0.793 0.3594,1.582 0.5781,2.3437 -2.0898,5.4688 -7.2695,8.7774 -10.8008,13.0664 -4.3593,3.1329 -6.2304,4.8633 -2.1601,9.3204 0.6523,-0.25 1.3008,-0.5 1.9414,-0.7891 1.7617,-5.8984 12.918,-15.8399 17.75,-16.8477 0.25,0.1797 0.5,0.3594 0.7891,0.5391 0.0703,3.6406 -1.1875,8.9609 -4.711,10.3672 -2.6601,3.3125 -5.3672,8.0625 -9.789,9.1133 0.0703,0.8984 0.1406,1.7968 0.2226,2.6992 3.8477,2.4805 5.1797,2.918 7.0899,4.3906 1.1875,2.2305 2.1992,3.957 4.9687,2.4883 4.1797,-6.3008 10.3281,-14.2578 16.7383,-18.5 0,-2.8399 -4.6797,-8.5313 -7.1992,-10.0078 -0.0703,-0.293 -0.1407,-0.5821 -0.2188,-0.8633 -0.7617,-0.2188 -1.5117,-0.4688 -2.2305,-0.7188 -1.9101,-4.789 -9.1093,-5.0781 -10.8007,-11.8789 -4.6797,-1.8711 -5.9414,-5.082 -9.4688,-7.9218 -2.0508,-0.9688 -5.2226,-2.2696 -5.4023,-4.6797 -1.9102,-0.8594 -8.5703,-7.668 -9,-9 C 19.2148,15.6094 18.1641,14.2773 17.6641,12.6992 14.7461,11.5469 13.5664,8.12891 10.5742,6.71875 10.5352,6.32813 10.5039,5.92578 10.4648,5.49609 9.34375,4.88672 9.02344,4.84766 8.66406,3.69922 6.79297,3.08594 5.60547,2.14844 5.06641,0.0976563 c -1.66016,0 -3.3125,0 -4.97266,0"
         style="fill:#000000;fill-opacity:1;fill-rule:evenodd;stroke:none"
         id="path20" /><path
         d="m 6.39453,19.8867 c 0.07031,0.6094 0.14063,1.2227 0.21875,1.8008 0.14063,-0.1406 0.29297,-0.2891 0.47266,-0.4687 0.39844,0.6093 0.78906,1.1875 1.21875,1.7695 0.17969,-0.2891 0.39062,-0.582 0.60937,-0.9024 -0.10937,-0.2187 -0.21875,-0.4296 -0.32812,-0.6796 -0.22266,0.0703 -0.42969,0.1406 -0.61328,0.1796 -0.25,-0.539 -0.46875,-1.1093 -0.67969,-1.6875 -0.32031,0 -0.60938,0 -0.89844,0"
         style="fill:#ffffff;fill-opacity:1;fill-rule:evenodd;stroke:none"
         id="path22" /><path
         d="m 5.95313,27.0859 c 0.22265,1.3321 0.22265,1.3321 0.83203,1.6211 0.32812,-0.6484 0.32812,-0.6484 0.07031,-1.6211 -0.33203,0 -0.60938,0 -0.90234,0"
         style="fill:#ffffff;fill-opacity:1;fill-rule:evenodd;stroke:none"
         id="path24" /><path
         d="m 13.5938,35.1875 c 0,0.4688 0,0.8984 0,1.332 0.289,0 0.582,0 0.9023,0 0.2891,0.8985 0.5781,1.7969 0.8984,2.6993 1.3282,0.6093 2.6993,1.2187 4.0703,1.8007 0.0704,-0.2929 0.1407,-0.6132 0.25,-0.9414 -1.4414,-2.1914 -2.6289,-4.25 -5.4414,-4.1015 -0.2187,-0.7891 -0.2187,-0.7891 -0.6796,-0.7891"
         style="fill:#ffffff;fill-opacity:1;fill-rule:evenodd;stroke:none"
         id="path26" /><path
         d="m 32.9531,37.418 c -4.3867,3.6679 -11.5195,9.8593 -12.1679,15.7695 5.539,0.5 13.0976,-11.1211 13.5,-15.7695 -0.4688,0 -0.9024,0 -1.3321,0"
         style="fill:#ffffff;fill-opacity:1;fill-rule:evenodd;stroke:none"
         id="path28" /><path
         d="m 55.4531,59.918 c -0.4297,0.6484 -0.4297,0.6484 -2.4492,1.6601 -0.6484,1.1211 -1.3008,2.2305 -1.9101,3.3086 -3.5274,3.1328 -8.961,5.3321 -7.5196,10.5117 4.8594,0.2891 7.6992,-8.5703 11.5899,-11.2304 0.4687,-0.9688 0.9414,-1.9414 1.4414,-2.9219 -0.4024,-0.4297 -0.7891,-0.8594 -1.1524,-1.3281"
         style="fill:#ffffff;fill-opacity:1;fill-rule:evenodd;stroke:none"
         id="path30" /><path
         d="m 67.1563,64.8867 c -5.4024,4.3906 -15.4805,11.4492 -15.4805,19.0821 1.9805,1.8671 4.539,4.75 5.1094,7.4492 0.25,0.039 0.5,0.0703 0.789,0.1093 0.9414,1.7618 1.8711,3.5313 2.8086,5.2891 0.25,0.0313 0.5,0.0703 0.793,0.1094 0.9375,2.8437 2.6601,5.0702 4.3203,7.5622 2.1172,6.051 4.25,12.059 6.3672,18.071 0.4297,5.109 -1.0391,11.629 2.7422,15.41 6.4804,2.808 7.3086,3.629 34.3785,17.207 17.211,9.832 34.852,18.972 52.59,27.832 2.949,1.98 3.781,2.34 7.27,2.019 -0.61,-1.621 -1.219,-3.281 -1.801,-4.929 -0.398,-0.141 -0.789,-0.328 -1.148,-0.5 -0.829,-2.77 -3.602,-5 -4.25,-8.5 -0.29,-0.039 -0.54,-0.071 -0.79,-0.11 -7.742,-12.929 -13.281,-26.711 -20.382,-39.961 -0.289,-0.039 -0.539,-0.07 -0.789,-0.109 -0.5,-1.582 -0.969,-3.199 -1.438,-4.82 -0.293,-0.039 -0.543,-0.071 -0.793,-0.11 -4.207,-8.679 -10.66,-17.859 -13.457,-27.07 -1.941,-2.3399 -1.941,-2.3399 -3.711,-3.6407 -5.902,-0.6796 -10.219,-4.4296 -15.812,-5.8984 -4.5394,-3.2422 -9.1097,-6.5508 -13.93,-9 -0.8594,-0.8594 -3.168,-1.8008 -6.0469,-4.25 -2.2031,-1.0117 -9.4297,-4.75 -10.1523,-7.6328 -3.129,-2.0195 -3.129,-2.0195 -7.1993,-3.5977"
         style="fill:#000000;fill-opacity:1;fill-rule:evenodd;stroke:none"
         id="path32" /><path
         d="m 74.793,87.8164 c 0,0.6094 0,1.2227 0,1.8008 0.5,0.1094 1.0429,0.2187 1.582,0.2891 0,0.4296 0,0.8632 0.0391,1.2617 1.7304,1.039 2.8086,2.2695 3.6015,4.0312 2.4492,1.9102 2.4492,1.9102 3.8203,3.7071 0.2188,-0.0391 0.4297,-0.1094 0.6485,-0.1797 0.582,0.832 2.8086,2.5894 3.3789,2.5894 0,-0.429 0,-0.859 0,-1.3277 -1.1875,-0.5 -1.4805,-1.582 -1.7969,-2.6992 -0.293,-0.043 -0.543,-0.0703 -0.793,-0.1133 -1.1093,-3.3477 -5.3984,-4 -6.4101,-7.0899 -0.8594,-0.3281 -1.7305,-0.6484 -2.5899,-1.0078 -0.0273,-0.25 -0.0703,-0.5 -0.1093,-0.789 -0.4688,-0.1407 -0.9414,-0.293 -1.3711,-0.4727"
         style="fill:#ffffff;fill-opacity:1;fill-rule:evenodd;stroke:none"
         id="path34" /><path
         d="m 94.5938,91.418 c -1.0782,0.7578 -1.0782,0.7578 -1.3282,1.8008 0.5782,0 1.1875,0 1.8008,0 0.0664,-0.293 0.1367,-0.6094 0.25,-0.9415 -0.25,-0.289 -0.5,-0.5781 -0.7226,-0.8593"
         style="fill:#ffffff;fill-opacity:1;fill-rule:evenodd;stroke:none"
         id="path36" /><path
         d="m 105.395,96.3867 c -2.809,2.3399 -3.379,4.0003 -3.602,7.6333 4.18,0.468 4.75,-3.282 5.871,-6.7309 -0.758,-0.293 -1.508,-0.5821 -2.269,-0.9024"
         style="fill:#ffffff;fill-opacity:1;fill-rule:evenodd;stroke:none"
         id="path38" /><path
         d="m 72.9961,99.9883 c 0.2891,5.1487 2.4766,9.8277 3.8203,14.8277 1.7969,11.411 1.1484,19.832 15.0781,22.071 0,0.32 0,0.609 0,0.902 7.7813,3.418 14.5115,7.988 22.0705,11.699 0,0.321 0,0.61 0,0.899 1.191,0.32 2.379,0.609 3.601,0.902 0,0.32 0,0.609 0,0.899 13.93,7.878 13.93,7.878 27,14.621 5.008,0 7.168,-1.801 6.727,-6.981 -0.32,0 -0.609,0 -0.898,0 -0.692,-1.332 -0.692,-1.332 -1.692,-2.129 -2.808,1.008 -3.238,1.477 -4.277,1.367 -0.18,-2.699 1.258,-4.929 1.148,-7.878 -2.738,-0.071 -3.418,0.25 -5.758,1.691 -2.23,-0.68 -2.23,-0.68 -2.921,-1.371 3.101,-2.121 4.718,-3.531 4.718,-7.422 -3.168,-3.168 -4.64,3.023 -9.218,1.332 1.578,-3.602 4.21,-4.07 4.5,-8.531 -3.239,0.539 -3.782,4.031 -4.93,6.73 -1.219,-0.07 -2.41,-0.14 -3.602,-0.219 -2.808,-3.992 -6.66,-6.3 -9.468,-10.109 -0.61,-0.141 -1.219,-0.293 -1.801,-0.473 -0.43,-1.328 -1.149,-1.437 -2.379,-2.128 -0.539,0.789 -0.539,0.789 -0.762,4.82 -0.387,0.109 -0.789,0.18 -1.148,0.25 -3.602,-2.52 -10.219,-7.738 -11.922,-11.949 -1.008,-0.332 -1.6877,-1.442 -2.8088,-2.133 -0.9687,-1.617 -14.5781,-15.297 -16.0898,-15.617 -1.6211,-2.84 -5.8985,-4.973 -9,-6.0824"
         style="fill:#ffffff;fill-opacity:1;fill-rule:evenodd;stroke:none"
         id="path40" /><path
         d="m 110.793,100.887 c -3.02,3.531 -3.82,3.922 -3.598,8.531 3.559,-1.301 5,-4.898 4.5,-8.531 -0.32,0 -0.609,0 -0.902,0"
         style="fill:#ffffff;fill-opacity:1;fill-rule:evenodd;stroke:none"
         id="path42" /><path
         d="m 116.195,104.02 c -2.629,1.828 -5.289,7.308 -4.211,10.546 0.399,0 0.789,0 1.219,0 2.66,-3.378 3.742,-6.007 4.793,-10.078 -0.613,-0.14 -1.223,-0.289 -1.801,-0.468"
         style="fill:#ffffff;fill-opacity:1;fill-rule:evenodd;stroke:none"
         id="path44" /><path
         d="m 92.3555,106.289 c 1.2187,5.18 5.8984,7.668 8.8205,11.879 0.469,0.289 0.937,0.578 1.398,0.828 0.18,2.274 3.352,4.25 5.512,4.82 0.289,-0.937 0.289,-0.937 -0.43,-3.128 -0.402,-0.141 -0.793,-0.329 -1.152,-0.5 -0.18,-1.262 -8.5704,-10.219 -10.3282,-11.231 -0.0703,-0.289 -0.1406,-0.578 -0.2227,-0.859 -1.3984,-0.5 -1.6601,-0.539 -2.2695,-1.801 -0.4688,0 -0.8984,0 -1.3281,0"
         style="fill:#ffffff;fill-opacity:1;fill-rule:evenodd;stroke:none"
         id="path46" /><path
         d="m 119.793,110.789 c -0.398,0.609 -0.398,0.609 -1.328,0.899 -1.371,3.199 -2.481,5.539 -2.699,9 0.937,-0.071 1.867,-0.18 2.847,-0.29 1.692,-3.199 3.27,-5.222 3.172,-8.89 -0.68,-0.219 -1.332,-0.469 -1.98,-0.719"
         style="fill:#ffffff;fill-opacity:1;fill-rule:evenodd;stroke:none"
         id="path48" /><path
         d="m 123.395,119.316 c -1.372,2.383 -1.579,3.102 -1.579,5.872 1.438,-2.231 2.7,-2.051 2.657,-5.11 -0.36,-0.25 -0.719,-0.5 -1.078,-0.762"
         style="fill:#ffffff;fill-opacity:1;fill-rule:evenodd;stroke:none"
         id="path50" /><path
         d="m 126.996,126.086 c -0.973,1.801 -2.09,2.992 -1.98,5.113 3.277,0.137 3.097,-1.551 3.058,-4.39 -0.359,-0.223 -0.719,-0.473 -1.078,-0.723"
         style="fill:#ffffff;fill-opacity:1;fill-rule:evenodd;stroke:none"
         id="path52" /><path
         d="m 130.594,131.488 c -1.41,1.91 -2.559,3.559 -2.41,6.008 0.32,0.223 0.652,0.391 1.011,0.582 0.61,-0.25 1.219,-0.5 1.871,-0.762 1.547,-3.957 1.547,-3.957 1.797,-5.828 -0.758,0 -1.508,0 -2.269,0"
         style="fill:#ffffff;fill-opacity:1;fill-rule:evenodd;stroke:none"
         id="path54" /></g></g></svg>
