<?xml version="1.0" encoding="UTF-8" standalone="no"?>
<svg
   xmlns:dc="http://purl.org/dc/elements/1.1/"
   xmlns:cc="http://creativecommons.org/ns#"
   xmlns:rdf="http://www.w3.org/1999/02/22-rdf-syntax-ns#"
   xmlns:svg="http://www.w3.org/2000/svg"
   xmlns="http://www.w3.org/2000/svg"
   xmlns:sodipodi="http://sodipodi.sourceforge.net/DTD/sodipodi-0.dtd"
   xmlns:inkscape="http://www.inkscape.org/namespaces/inkscape"
   version="1.1"
   id="svg2"
   xml:space="preserve"
   width="43.410778"
   height="69.996407"
   viewBox="0 0 43.410778 69.996406"
   sodipodi:docname="Tomb_EU_vertical.svg"
   inkscape:version="1.0.2 (1.0.2+r75+1)"><metadata
     id="metadata115"><rdf:RDF><cc:Work
         rdf:about=""><dc:format>image/svg+xml</dc:format><dc:type
           rdf:resource="http://purl.org/dc/dcmitype/StillImage" /><dc:title></dc:title></cc:Work></rdf:RDF></metadata><defs
     id="defs6" /><sodipodi:namedview
     id="namedview4"
     pagecolor="#ffffff"
     bordercolor="#666666"
     borderopacity="1.0"
     inkscape:pageshadow="2"
     inkscape:pageopacity="0.0"
     inkscape:pagecheckerboard="0"
     inkscape:document-rotation="0"
     showgrid="false"
     inkscape:zoom="10.140925"
     inkscape:cx="21.662514"
     inkscape:cy="35.0012"
     inkscape:window-width="1853"
     inkscape:window-height="1025"
     inkscape:window-x="67"
     inkscape:window-y="27"
     inkscape:window-maximized="1"
     inkscape:current-layer="g8" /><g
     id="g8"
     inkscape:groupmode="layer"
     inkscape:label="ink_ext_XXXXXX"
     transform="matrix(1.3333333,0,0,-1.3333333,-0.09081954,70.007865)"><g
       id="g10"
       transform="scale(0.1)"><path
         d="M 163.172,262.566 Z"
         style="fill:#000000;fill-opacity:1;fill-rule:nonzero;stroke:none"
         id="path12" /><path
         d="M 213.969,0.0859375 C 210.66,0.335938 207.352,0.558594 204.07,0.777344 138.66,0.957031 73.25,1.09766 7.87109,1.24609 6.85938,1.78516 6.85938,1.78516 4.48828,5.06641 2.28906,23.8555 3.33984,42.9375 4.05859,61.7656 4.19922,95.3867 4.35156,128.977 4.48828,162.566 3.94922,270.816 1.78906,379.715 1.78906,487.688 c -1.687497,7.917 -1.050779,18.468 -0.64843,26.777 0.28906,0 0.57812,0 0.89843,0 0.94141,4.613 1.40235,4.793 5.83203,6.523 30.91801,2.629 62.14061,2.16 93.16791,2.7 2.231,0.539 3.992,0.25 6.301,0 21.172,0 42.301,0 63.43,0.898 32.871,0 53.57,0.473 143.101,0.473 7.02,-0.903 8.059,-0.114 9.219,-7.454 0.898,-78.73 1.371,-88.199 2.269,-154.117 -0.179,-0.652 -0.32,-1.332 -0.468,-2.023 0,-47.227 1.371,-94.567 1.371,-141.77 -0.473,-11.23 -0.473,-11.23 -0.473,-61.629 0.141,-0.757 0.289,-1.507 0.473,-2.269 -0.184,-0.141 -0.321,-0.289 -0.473,-0.43 -0.398,-43.492 -1.051,-87.0115 -2.23,-130.4998 C 322.66,11.7969 322.66,11.7969 322.66,6.39844 320.719,1.28516 306.281,2.14844 301.738,1.67578 243.672,0.777344 240.07,0.347656 213.969,0.0976563"
         style="fill:#000000;fill-opacity:1;fill-rule:evenodd;stroke:none"
         id="path14" /><path
         d="m 33.9609,5.05859 c -5.4726,4.56641 -17.75,2.51954 -20.9101,8.52731 -0.1797,1.0821 -0.332,2.1211 -0.4727,3.1719 -0.1367,47.6602 -0.789,95.4372 0,143.0972 1.5508,-1.117 2.0235,-1.91 2.9532,-3.597 0.289,0 0.5781,0 0.8984,0 1.0117,-2.699 3.0586,-4.723 4.5,-7.199 6.5508,-4.614 20.2305,-13.641 26.1016,-4.071 2.2304,0.789 5.2187,3.129 6.0468,5.399 0,13.351 2.2735,29.738 -1.4375,42.871 -1.8008,1.008 -2.9922,0.398 -4.3906,-1.012 -6.9805,-0.219 -6.9805,-0.219 -8.8906,-0.789 -0.1094,-0.32 -0.2188,-0.648 -0.3203,-1.012 2.1914,-0.429 3.2695,-0.757 5.039,-2.117 0.3633,-11.301 0.4336,-22.57 0.1133,-33.883 -0.9023,-3.597 -1.332,-4.07 -1.5508,-5.398 -5.6914,0.25 -15.6601,2.121 -17.5703,8.531 -3.8515,1.258 -7.0195,10.149 -8.3203,13.969 -2.5898,2.23 -3.0586,2.488 -3.6016,5.828 -0.289,21.273 -1.7578,43.094 -0.4687,64.371 -1.0078,9.723 -0.8594,19.512 -1.80079,29.231 0.14059,1.082 0.29299,2.121 0.47269,3.171 -0.2227,33.477 -0.293,66.93 -0.90238,100.329 0.42969,8.101 0.42969,56.699 0.90238,60.3 0.1367,0.18 0.289,0.321 0.4297,0.469 5.1796,-6.801 4.5703,-16.519 10.3671,-23.398 5.8711,-4.75 16.6016,-11.66 24.3008,-7.2 -0.4687,2.227 -0.4687,2.227 -0.3594,4.61 5.9805,2.988 5.1797,10.617 5.7618,16.519 0,11.7 -0.4727,14.399 -0.4727,21.598 -0.7187,7.672 -4.8984,12.383 -12.8203,12.383 -2.6992,-0.903 -2.6992,-0.903 -8.5273,-1.801 -2.7032,-1.73 -5.4024,-3.461 -8.1016,-5.18 0.1094,-0.609 0.2187,-1.261 0.3203,-1.91 1.0117,-0.109 1.0117,-0.109 3.2813,0.789 3.457,3.461 10.6875,4.5 15.2968,4.719 0.2227,-9 -0.25,-12.598 -0.6875,-31.93 -0.4687,-5.867 -0.4687,-5.867 -1.0117,-7.308 -8.8203,-2.199 -18.8594,14.871 -22.3906,19.441 -0.8985,4.75 -0.4297,5.438 -5.1797,5.867 -0.25,1.66 -0.4688,3.313 -0.67969,4.93 0,18.582 -1.21875,37.801 0.67969,56.273 0.9023,0.071 1.8008,0.137 2.7031,0.219 1.2969,1.84 1.2578,2.52 0.4688,4.719 -3.4219,1.301 -3.4219,3.852 -3.6016,7.199 3.4219,0.543 6.8828,1.082 10.332,1.582 64.3672,0 128.6991,1.801 193.0701,1.801 22.028,-1.051 44.059,-0.902 66.129,-0.902 30.168,-0.899 30.168,-0.899 31.969,-1.328 0.473,-0.321 0.941,-0.653 1.441,-1.012 0,-0.36 0,-0.758 0,-1.149 -2.379,-1.261 -2.34,-1.402 -3.242,-3.922 -0.328,-0.07 -0.609,-0.136 -0.898,-0.218 -0.321,-0.5 -0.61,-1.051 -0.899,-1.578 -0.332,0 -0.609,0 -0.902,0 -0.289,-0.614 -0.539,-1.262 -0.789,-1.911 -1.66,-0.543 -4,-3.71 -4.61,-5.293 -0.32,0 -0.609,0 -0.902,0 -0.18,-0.578 -0.328,-1.187 -0.469,-1.796 -0.328,-0.071 -0.609,-0.141 -0.898,-0.223 -1.223,-2.16 -3.531,-2.738 -4.031,-5.18 -1.578,-0.398 -5.621,-5.437 -6.301,-7.199 -1.938,-0.469 -4.207,-3.422 -4.5,-5.398 -2.629,-0.653 -3.777,-3.133 -6.449,-4.391 -0.11,-0.332 -0.219,-0.652 -0.321,-1.012 -3.558,-0.578 -6.007,-4.64 -9.429,-5.398 -0.539,-1.039 -0.649,-1.481 -1.801,-1.801 0,-0.289 0,-0.582 0,-0.898 -0.328,0 -0.609,0 -0.899,0 0,-0.293 0,-0.582 0,-0.903 -0.902,-0.218 -2.269,-1.578 -5.871,-3.379 -24.949,-2.089 -50.578,-0.609 -75.597,-0.429 -29.231,-0.473 -32.403,-0.903 -37.332,-0.903 -11.2,1.442 -22.571,1.121 -33.77,2.703 -21.6014,-0.902 -22.9295,-1.371 -51.7303,-2.273 -7.668,-3.668 -5.2188,-7.957 -4.2891,-16.418 -0.3203,-7.059 -0.6093,-14.109 -0.9023,-21.172 5,-53.277 3.1719,-106.847 6.3008,-160.199 -0.1797,-0.43 -0.3203,-0.859 -0.4688,-1.328 0,-9.141 0,-18.289 0,-27.473 0.2891,-0.719 0.5781,-1.476 0.8985,-2.226 0.4296,0.898 0.9023,1.796 1.371,2.699 0,6.98 1.3008,20.738 -0.8984,27.898 0.4297,4.653 0.8594,9.289 1.3281,13.93 -1.4414,15.051 -2.5898,27.973 -0.8984,42.98 -0.543,12.059 -0.4297,23.719 -0.4297,35.782 -1.7305,33.34 -2.7422,66.168 -2.5898,99.578 5.6875,2.051 13.457,1.262 19.4765,1.441 15.7305,2.231 31.4339,1.981 47.2309,0.899 13.972,-1.797 13.972,-1.797 20.269,-2.231 16.203,0 19.332,0.434 103.5,0.653 0.113,-0.321 0.223,-0.653 0.32,-1.012 -0.937,-0.719 -0.968,-0.899 -1.218,-2.117 -1.731,-0.223 -1.91,-0.321 -3.168,-1.582 -26.571,-0.579 -52.961,1.8 -79.633,1.8 -17.098,3.2 -35.207,-1.8 -52.668,-1.8 -7.992,2.05 -18.5821,0.398 -27.0001,0 -4.2812,0.109 -17.1718,2.628 -19.582,-2.7 0.4727,-3.379 0.4727,-3.379 0.25,-4.718 -0.6094,-0.141 -1.2187,-0.293 -1.8008,-0.473 -3.8867,-11.301 -4.0664,-27.18 -2.9492,-39.129 5.543,-9.719 0.4297,-21.531 4.5,-31.07 1.0117,-9.762 3.6328,-21.352 1.3711,-31.032 -0.4687,-11.699 -0.8984,-13.968 -0.8984,-17.097 3.457,-12.199 4.4297,-23.653 0.8984,-36 0,-3.383 0,-3.383 -0.8984,-9.473 0,-17.597 -0.6524,-35.637 1.7968,-53.097 0,-25.2 0.4297,-33.731 0.4297,-61.2 1.7305,-14.832 0.2227,-30.531 -0.2187,-45.429 6.0117,0 12.8906,3.707 18.9023,5.179 3.5977,1.797 3.5977,1.797 9,3.598 6.2263,6.23 11.5583,10.402 19.7973,13.93 5.871,0 6.769,-0.43 9.902,-0.688 0.609,-4.609 0.758,-6.012 5.18,-7.633 3.199,-3.199 2.449,-8.347 2.699,-12.597 0.832,-0.5 1.66,-1.039 2.488,-1.582 -0.359,-0.18 -0.719,-0.36 -1.047,-0.539 -0.109,-1.079 -0.222,-2.161 -0.32,-3.282 3.961,-0.179 5.867,0.293 9.578,1.692 0.109,0.5 0.223,0.968 0.32,1.441 -2.699,1.078 -4.461,1.258 -7.418,1.367 -0.113,1.223 -0.113,1.223 1.329,9 -0.899,4.93 -0.899,4.93 -0.899,6.731 0.899,1.371 0.899,1.371 1.149,2.699 -2.411,0.184 -4.821,0.32 -7.2,0.473 1.692,5.828 3.352,11.879 5.828,17.527 4.391,1.043 10.411,1.371 14.872,0.902 0.718,-12.422 2.121,-24.48 2.449,-36.902 2.16,-2.879 7.531,-8.93 6.551,-13.027 -8.032,-1.371 -18.899,1.84 -26.571,2.918 -0.578,0.582 -0.578,0.582 -1.687,6.191 -0.864,0.359 -1.731,0.691 -2.59,1.012 -4.141,-2.953 2.269,-11.121 2.269,-14.621 -1.011,-1.012 -0.941,-2.2 -1.121,-3.602 3.129,-0.68 3.129,-0.68 4.5,-1.371 0.61,-3.4883 0.68,-6.0078 0,-9.4297 -0.332,0 -0.609,0 -0.898,0 -2.274,-5.1797 -2.274,-5.1797 -2.703,-7.1992 -2.09,-0.5 -3.059,-3.4883 -3.598,-5.3984 -0.332,0 -0.609,0 -0.902,0 -3.379,-9 -6.078,-14.8711 -6.297,-16.1993 -1.371,-0.2226 -1.371,-0.2226 -3.852,-1.582 -7.09,2.0899 -16.129,2.6289 -23.6208,3.3789 -0.1094,0.3633 -0.2187,0.6797 -0.3203,1.0117 -3.707,2.6289 -4.9687,10.5118 -8.6797,11.5899 -1.1875,3.5586 -7.8789,7.9609 -11.0195,9.8984 -1.2188,0 -2.4102,0 -3.6016,0 -6.0468,-6.0469 0.6133,-18.2187 -6.5078,-22.5 0,-0.5781 0,-1.1875 0,-1.7969 -0.1797,0 -0.332,0 -0.4687,0 -1.1524,4.5704 -1.043,8.8594 -0.6797,13.5 -1.8008,17.5274 -1.8008,17.5274 -2.4531,20.6993 -0.3594,-0.1094 -0.7188,-0.2227 -1.0469,-0.3204 -0.543,-6.8789 -0.543,-6.8789 -0.543,-19.9414 -1.3672,-9 -1.3672,-9 -2.2695,-21.1289 -0.8985,-0.8984 -0.8985,-0.8984 -1.1211,-1.8007 -2.8399,-0.6485 -6.2578,-5.8008 -4.6094,-8.6797 11.8828,-6.7305 26.7813,-1.3008 38.3828,-7.0899 0.5,-4.6797 -3.0234,-20.4804 -8.1015,-22.5 -0.25,-1.3281 -0.6797,-1.8008 -0.8985,-3.1289 -0.332,0 -0.6133,0 -0.9023,0 -4.1797,-10.98046 -14.6875,-2.76952 -22.5,0.2188 -1.8008,1.3711 -1.8008,1.3711 -2.6992,1.582 0,0.3164 0,0.6094 0,0.8984 -5.5821,2.9883 -11.5899,6.7696 -18,7.1993 0,-0.2891 0,-0.5782 0,-0.8985 0.3203,-0.1094 0.6484,-0.2226 1.0117,-0.3203 3.4179,-4.7891 13.5664,-6.7695 14.7187,-12.28125 -0.9023,0.07031 -1.8008,0.14063 -2.6992,0.21875 -6.5508,6.5508 -22.75,10.1523 -31.0312,6.5234 -0.0704,-1.082 -0.1094,-2.1601 -0.1407,-3.2421 5.3711,-3.01958 11.5899,-2.66021 17.3516,-5.62114 0.1094,-0.46875 0.2187,-0.96875 0.3203,-1.47657 -1.5117,0 -3.0195,0 -4.5,0"
         style="fill:#ffffff;fill-opacity:1;fill-rule:evenodd;stroke:none"
         id="path16" /><path
         d="m 214.871,5.48828 c -6.262,2.44922 -11.051,6.58982 -17.531,8.57032 -1.399,4.207 -17.781,7.8477 -21.602,9.2187 -1.867,1.8711 -1.547,2.918 -1.578,5.6211 3.352,3.5704 21.488,-1.6914 22.61,-5.5117 0.609,-0.25 1.261,-0.5 1.91,-0.789 1.3,-3.961 12.422,-8.3907 15.769,-10.1211 3.02,-0.8594 10.942,-1.6914 12.02,-5.2891 -2.809,-1.91016 -8.207,-1.51172 -11.59,-1.69141"
         style="fill:#ffffff;fill-opacity:1;fill-rule:evenodd;stroke:none"
         id="path18" /><path
         d="m 181.57,5.95703 c -2.851,1.14844 -4.718,3.41797 -8.101,4.28907 -2.699,0.1406 -5.399,0.2891 -8.098,0.4297 -0.293,0.3594 -0.543,0.6797 -0.793,1.0117 0.363,0.6094 0.723,1.2188 1.121,1.8008 5.082,-1.3008 15.192,-2.0195 18,-7.20314 -0.719,-0.10938 -1.437,-0.21875 -2.121,-0.32813"
         style="fill:#ffffff;fill-opacity:1;fill-rule:evenodd;stroke:none"
         id="path20" /><path
         d="m 121.73,6.38672 c -2.16,0.64844 -11.839,4.57028 -12.601,7.19918 -0.609,0.1797 -1.219,0.3204 -1.801,0.4727 -1.039,3.1992 -9.3983,5.4687 -8.0975,10.3281 0.5,0.1094 1.0075,0.1797 1.5505,0.25 1.91,-1.4414 8.309,-7.3086 11.047,-7.8906 0.973,-2.9492 9.832,-7.73829 12.602,-9.67969 -0.469,-0.42969 -0.469,-0.42969 -2.7,-0.67969"
         style="fill:#ffffff;fill-opacity:1;fill-rule:evenodd;stroke:none"
         id="path22" /><path
         d="m 141.531,6.38672 c -3.922,1.01172 -18.402,4.21098 -19.801,8.99998 -0.902,0.4688 -3.128,2.3008 -3.378,3.1719 0.898,0 6.089,-2.4805 8.777,-3.3828 5.473,-3.707 13.141,-3.8203 18.543,-7.30861 0.109,-1.01172 0.109,-1.01172 -0.332,-1.46875 -0.578,0.35937 -0.578,0.35937 -3.82,0"
         style="fill:#ffffff;fill-opacity:1;fill-rule:evenodd;stroke:none"
         id="path24" /><path
         d="m 197.328,6.38672 c -0.469,0.17969 -0.937,0.32031 -1.367,0.46875 -0.07,0.32031 -0.141,0.61328 -0.223,0.90234 -0.539,0.32813 -1.078,0.60938 -1.578,0.89844 0,0.46875 0,0.90234 0,1.33203 1.371,-0.54297 2.77,-1.08203 4.18,-1.66015 0.14,-0.5 0.289,-1.05079 0.43,-1.58204 -0.5,-0.10937 -0.969,-0.21875 -1.442,-0.35937"
         style="fill:#ffffff;fill-opacity:1;fill-rule:evenodd;stroke:none"
         id="path26" /><path
         d="m 256.27,7.75781 c -3.668,1.57813 -7.7,4.02739 -11.7,4.49999 0,0.4688 0,0.8985 0,1.3281 3.668,0.1094 15.41,-0.3281 15.41,-5.50777 -1.261,-0.10938 -2.48,-0.22266 -3.71,-0.33204"
         style="fill:#ffffff;fill-opacity:1;fill-rule:evenodd;stroke:none"
         id="path28" /><path
         d="m 271.57,8.1875 c -6.011,3.2383 -12.601,6.8711 -18.898,9.4688 1.219,7.4921 23.437,-3.8907 23.078,-9.10942 -1.41,-0.10938 -2.809,-0.21875 -4.18,-0.35938"
         style="fill:#ffffff;fill-opacity:1;fill-rule:evenodd;stroke:none"
         id="path30" /><path
         d="m 287.328,8.65625 c -1.937,1.12109 -6.59,2.81255 -7.199,4.92965 -6.801,2.0508 -13.899,6.5118 -20.27,9.6797 -1.371,1.9102 -1.007,2.8125 -0.898,5.1797 7.777,0.7227 18.859,-6.7969 24.769,-11.4765 3.239,-1.5821 9.579,-4.793 10.329,-8.32036 -2.27,0 -4.5,0 -6.731,0"
         style="fill:#ffffff;fill-opacity:1;fill-rule:evenodd;stroke:none"
         id="path32" /><path
         d="m 304.871,8.65625 c -2.519,1.76175 -5.223,2.81255 -8.101,3.60155 -0.969,2.9492 -8.969,5.5781 -11.7,8.3203 -2.23,0.8985 -8.531,4.9688 -22.031,12.168 -1.148,1.5508 -1.148,1.5508 -1.578,3.3516 3.848,3.8476 19.328,-5.2891 23.18,-6.9493 9.289,-6.1914 18.218,-12.7109 28.007,-18.1132 0.043,-0.4688 0.071,-0.9688 0.114,-1.47661 -1.301,-1.30078 -5.981,-0.83203 -7.883,-0.90234"
         style="fill:#ffffff;fill-opacity:1;fill-rule:evenodd;stroke:none"
         id="path34" /><path
         d="m 100.559,9.08594 c -2.0473,1.51176 -4.7074,0.97266 -6.8676,2.16016 -0.1133,0.5 -0.2226,0.9727 -0.332,1.4414 3.8906,0.1797 4.4609,-0.0312 7.7816,-2.1211 0.109,-0.4687 0.218,-0.96874 0.32,-1.48046 -0.32,0 -0.609,0 -0.902,0"
         style="fill:#ffffff;fill-opacity:1;fill-rule:evenodd;stroke:none"
         id="path36" /><path
         d="m 228.371,10.457 c -9.691,2.8399 -18.293,7.3789 -26.101,13.7188 -7.918,4.4297 -15.481,7.8828 -24.301,10.1094 -0.219,0.9023 -0.219,0.9023 -0.789,1.4804 4.14,1.8711 10.3,-1.1484 14.289,-2.1172 8.711,-3.4609 17.5,-9.0429 27,-9.6914 0,0.4688 0,0.8985 0,1.3282 -12.309,5.4414 -23.899,10.9101 -36.899,14.4023 -0.468,1.1211 -0.761,1.5078 -0.429,2.6992 6.339,0.9688 11.449,-0.1094 17.531,-2.0195 5.078,-2.8516 14.219,-8.9297 19.578,-4.7188 -1.621,2.6993 -7.449,4.3594 -10.578,5.3985 -0.043,0.6484 -0.07,1.3008 -0.113,1.9101 5.363,0.2891 10.222,-0.1093 14.511,3.2813 7.629,2.7695 16.739,1.7969 24.77,1.7969 1.148,-0.4297 1.398,-0.5391 2.019,-1.5782 -0.07,-4.1797 -0.14,-8.3906 -0.218,-12.6015 -0.332,0 -0.61,0 -0.903,0 -0.758,-3.5977 -1.976,-6.6172 -4.277,-9.4688 -0.07,-0.4297 -0.141,-0.8594 -0.223,-1.3281 -0.328,-0.0703 -0.609,-0.1406 -0.898,-0.2227 -1.012,-1.8007 -4.141,-5.1093 -5.981,-5.5078 -0.789,-1.332 -1.66,-1.6211 -3.019,-2.3828 0,-0.289 0,-0.5781 0,-0.8984 -2.301,-0.5781 -2.988,-2.2696 -4.969,-3.6016"
         style="fill:#ffffff;fill-opacity:1;fill-rule:evenodd;stroke:none"
         id="path38" /><path
         d="m 148.27,11.3555 c -7.2,1.9101 -14.29,4.5703 -20.379,8.8906 0,0.4687 0,0.9023 0,1.332 3.269,-0.5429 3.269,-0.5429 11.48,-0.4297 0.109,0.5 0.219,0.9688 0.359,1.4375 -4.21,1.8321 -9.859,2.8789 -13.5,5.6524 -4.859,0.8984 -8.609,4.3203 -13.179,5.9375 -0.11,0.3594 -0.223,0.6797 -0.321,1.0117 -0.609,0.1797 -1.218,0.3203 -1.8,0.4688 0.14,0.4023 0.289,0.7617 0.429,1.121 6.731,-2.2304 13.75,-3.1289 20.813,-3.0195 0,0.3906 0,0.75 0,1.1094 -5.512,1.0078 -5.512,1.0078 -11.344,2.8086 -3.598,1.8008 -4.289,2.4805 -7.777,3.7109 -0.11,0.3594 -0.223,0.6797 -0.321,1.0117 -0.609,0.1797 -1.218,0.3164 -1.8,0.4688 0,0.4687 0,0.8984 0,1.3281 6.879,0.1133 13.789,0.1797 20.699,0.25 5.262,-2.9883 10.301,-5.1094 15.301,-8.5703 5.691,-0.6797 11.41,0.4336 17.101,1.1211 1.617,-4.2109 -0.332,-8.6406 -1.801,-12.5977 -0.332,0 -0.609,0 -0.902,0 -1.258,-3.6718 -3.816,-7.4218 -7.199,-9.4336 0,-0.289 0,-0.5781 0,-0.8984 -1.758,-0.3984 -3.82,-2.0508 -5.867,-2.6992"
         style="fill:#ffffff;fill-opacity:1;fill-rule:evenodd;stroke:none"
         id="path40" /><path
         d="m 66.8281,14.0586 c -8.707,5.5781 -16.1289,11.9492 -25.7773,16.0898 0,0.5391 0,1.0782 0,1.5782 4.75,0.25 9.5,-2.1289 13.7187,-4.0703 0.1094,-0.3204 0.2188,-0.6485 0.3594,-1.0079 2.4805,-0.7226 6.9102,-2.9218 7.6328,-5.4023 0.8985,-0.2188 0.8985,-0.2188 6.8789,-4.8203 0,-0.6797 0,-1.3672 0,-2.0508 -0.9414,-0.1094 -1.8711,-0.2187 -2.8125,-0.3164"
         style="fill:#000000;fill-opacity:1;fill-rule:evenodd;stroke:none"
         id="path42" /><path
         d="m 179.328,15.8555 c -1.617,1.2226 -4.316,1.7304 -6.297,2.0195 2.27,1.1914 4.93,-0.0391 7.199,-0.6797 0.11,-0.3281 0.219,-0.6484 0.321,-1.0078 -0.43,-0.1094 -0.832,-0.2227 -1.223,-0.3203"
         style="fill:#ffffff;fill-opacity:1;fill-rule:evenodd;stroke:none"
         id="path44" /><path
         d="m 301.73,23.0586 c -8.64,6.1875 -18.218,13.1797 -27.902,17.3164 -4.43,0.6133 -8.93,1.1133 -12.738,3.7109 0,0.3907 0,0.7891 0,1.1524 1.84,1.0078 4.39,0.539 6.441,0.539 7.629,-1.8007 15.258,-3.6015 22.93,-5.4023 2.41,-2.918 6.258,-6.2578 7.519,-9.7891 1.981,-0.6484 4.098,-5.3593 4.649,-7.5195 -0.328,0 -0.609,0 -0.899,0"
         style="fill:#ffffff;fill-opacity:1;fill-rule:evenodd;stroke:none"
         id="path46" /><path
         d="m 316.57,23.0586 c -0.789,1.0078 -0.789,1.0078 -1.8,1.3281 -1.579,3.1719 -1.579,3.1719 -3.379,9 -0.832,9.25 -3.102,17.7813 -4.719,26.7813 -0.684,0.6797 -0.684,0.6797 -1.801,3.8203 -0.32,0 -0.609,0 -0.902,0 -0.649,3.1289 -1.867,5.289 -3.379,8.0976 -0.219,1.6602 -0.43,3.3125 -0.649,4.9727 -1.8,0.2187 -1.8,0.2187 -5.402,-0.2227 -3.738,-5.2187 4.32,-15.1601 5.152,-21.3789 1.481,-2.2304 4,-13.2812 2.7,-15.7695 -1.371,4.1797 -2.161,7.1992 -2.7,11.6992 -2.16,2.1602 -4.32,8.3516 -5.152,11.2696 -0.32,0 -0.609,0 -0.898,0 -1.192,2.3007 -3.379,6.4804 -5.871,7.1992 -0.61,2.5195 -3.891,2.6601 -5.18,4.9297 0,10.6914 1.109,20.6601 0,31.4998 0.609,1.41 1.262,2.813 1.91,4.184 4.539,0.039 9.07,0.066 13.641,0.109 5,-2.09 8.031,-7.312 11.699,-8.781 0.539,-3.3087 4.031,-4.2111 6.84,-2.8087 1.941,-2.7422 -0.789,-4.9024 -0.789,-7.5195 1.98,-1.9805 1.41,-5.1836 0.898,-7.6719 -1.148,2.0898 -1.91,3.5586 -2.449,5.8711 -2.301,0.8593 -3.961,1.1172 -5.981,-0.3203 -0.25,-6.1602 5.442,-13.7891 8.422,-19.0508 0.539,-5.1094 0.219,-10.1914 0,-15.3008 -0.402,1.2227 -0.761,2.4102 -1.121,3.6016 -0.32,0 -0.609,0 -0.898,0 -0.864,8.4609 -4.321,15.4804 -7.992,23.0703 -2.27,0.4687 -3.239,0.4687 -5.508,-0.1094 -1.012,-2.0234 -0.364,-3.6719 0,-5.8711 2.808,-0.9414 6.59,-12.8516 7.668,-16.6289 0.289,0 0.582,0 0.898,0 1.262,-4.4336 5.793,-5.3633 7.422,-9.9023 0,-8.2383 1.219,-18.0704 -0.68,-26.0977"
         style="fill:#ffffff;fill-opacity:1;fill-rule:evenodd;stroke:none"
         id="path48" /><path
         d="m 60.0703,29.7852 c -4,2.1601 -12.7109,5.832 -13.5,10.8007 4.6797,0.3594 7.2383,-1.9101 10.8008,-4.7187 2.6992,-0.8984 3.5977,-1.8008 9.4687,-3.8203 0.0313,-0.6094 0.0704,-1.2617 0.1094,-1.9102 -2.3008,-0.1094 -4.6094,-0.2187 -6.8789,-0.3594"
         style="fill:#000000;fill-opacity:1;fill-rule:evenodd;stroke:none"
         id="path50" /><path
         d="m 290.93,44.1875 c -0.469,0.1797 -0.942,0.3203 -1.371,0.4688 -0.86,5.5117 -3.379,10.121 -3.379,15.7304 0.32,-0.7617 0.648,-1.5508 1.011,-2.3398 0.329,-0.1094 0.688,-0.2188 1.047,-0.3594 1.301,-4.5 3.063,-8.7812 3.602,-13.5 -0.328,0 -0.61,0 -0.899,0"
         style="fill:#ffffff;fill-opacity:1;fill-rule:evenodd;stroke:none"
         id="path52" /><path
         d="m 279.23,45.9883 c -2.019,0.3203 -3.742,0.4297 -5.402,1.5781 -7.629,1.9414 -14.867,2.1211 -22.066,5.4024 -9.364,0.3164 -18.543,0 -27.903,0 -2.449,-0.9727 -8.418,-2.2305 -9.429,1.1093 14.832,0.6485 29.66,0.25 44.531,0.25 6.41,1.5469 9.359,3.2774 15.301,0.6485 0,-0.2891 0,-0.5782 0,-0.8985 2.519,-1.2617 4.136,-5.0703 6.769,-5.832 0.028,-0.6094 0.071,-1.2578 0.11,-1.9102 -0.653,-0.1093 -1.301,-0.2187 -1.911,-0.3593"
         style="fill:#ffffff;fill-opacity:1;fill-rule:evenodd;stroke:none"
         id="path54" /><path
         d="m 144.23,49.5859 c -11.089,4.211 -6.05,11.4102 -3.851,20.2696 2.269,4.1015 4.57,8.2109 6.871,12.2812 3.02,1.7617 3.488,3.7813 3.711,7.0586 2.699,1.582 2.699,1.582 4.07,1.8008 3.598,-9 3.707,-18.1406 6.047,-27.4297 2.703,-3.5976 2.66,-7.3398 2.492,-11.6992 -6.261,-2.3789 -12.64,-1.9414 -19.332,-2.2695"
         style="fill:#ffffff;fill-opacity:1;fill-rule:evenodd;stroke:none"
         id="path56" /><path
         d="m 76.2695,50.0586 c 0.1094,0.2187 0.2188,0.3984 0.3203,0.5781 2.129,-0.039 4.2891,-0.0703 6.4493,-0.1406 0,-0.1406 0,-0.2891 0,-0.4297 -2.2696,0 -4.5391,0 -6.7696,0"
         style="fill:#ffffff;fill-opacity:1;fill-rule:evenodd;stroke:none"
         id="path58" /><path
         d="m 36.6719,51.8555 c -5.2617,1.3711 -13.8633,3.8906 -14.8321,10.332 -4.75,1.5781 -4.6796,17.3477 -5.3984,21.168 0.7188,0.0703 1.4688,0.1406 2.2305,0.2226 1.4375,-1.4414 1.9375,-3.3125 2.6992,-5.1797 0.2891,0 0.5781,0 0.8984,0 1.4805,-2.4531 2.9922,-4.9336 4.5,-7.4218 5.2891,-3.9297 8.9688,-12.3789 16.3086,-8.418 0.1133,11.3398 0.1133,11.3398 -0.3281,15.4062 -0.6797,20.9219 -0.6797,20.9219 -1.1094,22.0313 -4.25,-0.1406 -7.6992,-0.9688 -11.8515,-1.6602 -1.0782,-1.8007 -3.168,-2.9492 -5.2578,-3.2773 1.2187,7.4184 23.1796,9.3984 28.0078,5.9764 1.4414,-30.7381 1.4414,-30.7381 1.9101,-31.6366 0.5821,-3.6015 1.6211,-7.8515 -2.4883,-9 -0.6093,-2.5625 -4.6796,-3.3125 -6.8711,-3.9296 -1.7304,-4.6836 -3.6406,-4.4336 -8.4179,-4.6133"
         style="fill:#000000;fill-opacity:1;fill-rule:evenodd;stroke:none"
         id="path60" /><path
         d="m 177.969,54.9883 c -2.489,2.8398 -1.84,6.1484 -2.02,9.8984 -0.679,1.5117 -1.371,3.0196 -2.019,4.5 -0.61,0.1797 -1.219,0.3203 -1.801,0.4688 -0.25,0.6797 -0.469,1.3711 -0.68,2.0195 2.949,8.5703 -3.847,16.1328 -2.48,24.9805 6.98,0.5429 11.09,-6.4805 15.082,-11.2696 0.07,-0.4296 0.14,-0.8593 0.219,-1.3281 0.32,-0.1094 0.652,-0.2226 1.011,-0.3203 4.141,-6.1602 9.5,-12.4922 12.059,-19.4805 0.289,0 0.582,0 0.898,0 0.071,-1.039 0.141,-2.0898 0.223,-3.1718 -5.441,-4.25 -13.68,-5.5079 -20.481,-6.2969"
         style="fill:#ffffff;fill-opacity:1;fill-rule:evenodd;stroke:none"
         id="path62" /><path
         d="m 69.5313,55.457 c -0.3594,0.2891 -0.7227,0.5391 -1.043,0.7891 -0.0391,0.7891 -0.0664,1.582 -0.1094,2.3398 9.2227,7.7422 24.1914,4.0313 34.4491,0 -0.137,-0.4687 -0.25,-0.9375 -0.359,-1.4375 -1.438,-0.582 -1.438,-0.582 -8.2073,-1.4804 -8.2422,-0.0703 -16.4922,-0.1407 -24.7304,-0.2227"
         style="fill:#ffffff;fill-opacity:1;fill-rule:evenodd;stroke:none"
         id="path64" /><path
         d="m 212.172,61.7578 c -0.332,0.1406 -0.613,0.2891 -0.902,0.4297 0.109,0.5 0.218,1.0078 0.32,1.4688 8.89,4.4296 19.191,2.8125 28.941,2.8125 3.129,0.8984 7.629,1.3671 8.641,1.9062 3.668,9.1406 1.617,19.1211 2.379,28.9102 -0.75,5.3708 -1.942,10.1208 -0.473,15.3008 0,7.09 0.043,14.07 -2.34,20.84 -2.519,0.902 -4.25,-0.25 -5.508,-2.379 -1.839,-0.399 -2.05,-1.399 -3.601,-2.481 -7.891,0 -13.027,6.301 -20.699,8.102 -6.121,3.059 -12.668,5.758 -19.371,7.418 0,0.332 0,0.609 0,0.902 -0.61,0.18 -1.219,0.321 -1.797,0.469 -0.832,3.559 -0.364,6.66 0,10.328 4.027,2.524 10.008,-1.117 13.968,-2.918 4.719,-0.648 9.11,-1.66 13.719,-2.922 5.871,-4.097 12.641,-6.617 19.332,-3.82 2.481,-0.469 2.481,-0.469 3.848,-0.25 0.223,0.473 0.43,0.941 0.652,1.371 -0.07,7.602 -0.14,15.16 -0.222,22.723 -6.188,3.097 -8.86,-5.942 -11.118,-10.223 -9.652,-0.109 -19.691,-1.187 -28.91,1.692 -5.152,2.48 -10.48,3.378 -15.453,5.937 -2.226,3.242 -1.906,7.133 -1.906,10.91 2.769,11.59 33.187,-0.027 42.976,-0.648 2.09,1.218 4.18,2.41 6.301,3.601 2.992,-0.332 5.36,-1.222 6.512,2.02 0.289,9.758 0.578,19.508 0.898,29.23 2.192,4.207 1.911,17.207 -1.91,20.59 -3.211,-1.48 -6.258,-2.769 -6.84,-6.621 -9.828,-0.359 -19.55,-1.582 -29.269,-1.582 -3.891,1.043 -8.391,1.551 -12.129,-0.219 0.07,-1.66 0.141,-3.308 0.219,-4.968 -3.02,3.019 -1.219,18.398 1.011,21.281 9.5,1.328 18.43,0.039 28.008,-0.793 6.121,-1.688 13.281,0.679 18.473,-2.699 1.078,0.039 2.156,0.07 3.238,0.109 1.399,2.562 0.18,5.652 1.481,8.211 0.578,12.308 1.187,24.621 1.8,36.898 -1.66,6.551 -1.371,5.762 -7.421,7.891 -13.969,0 -13.969,0 -21.598,-0.43 -6.301,-0.898 -10.801,-2.269 -13.5,-2.699 -1.66,-0.832 -5.113,-2.988 -6.774,-3.379 -0.859,3.418 -3.058,6.949 -3.597,10.328 6.121,0.539 12.168,-1.84 18,0.25 1.801,0 3.597,0 5.398,0 0.289,0.539 0.582,1.039 0.903,1.551 0.289,0 0.578,0 0.898,0 0,0.609 0,1.219 0,1.801 0.289,0 0.578,0 0.898,0 0.293,1.219 0.582,2.41 0.903,3.597 0.289,0 0.578,0 0.898,0 0.43,1.801 0.903,3.602 1.371,5.403 0.289,0 0.578,0 0.899,0 1.332,8.211 4.211,7.379 12.242,9.789 0.109,0.941 0.219,1.871 0.359,2.808 -6.3,0.68 -6.3,0.68 -12.281,0.793 -0.109,0.36 -0.219,0.688 -0.32,1.008 -0.36,0.141 -0.719,0.25 -1.039,0.36 -0.039,5.582 -0.071,11.16 -0.11,16.742 0.578,0.578 0.578,0.578 6.078,2.949 1.551,2.738 3.961,3.059 6.883,3.488 0.11,0.25 0.219,0.5 0.321,0.75 1.367,0 1.367,0 1.367,-0.429 -0.328,0 -0.61,0 -0.899,0 -0.718,-5.18 -1.98,-15.879 4.5,-18.469 0.141,-5.828 0.828,-8.059 -2.949,-12.602 -0.43,-1.797 -0.43,-1.797 -0.43,-6.297 1.399,-3.921 2.231,-12.382 6.731,-13.71 2.988,2.449 3.129,10.148 3.598,13.5 -0.43,6.519 -0.43,6.519 -0.219,28.121 0.289,0 0.578,0 0.898,0 -0.578,18.609 -2.918,37.218 -2.918,55.796 1.731,5.364 1.578,10.551 1.797,16.204 -0.469,6.296 -0.469,6.296 -0.469,26.566 -1.621,5.902 -4.539,16.781 3.379,18.434 -0.066,-3.422 -0.136,-6.883 -0.218,-10.332 1.402,-5.649 1.402,-11.918 1.121,-17.782 -3.352,-4.718 0.25,-11.738 -2.493,-16.879 0,-2.699 0,-2.699 0.903,-5.828 0.937,-27.429 -0.43,-54.941 -0.43,-82.371 0.43,-0.898 0.43,-0.898 1.328,-63.898 2.129,-30.102 -0.429,-60.442 2.27,-90.434 -0.469,-0.898 -0.469,-0.898 -0.899,-17.097 0,-50.8716 0,-50.8716 0.43,-72.0005 0.609,-3.8203 1.551,-7.9492 0.25,-11.6992 -7.852,-2.2305 -16.16,0.9375 -24.301,-1.582 -7.379,-0.3594 -14.73,-0.7188 -22.07,-1.1211"
         style="fill:#ffffff;fill-opacity:1;fill-rule:evenodd;stroke:none"
         id="path66" /><path
         d="m 212.172,72.9883 c -1.801,0.6797 -3.934,1.6601 -4.5,3.5976 -0.32,0 -0.613,0 -0.902,0 -0.692,4.4297 -5.29,7.1329 -5.829,10.8008 -1.511,0.5 -9.582,8.1016 -10.371,10.8008 -0.648,0.2891 -1.3,0.5391 -1.91,0.7891 -0.109,0.3593 -0.219,0.6797 -0.32,1.0117 -0.36,0.1367 -0.719,0.2497 -1.039,0.3597 -0.25,0.789 -0.5,1.578 -0.762,2.34 7.133,-0.43 11.231,-0.5 17.531,-3.8208 8.571,-2.0508 15.77,-7.5195 23.078,-12.2422 1.043,-3.1992 7.883,-5.3594 10.801,-6.7695 0.61,-1.9102 1.871,-1.8672 2.121,-4.6094 -4.5,0.6797 -4.5,0.6797 -5.398,1.1211 -7.563,-0.8984 -15.012,-2.2695 -22.5,-3.3789"
         style="fill:#ffffff;fill-opacity:1;fill-rule:evenodd;stroke:none"
         id="path68" /><path
         d="m 89.7617,81.0859 c -1.1133,2.3399 -1.5117,3.8516 -0.582,6.4493 2.3398,0.75 3.8906,4.9726 6.4492,5.7226 1.1094,2.918 6.5511,10.0782 9.9021,10.8012 0,0.316 0,0.609 0,0.898 5.469,3.738 13.86,10.578 20.699,10.578 3.098,-3.097 2.161,-6.34 0.54,-9.789 -4.5,-2.051 -24.879,-10.4101 -27.0005,-15.7694 -4.2109,-2.4493 -5.4414,-7.2383 -10.0078,-8.8907"
         style="fill:#000000;fill-opacity:1;fill-rule:evenodd;stroke:none"
         id="path70" /><path
         d="m 231.969,91.457 c -1.66,1.2618 -4.821,2.918 -5.399,4.9297 -0.648,0.2891 -1.3,0.5391 -1.91,0.7891 -0.469,1.4805 -1.691,1.332 -2.121,2.8125 -7.699,4.4997 -12.199,8.1677 -20.699,9.6797 -4.461,2.23 -5.512,8.277 -6.551,12.82 -2.769,2.77 -3.238,5.731 -2.91,9.469 2.269,-0.219 7.199,-2.019 20.699,-5.621 7.203,-3.598 7.203,-3.598 18,-10.148 0,-0.29 0,-0.583 0,-0.903 3.281,-2.09 7.094,-4.566 9.793,-0.75 0.828,0 1.66,0 2.488,0 2.231,-4.43 3.243,-6.226 3.02,-11.16 -1.117,-1.578 -1.117,-1.578 -1.328,-2.918 -1.801,-0.6797 -2.699,-1.582 -5.403,-2.6992 0,-0.289 0,-0.582 0,-0.9023 -4.027,-0.6485 -4.429,-4.0274 -7.668,-5.3985"
         style="fill:#ffffff;fill-opacity:1;fill-rule:evenodd;stroke:none"
         id="path72" /><path
         d="m 271.57,91.457 c -0.691,3.6016 -0.691,3.6016 -0.582,5.0782 0.332,0.1132 0.692,0.2226 1.051,0.3203 0.109,-2.0469 0.32,-3.4883 -0.469,-5.3985"
         style="fill:#ffffff;fill-opacity:1;fill-rule:evenodd;stroke:none"
         id="path74" /><path
         d="m 72.6719,93.2578 c -2.7422,4.8594 -1.8438,10.4802 -1.0117,15.8792 0.789,-0.039 1.5781,-0.071 2.3789,-0.141 -0.3985,-5.508 -0.9375,-10.3007 0.4297,-15.7304 -0.6094,0 -1.2188,0 -1.7969,0"
         style="fill:#000000;fill-opacity:1;fill-rule:evenodd;stroke:none"
         id="path76" /><path
         d="m 60.9609,97.2852 c 0,8.0308 0,16.0628 0,24.0898 1.8008,3.023 1.5782,8.82 2.0196,12.383 0.4687,-1.801 0.4687,-1.801 0.8984,-25.672 -0.2891,-4.18 -0.9687,-6.867 -2.0195,-10.8008 -0.3203,0 -0.6094,0 -0.8985,0"
         style="fill:#000000;fill-opacity:1;fill-rule:evenodd;stroke:none"
         id="path78" /><path
         d="m 272.93,105.855 c -3.352,2.52 -3.02,5.223 -3.168,9 0.789,-0.109 1.578,-0.218 2.379,-0.32 0.578,-0.969 0.578,-1.148 1.687,-1.476 0,-2.383 0,-4.793 0,-7.204 -0.328,0 -0.609,0 -0.898,0"
         style="fill:#ffffff;fill-opacity:1;fill-rule:evenodd;stroke:none"
         id="path80" /><path
         d="m 86.1602,107.188 c -0.6094,0.179 -1.2188,0.32 -1.8008,0.468 0.7187,4.539 9.539,11.41 13.0703,14.18 2.5195,1.512 5.0703,3.019 7.6293,4.5 6.441,0.973 17.211,-0.43 20.269,6.519 0.293,0 0.582,0 0.902,0 0.25,0.5 0.5,1.012 0.75,1.481 1.372,-0.039 2.77,-0.07 4.18,-0.141 0.649,-4.179 1.442,-5.828 -1.582,-9.429 -0.066,-0.43 -0.137,-0.899 -0.219,-1.368 -0.32,0 -0.609,0 -0.898,0 0,-0.293 0,-0.582 0,-0.902 -0.32,0 -0.609,0 -0.902,0 0,-0.289 0,-0.578 0,-0.898 -3.348,-0.539 -6.481,-3.129 -9.899,-3.821 -7.879,0 -7.879,0 -12.129,-0.429 -4.5,-1.801 -4.5,-1.801 -10.3708,-4.75 0,-0.289 0,-0.582 0,-0.903 -1.8008,-0.648 -3.6016,-2.019 -9,-4.5"
         style="fill:#000000;fill-opacity:1;fill-rule:evenodd;stroke:none"
         id="path82" /><path
         d="m 316.129,107.656 c -6.16,4.25 -12.527,7.313 -18.469,11.922 -6.73,4.07 -6.73,4.07 -11.23,6.297 -11.051,8.57 -11.051,8.57 -11.379,8.461 -0.141,-2.231 5.371,-10.051 7.89,-10.801 0.137,-0.5 0.289,-1.047 0.43,-1.578 -3.199,-0.762 -5.152,-1.621 -7.992,-3.281 -1.551,1.043 -2.051,1.402 -2.809,3.062 -0.359,0.11 -0.679,0.219 -1.011,0.321 -1.77,5.828 -4.387,14.148 -0.219,19.328 0,4.859 -1.371,9.109 -1.371,13.968 0.609,-1.148 0.832,-1.039 2.051,-1.367 0.14,-0.582 0.289,-1.191 0.429,-1.8 4.071,-1.333 7.492,-8.75 11.813,-11.563 3.957,-4.457 7.269,-8.168 11.269,-12.168 1.078,-3.309 13.18,-9.898 16.52,-12.019 3.597,-0.469 3.597,-0.469 5.078,-0.11 0.473,-2.453 2.48,-7.633 -1.008,-8.68"
         style="fill:#ffffff;fill-opacity:1;fill-rule:evenodd;stroke:none"
         id="path84" /><path
         d="m 175.73,112.156 c -1.8,0.332 -3.601,0.61 -5.402,0.903 -0.137,1.839 -0.25,2.839 0.32,4.609 4.864,0.109 8.282,2.23 12.93,3.277 3.242,-1.218 8.281,-3.957 7.992,-7.988 -5.289,-0.25 -10.582,-0.5 -15.84,-0.789"
         style="fill:#ffffff;fill-opacity:1;fill-rule:evenodd;stroke:none"
         id="path86" /><path
         d="m 165.371,118.457 c -0.582,1.039 -0.652,1.481 -1.801,1.801 -0.218,1.328 -0.691,1.801 -2.019,6.73 -2.742,37.078 -5.653,74.481 -7.199,111.598 0.136,2.051 0.289,4.07 0.429,6.082 -2.812,12.891 -3.601,26.168 -3.601,39.379 0.359,1.039 0.75,2.09 1.148,3.129 4.363,1.301 7.422,1.551 11.813,0.14 0.32,-1.55 0.648,-3.097 1.007,-4.648 0,-31.352 1.801,-62.711 3.133,-94.031 0,-14.692 0,-29.379 0,-44.102 -1.043,-8.75 -0.793,-17.277 -0.652,-26.097 -0.758,0 -1.508,0 -2.27,0"
         style="fill:#ffffff;fill-opacity:1;fill-rule:evenodd;stroke:none"
         id="path88" /><path
         d="m 285.07,148.586 c 0.321,0.07 0.649,0.109 1.008,0.141 0.25,-0.649 0.5,-1.301 0.793,-1.942 0.43,0 0.899,0 1.367,0 0.723,-2.226 3.383,-2.699 4.032,-4.93 0.582,-0.14 1.191,-0.289 1.8,-0.468 0,-0.289 0,-0.578 0,-0.899 4.68,-3.273 9.141,-7.703 14.399,-9.902 0.832,-2.52 6.011,-4.57 8.57,-5.398 0.43,-2.09 0.609,-2.993 0.109,-5.04 -5.257,-0.582 -11.878,9.25 -16.886,11.227 -0.434,1.301 -2.16,2.84 -3.492,3.281 -0.36,2.231 -5.008,6.301 -7.2,7.199 -0.109,0.5 -0.218,1.012 -0.332,1.481 -1.617,0.539 -3.918,3.531 -4.179,5.262"
         style="fill:#ffffff;fill-opacity:1;fill-rule:evenodd;stroke:none"
         id="path90" /><path
         d="m 177.969,125.656 c -0.789,1.012 -0.789,1.012 -1.797,1.332 0.43,5.649 4.566,5.219 9.469,5.399 0.07,-1.621 0.14,-3.282 0.218,-4.93 -2.558,-1.398 -4.968,-1.441 -7.879,-1.801"
         style="fill:#ffffff;fill-opacity:1;fill-rule:evenodd;stroke:none"
         id="path92" /><path
         d="m 80.7617,127.457 c -0.2226,5.981 -1.582,9.762 -5.4023,14.621 -0.4297,4.61 -1.1094,9.141 -0.2188,13.719 0.7578,0.75 2.6602,2.66 2.918,3.601 0.293,0 0.582,0 0.9023,0 0.2188,1.368 0.2188,1.368 1.1172,2.27 0.1407,1.801 0.293,3.598 0.4727,5.398 -2.5899,7.09 -10.6211,21.821 -1.0117,27.321 0.5,1.511 1.6914,1.332 2.1211,2.808 0.289,0 0.5781,0 0.8984,0 1.4414,3.063 1.1211,5.621 1.1211,9 -1.5508,1.551 -2.0195,3.313 -2.2305,5.403 4.461,3.199 10.6914,2.48 15.9805,2.48 5.6483,1.797 11.8403,2.02 17.7503,2.699 3.558,-1.218 9.75,-5.289 11.949,0.219 6.301,-1.051 2.051,-11.769 0.902,-15.73 -11.41,-4.321 -38.7693,-3.309 -45.4724,-16.2 3.4219,-0.179 5.6914,0.18 9,1.122 9.8634,0.648 19.8394,2.699 29.7034,2.699 3.058,-0.469 5.289,-1.731 8.097,-3.129 1.911,-2.231 3.129,-3.852 5.871,-4.75 0.649,-2.922 0.649,-2.922 0.43,-4.5 -10.121,0.328 -18.25,-0.723 -27.43,-4.93 0,-0.293 0,-0.582 0,-0.902 -1.621,-0.18 -2.699,-0.141 -3.171,-1.801 -0.469,-0.066 -0.899,-0.137 -1.329,-0.219 -1.039,-1.84 -1.621,-1.769 -3.601,-2.488 0,-0.293 0,-0.582 0,-0.902 -2.9181,-1.078 -5.1485,-2.411 -6.3009,-5.399 -0.3281,0 -0.6093,0 -0.8984,0 -0.8984,-2.449 -2.9883,-3.281 -4.2813,-5.398 1.2618,-0.071 2.5235,-0.141 3.8204,-0.223 5.6914,3.172 13.9292,8.82 20.2692,10.332 15.524,-0.223 15.524,-0.223 15.84,-0.543 0.582,-4.207 1.442,-7.597 1.262,-11.84 -0.762,-0.289 -1.512,-0.578 -2.27,-0.898 -3.82,11.051 -16.019,-2.301 -22.031,-4.25 -2.629,-4.649 -11.6992,-7.738 -13.0702,-12.379 -0.6094,-0.141 -1.2188,-0.293 -1.7969,-0.473 -0.6836,-2.047 -3.4219,-3.277 -5.4024,-4.027 0,-0.293 0,-0.582 0,-0.902 -1.5078,-0.578 -3.0195,-1.188 -4.5,-1.797"
         style="fill:#ffffff;fill-opacity:1;fill-rule:evenodd;stroke:none"
         id="path94" /><path
         d="m 314.77,133.285 c -1.801,3.242 -8.168,2.133 -9.43,6.301 -2.559,1.582 -7.668,4.211 -8.57,7.199 -0.61,0.184 -1.219,0.32 -1.801,0.473 -0.071,0.32 -0.141,0.609 -0.219,0.898 -0.539,0.332 -1.078,0.61 -1.578,0.903 -0.363,1.507 -1.774,1.578 -2.231,3.129 -3.671,1.218 -5.902,8.597 -7.453,11.699 -1.039,1.082 -2.09,2.129 -3.129,3.172 -1.187,11.339 -1.371,22.316 -1.371,33.726 6.84,6.84 22.903,-6.09 29.051,-9.43 2.121,-6.617 13.711,-2.878 8.313,-11.48 2.769,-4.277 2.878,-6.977 2.128,-12.02 -1.011,-0.578 -1.011,-0.578 -2.019,-0.468 -0.109,0.359 -0.223,0.679 -0.32,1.011 -3.379,1.797 -2.84,6.297 -7.34,5.977 -2.481,-4.5 7.449,-10.148 9.789,-14.078 -0.039,-1.981 -0.07,-3.961 -0.11,-5.942 -0.789,-0.039 -1.582,-0.07 -2.339,-0.109 -3.821,4.07 -6.731,8.461 -10.153,12.82 -1.41,3.532 -2.297,3.379 -6.047,3.379 -5.511,-5.507 14.688,-17.929 15.731,-21.379 3.019,-1.007 2.988,-4.57 3.168,-7.199 -1.078,0 -2.129,0 -3.168,0 -1.762,3.102 -2.953,4.391 -6.301,5.399 -0.109,0.359 -0.223,0.679 -0.332,1.011 -0.648,0.289 -1.301,0.539 -1.91,0.789 -0.719,2.2 -3.418,2.7 -4.07,4.93 -0.36,0.141 -0.68,0.25 -1.008,0.359 -0.11,0.5 -0.223,0.973 -0.321,1.442 -4.359,1.441 -5.718,13.461 -10.039,9.141 -0.222,-2.813 2.84,-8.063 5.539,-9.141 0.649,-1.801 0.649,-1.801 2.551,-4.609 6.547,-5.692 10.867,-10.762 15.77,-17.532 -0.289,-0.109 -0.539,-0.218 -0.789,-0.359"
         style="fill:#ffffff;fill-opacity:1;fill-rule:evenodd;stroke:none"
         id="path96" /><path
         d="m 179.328,143.656 c -3.558,2.77 -1.258,13.5 -1.148,17.532 2.879,2.878 9.679,2.019 12.269,-1.219 -1.109,-5.653 -1.008,-9.832 -1.109,-15.524 -2.988,-1.148 -6.77,-0.718 -10.012,-0.789"
         style="fill:#ffffff;fill-opacity:1;fill-rule:evenodd;stroke:none"
         id="path98" /><path
         d="m 285.07,148.586 c -0.359,0.141 -0.679,0.25 -1.011,0.359 -0.11,0.364 -0.219,0.68 -0.321,1.012 -2.84,1.051 -3.957,3.602 -5.758,5.981 -3.058,1.757 -4.281,4.25 -4.718,7.628 1.437,-0.039 2.918,-0.07 4.386,-0.109 2.454,-3.461 6.801,-10.691 7.422,-14.871"
         style="fill:#ffffff;fill-opacity:1;fill-rule:evenodd;stroke:none"
         id="path100" /><path
         d="m 150.531,169.285 c -2.269,0.332 -4.543,0.613 -6.769,0.903 -0.321,3.269 -0.864,5.828 0,9 0.429,0 0.898,0 1.367,0 1.262,2.339 3.422,2.589 5.832,3.597 -0.141,0.613 -0.289,1.223 -0.43,1.801 -2.41,0.25 -4.82,0.473 -7.203,0.68 -7.957,2.453 -10.148,2.812 -10.148,11.019 2.05,1.481 2.91,1.442 5.179,0.25 3.172,0 3.172,0 5.403,0.653 0,0.32 0,0.609 0,0.898 9.066,4.539 9.218,-5 9.218,-11.699 -2.492,-3.352 -0.539,-4.68 1.372,-8.321 -0.473,-7.418 -0.473,-7.418 -1.012,-8.418 -0.942,-0.113 -1.871,-0.222 -2.809,-0.363"
         style="fill:#ffffff;fill-opacity:1;fill-rule:evenodd;stroke:none"
         id="path102" /><path
         d="m 235.129,185.059 c -4.68,0.828 -9.32,1.656 -13.969,2.476 -5.98,0.43 -14.039,-0.109 -19.48,2.34 -0.11,1.262 -0.219,2.48 -0.321,3.711 2.59,0.859 3.129,4.859 3.602,7.199 10.469,0.363 20.769,-2.297 31.07,-4.027 1.688,-3.852 3.848,-7.133 3.707,-11.383 -1.547,-0.109 -3.097,-0.219 -4.609,-0.316"
         style="fill:#ffffff;fill-opacity:1;fill-rule:evenodd;stroke:none"
         id="path104" /><path
         d="m 316.57,190.457 c -0.218,1.328 -1.582,3.129 -1.8,4.5 1.218,-0.539 2.449,-1.109 3.71,-1.691 0.11,-0.938 0.219,-1.868 0.36,-2.809 -0.762,0 -1.512,0 -2.27,0"
         style="fill:#ffffff;fill-opacity:1;fill-rule:evenodd;stroke:none"
         id="path106" /><path
         d="m 192.371,199.457 c -0.109,0.5 -0.223,1.012 -0.332,1.481 -0.5,0.109 -1.008,0.218 -1.469,0.32 -0.109,0.359 -0.218,0.68 -0.332,1.008 -1.91,0.582 -1.91,0.582 -9.109,0.793 -0.07,3.636 -1.117,8.929 0.32,12.277 6.699,2.551 9.903,-5.078 12.93,-9.578 0.07,-2.09 0.141,-4.18 0.25,-6.301 -0.758,0 -1.508,0 -2.27,0"
         style="fill:#ffffff;fill-opacity:1;fill-rule:evenodd;stroke:none"
         id="path108" /><path
         d="m 316.57,201.258 c -0.859,3.558 -6.769,5.258 -7.629,9 -2.121,0.68 -5.402,4.789 -5.871,6.73 -0.32,0 -0.609,0 -0.898,0 -2.633,6.95 -7.633,13.028 -10.121,20.27 0,3.129 0.429,4.027 0.679,6.73 -1.941,1.297 -5.261,2.91 -7.339,1.039 -0.18,-8.242 3.379,-15.16 6.66,-22.64 0,-0.578 0,-1.192 0,-1.801 -0.403,0.75 -0.762,1.512 -1.121,2.269 -0.469,0 -0.942,0 -1.371,0 -0.688,2.231 -3.379,6.731 -3.821,8.532 -3.058,4.101 -1.828,8.39 -6.66,11.59 -0.109,2.808 0.363,3.281 0.363,8.679 -0.972,9.61 -0.429,17.172 1.118,26.532 8.961,3.347 22.351,-6.7 29.382,-11.122 1.11,-3.378 5.579,-3.64 8.528,-2.918 0.109,-5.222 0.222,-10.441 0.359,-15.66 -4,0.469 -5.617,3.778 -8.566,6.09 -1.121,-0.223 -1.121,-0.223 -1.91,-1.012 0.359,-3.199 2.046,-6.8 5.507,-7.781 0.071,-0.289 0.141,-0.578 0.219,-0.898 3.781,-2.16 4.5,-5.071 4.75,-9.43 -0.758,0 -1.508,0 -2.269,0 -0.829,2.52 -5.11,4.031 -5.618,6.301 -2.019,1.148 -1.8,1.84 -2.48,4.027 -4.07,1.442 -2.02,7.274 -7.633,6.301 -1.078,-10.828 10.262,-18.828 17.313,-24.731 1.05,-2.738 0.789,-4.75 0.687,-7.667 -7.058,2.019 -16.598,16.378 -19.258,22.648 -0.359,0.109 -0.679,0.223 -1.011,0.32 -0.899,2.922 -1.579,3.602 -2.129,5.082 -1.008,0 -1.981,0 -2.95,0 -2.41,-5.371 6.122,-13.82 8.239,-19.48 0.293,0 0.582,0 0.902,0 3.098,-8.281 11.949,-11.66 16.418,-18.473 -0.07,-2.847 -0.141,-5.687 -0.219,-8.527 -0.761,0 -1.511,0 -2.269,0"
         style="fill:#ffffff;fill-opacity:1;fill-rule:evenodd;stroke:none"
         id="path110" /><path
         d="m 271.57,204.855 c -0.609,0.141 -1.218,0.293 -1.8,0.43 -1.192,3.172 -1.661,5.153 -1.801,8.57 0.793,0.043 1.582,0.071 2.383,0.114 0.109,-0.321 0.218,-0.653 0.32,-1.012 0.316,-0.109 0.648,-0.219 1.008,-0.32 1.3,-3.782 1.468,-4.141 -0.11,-7.782"
         style="fill:#ffffff;fill-opacity:1;fill-rule:evenodd;stroke:none"
         id="path112" /><path
         d="m 235.129,205.285 c -3.598,1.301 -7.199,2.59 -10.801,3.852 -7.156,0.429 -14.148,-0.36 -21.168,1.121 -1.441,3.019 -1.91,5.219 -2.488,8.527 0.578,0.363 19.578,-0.219 38.949,0.25 0.578,-0.066 1.188,-0.137 1.801,-0.25 0.5,-1.547 1.008,-3.129 1.547,-4.719 -1.77,-6.519 -1.258,-8.211 -7.848,-8.781"
         style="fill:#ffffff;fill-opacity:1;fill-rule:evenodd;stroke:none"
         id="path114" /><path
         d="m 137.031,206.188 c -1.152,1.73 -0.472,5.98 -0.472,8.097 4.613,0.184 8.64,-0.648 13.179,-0.75 0.723,-2.449 0.973,-4 0.903,-6.547 -4.539,-0.25 -9.071,-0.5 -13.61,-0.793"
         style="fill:#ffffff;fill-opacity:1;fill-rule:evenodd;stroke:none"
         id="path116" /><path
         d="m 278.77,212.957 c -2.09,1.051 -3.02,3.738 -5.399,4.5 -0.652,4.031 -5.18,6.16 -5.18,10.328 0.5,0.543 1.039,1.082 1.579,1.582 1.218,-1.219 1.218,-1.219 2.269,-1.582 2.051,-4.066 4.102,-8.137 6.152,-12.238 0.329,-0.109 0.688,-0.219 1.047,-0.359 -0.179,-0.719 -0.328,-1.481 -0.468,-2.231"
         style="fill:#ffffff;fill-opacity:1;fill-rule:evenodd;stroke:none"
         id="path118" /><path
         d="m 78.5313,216.988 c -0.4727,0.18 -0.9415,0.321 -1.3711,0.469 -0.0704,2.27 -0.1407,4.5 -0.2188,6.731 3.668,3.667 4.457,7.667 5.6172,12.597 4.2109,0.5 8.7812,3.742 12.6016,5.653 5.3278,1.257 9.7888,1.328 15.3008,1.328 2.301,-1.547 7.019,-1.981 7.988,1.261 7.242,0.321 7.129,-13.359 7.992,-18.582 -0.25,-0.5 -0.472,-1.039 -0.691,-1.578 -5.691,5.692 -29.9883,-1.582 -36,-2.699 -1.3281,-0.902 -1.3281,-0.902 -8.5312,-3.82 0,-0.289 0,-0.582 0,-0.903 -0.8985,-0.136 -1.7969,-0.289 -2.6993,-0.468"
         style="fill:#ffffff;fill-opacity:1;fill-rule:evenodd;stroke:none"
         id="path120" /><path
         d="m 141.07,219.258 c -4.031,1.578 -4.031,1.578 -6.3,1.801 -0.321,1.007 -0.321,1.007 -1.469,1.687 -1.371,5.109 -2.199,9.68 -2.813,14.942 -1.758,6.449 -5.218,11.488 2.953,11.488 1.797,-0.899 1.797,-0.899 8.637,-2.809 1.91,-5 1.192,-13.14 1.473,-18.582 -0.473,-7.199 -0.473,-7.199 -1.012,-8.207 -0.5,-0.109 -1.008,-0.223 -1.48,-0.32"
         style="fill:#ffffff;fill-opacity:1;fill-rule:evenodd;stroke:none"
         id="path122" /><path
         d="m 33.5313,225.988 c -2.4532,0.899 -9.043,2.52 -9.9024,5.399 -2.6289,0.859 -7.0898,10.73 -7.8906,12.172 -0.5,3.668 -1.7969,7.308 -1.6875,10.91 0.8594,-0.031 1.7305,-0.071 2.5898,-0.114 2.9102,-3.378 2.9102,-3.378 3.3789,-4.5 0.2891,0 0.5821,0 0.9024,0 1.7969,-3.597 7.8789,-8.238 10.7969,-10.578 3.9609,-1.261 6.2617,-1.761 10.4414,-1.691 0.3203,0.5 0.6484,1.012 1.0117,1.48 0,14.403 0.4687,22.032 0.4687,35.532 -0.2187,1.121 -0.4023,2.199 -0.582,3.277 -4.0703,2.453 -9.25,-0.398 -13.2891,-1.797 -0.1093,-0.332 -0.2187,-0.652 -0.3203,-1.012 -0.6094,0 -1.2187,0 -1.8008,0 0.293,0.762 0.5821,1.512 0.9024,2.231 0.289,0 0.5781,0 0.8984,0 0,0.328 0,0.609 0,0.898 4.461,2.16 9.1094,2.953 13.9727,4.071 0.4297,1.121 0.4297,1.121 2.5469,3.281 4.8593,0.18 5.332,-2.231 7.0898,-6.449 0.4023,-13.973 0.9414,-27.86 0.4727,-41.832 -1.5118,-3.02 -9.1797,-4.641 -12.3829,-5.868 -0.4296,-1.73 -2.4492,-2.23 -4.0273,-2.703 -0.1406,-0.75 -0.25,-1.547 -0.3594,-2.34 -1.082,-0.109 -2.1601,-0.218 -3.2422,-0.359"
         style="fill:#000000;fill-opacity:1;fill-rule:evenodd;stroke:none"
         id="path124" /><path
         d="m 78.9609,240.387 c -0.3203,0.609 -0.6093,1.218 -0.9023,1.801 -0.3203,0 -0.6094,0 -0.8984,0 0.4687,17.57 -5.5821,33.41 -3.3789,50.871 2.2695,7.449 1.2578,4.718 6.7695,8.097 2.1601,0.071 4.3203,0.141 6.5195,0.219 1.9805,-1.977 4.1797,-2.02 6.7695,-2.488 1.5118,-3.102 2.0196,-4.75 2.0196,-8.102 -2.4102,-2.41 -7.5586,-2.199 -11.0196,-3.347 -2.2695,-1.372 -2.2695,-1.372 -5.0781,-2.379 -0.1133,-0.332 -0.2226,-0.653 -0.3203,-1.012 -0.6133,-0.141 -1.2226,-0.289 -1.8008,-0.469 0,-0.43 0,-0.859 0,-1.332 -1.6601,-0.539 -2.0195,-1.937 -2.2695,-3.598 1.3672,-0.679 1.3672,-0.679 3.5977,-0.679 6.9531,2.297 41.8012,13.386 32.9802,-3.024 -14.9802,-2.808 -14.9802,-2.808 -15.4099,-3.277 -3.918,-1.551 -7.8086,-3.133 -11.6993,-4.723 0,-0.289 0,-0.578 0,-0.898 -2.3398,-0.539 -2.2695,-1.442 -2.3789,-3.711 8.418,-3.238 20.3401,3.82 28.1171,-1.117 -0.578,-12.203 -1.328,-9.543 -14.0389,-12.063 -5.7578,-2.738 -11.5196,-7.379 -17.5703,-8.781"
         style="fill:#ffffff;fill-opacity:1;fill-rule:evenodd;stroke:none"
         id="path126" /><path
         d="m 212.172,248.957 c -3.383,0.328 -6.774,0.609 -10.121,0.898 1.078,3.383 2.738,7.52 4.609,10.481 9.43,0.223 23.149,1.152 31.719,-3.598 0.109,-2.23 -0.5,-2.883 -1.801,-4.75 -4.387,-0.179 -8.777,-0.363 -13.137,-0.543 -6.3,-1.797 -6.3,-1.797 -11.269,-2.488"
         style="fill:#ffffff;fill-opacity:1;fill-rule:evenodd;stroke:none"
         id="path128" /><path
         d="m 138.359,251.656 c -1.757,3.129 -9.359,0.969 -12.597,1.332 -0.293,2.297 -1.371,3.559 -2.59,5.539 -1.551,0.11 -3.102,0.219 -4.613,0.321 0,1.66 0,3.308 0,4.929 2.23,-0.902 7.269,-2.589 7.992,-5.039 1.551,0 3.129,0 4.719,0 0.941,-2.562 3.96,-5.8 6.769,-3.172 0.18,2.02 0.359,4 0.539,5.981 2.883,4.359 1.402,5.621 1.91,10.48 1.731,0.719 2.41,1.039 3.492,2.559 2.02,-5.219 1.692,-8.961 1.579,-14.617 -4.387,-2.203 -4.321,-3.461 -4.93,-8.321 -0.758,0 -1.508,0 -2.27,0"
         style="fill:#ffffff;fill-opacity:1;fill-rule:evenodd;stroke:none"
         id="path130" /><path
         d="m 194.172,251.656 c -0.613,0.321 -1.223,0.61 -1.801,0.903 -0.141,5.148 -0.109,7.379 -2.59,11.808 -1.691,-0.039 -3.383,-0.07 -5.043,-0.109 -0.066,2.449 0.723,8.93 -1.148,10.801 -0.11,0.937 -0.219,1.867 -0.328,2.808 1.687,0.61 2.66,0.789 3.597,2.27 1.942,0.109 2.161,-0.11 3.711,-1.262 1.469,-0.137 2.989,-0.289 4.5,-0.43 1.578,-2.16 1.551,-2.449 1.371,-5.179 -0.332,0 -0.613,0 -0.902,0 -0.219,-4.86 2.199,-9.828 -0.25,-14.18 0.539,-2.34 0.973,-4 1.152,-6.52 -0.761,-0.289 -1.511,-0.578 -2.269,-0.898"
         style="fill:#ffffff;fill-opacity:1;fill-rule:evenodd;stroke:none"
         id="path132" /><path
         d="m 317.93,265.586 c -2.879,2.59 -3.559,3.102 -5.399,6.769 2.949,-2.089 5.797,-3.019 6.297,-6.769 -0.328,0 -0.609,0 -0.898,0"
         style="fill:#ffffff;fill-opacity:1;fill-rule:evenodd;stroke:none"
         id="path134" /><path
         d="m 224.328,266.957 c -3.598,1.121 -3.598,1.121 -5.867,2.488 -3.922,0.473 -7.813,0.903 -11.699,1.332 -1.981,3.27 -2.133,6.008 -1.801,9.899 8.598,-2.051 20.16,1.48 28.801,2.699 7.519,-0.25 6.41,0.473 6.508,-6.52 0.691,-2.019 1.152,-4.32 2.699,-5.867 -0.071,-0.652 -0.141,-1.332 -0.219,-2.019 -3.781,-2.524 -13.719,-1.692 -18.43,-2.024"
         style="fill:#ffffff;fill-opacity:1;fill-rule:evenodd;stroke:none"
         id="path136" /><path
         d="m 125.762,267.855 c 0,0.473 0,0.903 0,1.333 0.758,0.32 1.508,0.609 2.269,0.898 0,-0.578 0,-1.188 0,-1.801 -0.761,-0.137 -1.511,-0.289 -2.269,-0.43"
         style="fill:#ffffff;fill-opacity:1;fill-rule:evenodd;stroke:none"
         id="path138" /><path
         d="m 188.77,268.758 c -3.848,2.738 -3.309,3.777 -1.329,7.629 1.797,0.25 1.797,0.25 3.598,0 0.941,-2.629 1.402,-4.25 0.539,-6.84 -0.937,-0.25 -1.867,-0.5 -2.808,-0.789"
         style="fill:#000000;fill-opacity:1;fill-rule:evenodd;stroke:none"
         id="path140" /><path
         d="m 134.328,272.785 c -1.187,0.863 -2.34,1.731 -3.488,2.59 0.109,0.363 0.219,0.691 0.32,1.012 0.289,0 0.578,0 0.899,0 0.293,1.218 0.582,2.41 0.902,3.601 1.078,0.578 3.277,2.45 3.598,3.598 1.871,0.762 4.07,2.48 5.871,0.68 -1.008,-0.68 -1.442,-0.828 -1.801,-2.02 -0.328,-0.07 -0.609,-0.141 -0.899,-0.219 -0.32,-0.5 -0.609,-1.05 -0.902,-1.582 -3.019,-0.718 -1.406,-5.078 -0.137,-6.879 -1.222,-0.539 -1.222,-0.539 -4.363,-0.789"
         style="fill:#ffffff;fill-opacity:1;fill-rule:evenodd;stroke:none"
         id="path142" /><path
         d="m 316.129,279.988 c -2.199,2.34 -8.82,7.848 -9.469,10.797 -0.32,0 -0.609,0 -0.898,0 -0.141,0.613 -0.293,1.223 -0.434,1.801 -2.558,0.832 -2.34,4.609 -4.969,5.402 -0.039,0.719 -0.07,1.438 -0.109,2.16 1.91,-1.011 1.91,-1.011 9.578,-6.882 8.172,-4.61 8.242,-3.778 8.641,-12.918 -0.789,-0.11 -1.578,-0.223 -2.34,-0.36"
         style="fill:#ffffff;fill-opacity:1;fill-rule:evenodd;stroke:none"
         id="path144" /><path
         d="m 275.172,289.887 c -0.113,0.359 -0.223,0.718 -0.332,1.051 -0.5,0.109 -1.012,0.218 -1.469,0.32 -0.141,0.609 -0.293,1.219 -0.43,1.801 -0.472,0 -0.941,0 -1.371,0 -0.14,0.609 -0.289,1.218 -0.429,1.796 -4.321,0.68 -3.282,3.282 -2.95,6.731 0.68,-1.188 2.161,-3.059 3.489,-3.461 0.25,-0.648 0.5,-1.297 0.789,-1.937 2.09,-0.68 3.922,-3.743 3.711,-5.942 -0.36,-0.109 -0.68,-0.219 -1.008,-0.359"
         style="fill:#ffffff;fill-opacity:1;fill-rule:evenodd;stroke:none"
         id="path146" /><path
         d="m 107.762,291.688 c 0,0.328 0,0.609 0,0.898 0.289,0 0.578,0 0.898,0 0,0.32 0,0.609 0,0.902 1.192,0.469 2.379,0.938 3.602,1.367 -0.114,0.5 -0.223,1.012 -0.321,1.481 -2.132,0.75 -3.781,0.223 -5.652,1.551 -0.109,2.34 1.152,3.351 1.473,5.511 1.297,0.43 1.258,1.04 1.797,2.27 0.332,0.109 0.652,0.219 1.011,0.32 0.828,2.489 7.059,6.117 9.789,6.41 0,0.899 0,0.899 0.469,0.899 -0.289,-4.609 -2.808,-8.422 -3.598,-13.031 -0.332,0 -0.609,0 -0.902,0 -1.148,-3.098 -3.129,-3.641 -1.148,-6.981 -1.981,-1.578 -4.93,-1.297 -7.418,-1.578"
         style="fill:#ffffff;fill-opacity:1;fill-rule:evenodd;stroke:none"
         id="path148" /><path
         d="m 142.43,293.059 c -0.18,0.468 -0.328,0.898 -0.469,1.328 0.289,0 0.578,0 0.898,0 0,0.32 0,0.609 0,0.898 9.5,0.863 18.86,3.383 28.371,3.383 9.43,-1.801 9.43,-1.801 17.641,-2.813 0.109,-0.937 0.219,-1.867 0.359,-2.808 -3.308,0.07 -6.949,-0.43 -9.902,1.121 -12.168,1.578 -24.656,1.008 -36.898,-1.121"
         style="fill:#ffffff;fill-opacity:1;fill-rule:evenodd;stroke:none"
         id="path150" /><path
         d="m 316.129,295.758 c -1.078,0.469 -2.117,0.898 -3.168,1.328 -0.43,1.371 -1.41,1.371 -1.801,2.699 -2.129,0.5 -4.719,1.301 -5.398,3.602 -0.653,0.289 -1.301,0.539 -1.91,0.789 -0.5,1.512 -3.782,4.609 -5.293,5.082 -0.829,2.699 -2.45,6.258 -5.399,7.199 -0.07,0.469 -0.14,0.898 -0.219,1.328 -4.179,4.863 -4.07,12.641 -11.019,12.172 -0.184,-3.988 0.609,-6.051 1.328,-9.898 -0.359,0.109 -0.68,0.218 -1.012,0.316 -0.109,0.363 -0.218,0.691 -0.316,1.012 -1.332,0.429 -1.301,0.968 -1.801,2.269 -1.402,0.469 -2.949,2.52 -2.949,4.032 6.078,3.82 3.598,9 2.269,15.3 0.36,8.457 -1.082,19.078 1.118,27 5.07,0.61 9.75,1.149 14.871,1.149 3.601,-1.801 4.5,-2.699 5.398,-2.949 0.141,-0.583 0.293,-1.192 0.434,-1.801 0.316,-0.11 0.648,-0.219 1.008,-0.321 0.39,-0.941 0.832,-1.871 1.261,-2.808 2.16,-0.723 2.34,-3.199 4.5,-4.07 0.649,-3.961 5.649,-3.821 8.641,-5.719 0.066,-1.582 -0.543,-3.063 0.219,-4.293 -3.282,-0.469 -3.102,-0.61 -3.461,-3.918 4.82,-1.442 4.25,-4.07 4.25,-9 -0.43,-1.801 -0.43,-1.801 -1.008,-2.121 -2.703,2.41 -4.902,4.679 -7.094,7.519 -1.047,3.711 -0.898,4.75 -4.816,4.61 -0.184,-5.539 3.668,-7.418 5.508,-12.278 0.289,0 0.582,0 0.902,0 0.5,-0.722 1.039,-1.48 1.578,-2.23 5.078,-3.891 5.98,-5.582 4.719,-11.699 -2.27,0.179 -4.68,0.648 -5.399,3.129 -4,1.328 -8.242,11.839 -10.8,15.078 -0.829,0.32 -1.661,0.609 -2.481,0.902 -0.328,-0.5 -0.609,-1.051 -0.898,-1.582 1.687,-5.828 4.25,-10.66 7.89,-15.52 3.598,-2.699 7.199,-5.398 10.797,-8.097 1.66,-2.344 1.192,-3.821 0.113,-6.41 -5.011,2.089 -12.382,6.949 -15.3,11.699 -6.051,3.629 -2.7,14.98 -10.911,14.98 -2.949,-2.953 2.481,-13.179 3.598,-16.453 0.434,0 0.902,0 1.371,0 0.25,-0.758 0.5,-1.547 0.75,-2.34 0.332,-0.109 0.692,-0.218 1.051,-0.359 1.66,-5 14,-10.398 19.328,-12.348 1.152,-2.23 3.063,-6.191 -0.43,-6.98"
         style="fill:#ffffff;fill-opacity:1;fill-rule:evenodd;stroke:none"
         id="path152" /><path
         d="m 125.762,297.988 c -0.653,0.289 -1.301,0.539 -1.91,0.789 -0.18,4.75 2.738,8.891 3.707,13.61 0.293,0 0.582,0 0.902,0 0.219,4.609 -0.859,6.621 -3.492,10.48 -1.149,0 -2.27,0 -3.379,0 -4.57,-7.89 -22.6095,-11.851 -22.6095,0.789 1.4415,3.422 3.7385,6.192 6.9805,7.879 4.539,0.903 4.68,0.363 5.867,4.25 2.594,1.301 4.211,1.153 7.203,1.153 1.399,-1.981 1.578,-3.629 1.328,-6.083 3.571,0 5.871,1.583 9.469,1.583 2.844,-1.731 4.211,-1.77 7.422,-1.583 4.461,5.583 11.52,6.481 18.219,6.981 8.57,-0.469 8.57,-0.469 9.472,-0.25 -0.14,0.5 -0.25,1.012 -0.363,1.48 -7.879,0.942 -14.398,2.52 -22.609,3.02 0.222,3.172 0.222,3.172 0.902,4.5 0.289,0 0.578,0 0.899,0 0.691,2.84 5.832,5.332 8.101,6.98 6.231,0.61 19.688,1.622 21.168,-6.519 -2.269,0.219 -4.5,1.121 -9.469,2.019 -2.41,-0.218 -4.82,-0.429 -7.199,-0.679 0,-0.43 0,-0.86 0,-1.328 8.391,-0.793 11.34,-2.231 18,-7.422 1.328,-0.692 2.699,-1.371 4.07,-2.051 2.231,-6.301 5.36,-12.738 12.598,-14.398 0.609,-1.153 0.609,-1.333 1.801,-1.801 0.469,-2.84 2.769,-5.649 4.25,-8.102 -1.469,-12.379 -10.442,-9.969 -20.449,-7.847 -10.731,3.89 -17.032,5.328 -27.692,1.109 -3.597,-2.809 -3.668,-3.379 -8.777,-3.379 -3.492,-2.301 -10.551,-3.742 -14.402,-5.18"
         style="fill:#ffffff;fill-opacity:1;fill-rule:evenodd;stroke:none"
         id="path154" /><path
         d="m 98.7617,302.059 c -1.1133,4.097 -1.4023,5.937 -0.1133,10.007 2.3396,0.11 3.8206,-0.648 5.9806,-1.48 0.473,-4.859 -3.57,-5.578 -5.8673,-8.527"
         style="fill:#ffffff;fill-opacity:1;fill-rule:evenodd;stroke:none"
         id="path156" /><path
         d="m 216.23,303.387 c -5.011,0.218 -11.16,-0.539 -15.449,2.16 -0.179,5.539 1.438,6.73 5.981,9.32 -1.41,0.649 -2.813,1.301 -4.184,1.91 -0.109,0.36 -0.219,0.692 -0.316,1.008 -0.321,0 -0.614,0 -0.903,0 -2.129,6.231 -3.281,14.184 3.602,17.781 6.258,0 8.93,1.332 12.82,-3.378 0.469,-3.129 0.469,-3.129 0.25,-13.032 -1.691,0.039 -3.383,0.071 -5.082,0.11 -1.008,-1.77 -0.469,-3.278 0.11,-5.078 4.281,-2.45 4.613,-5.653 4.972,-10.333 -0.609,-0.136 -1.222,-0.289 -1.801,-0.468"
         style="fill:#ffffff;fill-opacity:1;fill-rule:evenodd;stroke:none"
         id="path158" /><path
         d="m 77.1602,306.988 c 0.1093,4.098 0.2187,8.207 0.3281,12.278 5.6211,2.812 8.7812,2.703 14.6523,0.472 -0.039,-3.492 -0.0703,-6.98 -0.1093,-10.48 -2.7032,-0.07 -5.4024,-0.141 -8.1016,-0.223 -2.3789,-1.148 -4.1406,-1.578 -6.7695,-2.047"
         style="fill:#ffffff;fill-opacity:1;fill-rule:evenodd;stroke:none"
         id="path160" /><path
         d="m 269.77,309.688 c -0.11,0.359 -0.219,0.718 -0.329,1.05 -0.363,0.11 -0.679,0.219 -1.011,0.321 0,0.316 0,0.609 0,0.898 0.582,0 1.191,0 1.8,0 0.141,-0.75 0.29,-1.512 0.43,-2.269 -0.32,0 -0.609,0 -0.898,0"
         style="fill:#ffffff;fill-opacity:1;fill-rule:evenodd;stroke:none"
         id="path162" /><path
         d="m 141.07,312.855 c -1.332,1.153 -1.91,1.403 -2.019,3.133 6.801,5.617 14.871,4.719 23.179,3.848 2.231,-0.898 2.989,-1.188 3.598,-3.379 -3.777,-0.07 -7.527,-0.141 -11.269,-0.219 -4.707,-1.66 -8.528,-3.172 -13.5,-3.383"
         style="fill:#000000;fill-opacity:1;fill-rule:evenodd;stroke:none"
         id="path164" /><path
         d="m 276.969,313.758 c -1.008,1.41 -1.981,2.269 -2.231,4.027 -0.359,0.141 -0.718,0.25 -1.039,0.363 -0.539,1.688 -0.539,1.688 -0.32,2.118 0.68,-0.68 0.68,-0.68 0.902,-1.578 0.43,0 0.899,0 1.367,0 0.653,-1.801 1.551,-2.7 2.024,-4.25 -0.25,-0.219 -0.473,-0.43 -0.684,-0.692"
         style="fill:#ffffff;fill-opacity:1;fill-rule:evenodd;stroke:none"
         id="path166" /><path
         d="m 37.5586,314.188 c -6.2969,2.05 -16.8086,5.468 -19.1094,12.597 -1.0781,1.801 -2.1289,3.602 -3.1679,5.403 -0.9024,3.597 -1.3321,7.667 -2.2305,10.371 -1.2227,1.976 -1.8399,3.207 -1.6914,5.507 7.8125,0.43 7.2422,-13.929 13.2812,-15.73 3.3086,-4.289 11.2696,-10.551 16.6289,-6.981 0.6094,3.711 1.2618,7.422 1.9102,11.122 -0.1406,9.609 -0.2891,19.218 -0.4297,28.8 -0.3594,0.578 -0.6797,1.149 -1.0117,1.692 -6.6602,0.25 -11.4883,-3.531 -17.3477,-6.301 -0.539,-1.621 -3.9218,-3.492 -5.4023,-2.02 0,0.829 0,1.661 0,2.489 9.4726,7.59 22.1836,13.57 33.8828,7.738 0.3594,-0.578 0.7187,-1.187 1.1172,-1.797 -0.7188,-11.769 -1.7969,-23.543 -1.7969,-35.32 0.6797,-2.84 1.3281,-5.403 0.3594,-8.211 -0.3594,-0.109 -0.6914,-0.219 -1.0117,-0.359 -0.6485,-2.02 -4.9297,-3.102 -6.8789,-3.922 -1.0118,-2.809 -1.0118,-2.809 -2.4805,-4.719 -1.5508,-0.109 -3.1016,-0.219 -4.6094,-0.359"
         style="fill:#000000;fill-opacity:1;fill-rule:evenodd;stroke:none"
         id="path168" /><path
         d="m 138.828,319.586 c -1.117,0.723 -2.199,1.441 -3.277,2.16 0.039,1.621 0.07,3.242 0.109,4.82 7.199,5.18 16.629,4.071 25.199,4.071 4.071,-0.469 4.071,-0.469 5.082,-1.012 0,-0.5 0,-1.039 0,-1.578 -6.41,-2.481 -21.929,1.328 -23.082,-8.461 -1.371,0 -2.699,0 -4.031,0"
         style="fill:#000000;fill-opacity:1;fill-rule:evenodd;stroke:none"
         id="path170" /><path
         d="m 269.77,323.656 c -0.11,0.5 -0.219,1.012 -0.329,1.481 -0.5,0.109 -1.011,0.218 -1.472,0.32 0,0.969 0,1.941 0,2.918 1.551,-2.02 2.019,-2.156 1.801,-4.719"
         style="fill:#ffffff;fill-opacity:1;fill-rule:evenodd;stroke:none"
         id="path172" /><path
         d="m 75.3594,325.457 c 0.1797,3.02 0.332,5.328 3.2812,7.09 0.1094,0.5 0.2188,0.969 0.3203,1.441 3.0586,1.008 1.5079,7.52 0.6875,9.899 -1.3671,2.129 -2.7382,4.211 -4.0703,6.301 -0.8984,5.578 -3.3086,13.39 -2.0195,18.898 0.293,0 0.582,0 0.9023,0 0,0.332 0,0.609 0,0.902 0.9375,0.137 1.8672,0.25 2.8086,0.36 2.1602,-4.821 6.1914,-6.121 10.8008,-8.321 0.5781,-4.64 0.5781,-4.64 1.1094,-5.652 0.9687,0 1.9414,0 2.9492,0 1.582,2.273 1.9805,5.543 3.0195,8.211 0.293,0 0.5821,0 0.9024,0 0.8984,1.801 1.8008,3.602 2.6992,5.402 3.172,1.117 3.281,4.969 6.301,5.649 0.828,1.441 0.828,1.468 2.379,1.91 0.109,0.359 0.218,0.68 0.32,1.012 8.82,3.738 12.02,5.757 21.172,3.379 5.976,0 5.828,2.378 7.629,7.847 0.289,0 0.578,0 0.898,0 0.43,1.801 1.762,3.242 2.27,5.403 1.121,-0.43 2.019,-1.333 4.5,-2.45 1.621,0 3.269,0 4.929,0 2.704,1.078 8.032,4.649 11.274,2.918 0,-2.558 0,-5.109 0,-7.668 -1.801,-1.121 -5.402,-2.023 -8.102,-3.601 0.18,-2.989 0.649,-3.922 -1.941,-5.719 -0.07,-1.941 0.402,-4.793 2.492,-5.402 0.109,-0.328 0.219,-0.649 0.359,-1.008 3.309,-1.012 4.86,-1.223 8.098,-0.473 -0.18,1.223 -0.316,2.41 -0.469,3.602 1.801,-0.071 3.602,-0.141 5.403,-0.219 0.25,0.359 0.5,0.68 0.789,1.008 -0.903,1.941 -2.949,2.769 -3.492,4.609 1.043,0.543 1.472,0.653 1.8,1.801 0.321,0.141 0.653,0.25 1.012,0.359 1.008,3.711 1.91,5.512 2.59,8.641 2.379,0.609 4.789,1.223 7.199,1.801 0,0.32 0,0.609 0,0.898 0.649,0.403 1.328,0.793 2.02,1.153 4.711,-2.813 1.66,-7.2 -1.692,-9.583 -0.109,-0.328 -0.218,-0.648 -0.316,-1.007 -0.363,-0.11 -0.692,-0.223 -1.012,-0.321 -0.109,-0.468 -0.219,-0.968 -0.32,-1.48 -2.199,-0.719 -2.379,-3.238 -4.5,-4.07 -0.32,-1.039 -0.61,-2.09 -0.899,-3.129 -0.363,-0.11 -0.722,-0.223 -1.05,-0.321 -0.25,-1.218 -0.5,-2.492 -0.75,-3.742 -0.332,0 -0.61,0 -0.903,0 -0.609,-2.519 -0.539,-3.347 -2.699,-4.719 -5.98,-0.468 -10.328,-0.648 -15.769,-3.128 -0.758,0.328 -1.508,0.609 -2.231,0.898 -8.609,12.062 -18.469,-7.129 -20.051,-14.648 -1.66,-2.993 -3.379,-4.391 -6.047,-6.52 -4.5,-0.902 -4.5,-0.902 -6.3,-1.801 -3.172,-0.14 -6.34,-0.289 -9.469,-0.429 -4.9728,-2.743 -7.2032,-4.18 -12.2736,-1.262 -1.0781,3.492 -2.6992,7.812 -6.1601,9.582 -1.1875,-7.02 -0.4297,-11.992 5.6211,-16.199 0.4297,-0.582 0.8594,-1.192 1.332,-1.801 -0.2226,-0.903 -0.4297,-1.801 -0.6523,-2.699 -4.8985,0.179 -10.1485,0.429 -13.9688,-3.383 -0.8984,-0.071 -1.8008,-0.141 -2.6992,-0.219"
         style="fill:#ffffff;fill-opacity:1;fill-rule:evenodd;stroke:none"
         id="path174" /><path
         d="m 197.328,341.188 c -0.609,0.179 -1.219,0.32 -1.797,0.468 0,0.321 0,0.61 0,0.903 -1.261,0.289 -1.941,1.046 -2.269,2.226 -0.321,0 -0.614,0 -0.903,0 -0.289,1.262 -1.05,1.942 -2.23,2.274 -1.149,1.796 -1.149,1.796 -2.949,6.296 -0.18,10.583 -1.578,22.211 -0.219,32.833 0.75,0 1.508,0 2.269,0 2.301,-7.672 13.68,-9.86 20.231,-12.352 9.141,-5.289 13.027,-12.57 13.969,-23.18 -0.328,0 -0.61,0 -0.899,0 -0.179,-0.578 -0.32,-1.187 -0.472,-1.801 -8.278,-2.519 -16.059,-6.91 -24.731,-7.667"
         style="fill:#ffffff;fill-opacity:1;fill-rule:evenodd;stroke:none"
         id="path176" /><path
         d="m 233.77,351.086 c -4.571,2.949 -4.649,13.82 -7.418,19.371 0.07,0.758 0.136,1.508 0.218,2.231 0.289,0 0.578,0 0.899,0 0,0.328 0,0.609 0,0.898 1.66,0.859 2.453,1.801 2.703,3.602 6.187,2.199 9,11.878 16.668,10.8 -1.149,-3.133 -3.379,-5.652 -4.5,-8.531 -0.32,0 -0.61,0 -0.899,0 -2.769,-9.469 -0.14,-12.309 3.348,-22.07 -0.5,-3.199 -7.988,-5.219 -11.019,-6.301"
         style="fill:#ffffff;fill-opacity:1;fill-rule:evenodd;stroke:none"
         id="path178" /><path
         d="m 316.57,357.855 c -3.351,3.641 -5.261,4.571 -5.082,9.793 5,-2.191 6.262,-4.21 5.981,-9.793 -0.321,0 -0.61,0 -0.899,0"
         style="fill:#ffffff;fill-opacity:1;fill-rule:evenodd;stroke:none"
         id="path180" /><path
         d="m 89.7617,370.457 c -2.1601,2.77 -7.5898,1.731 -10.8008,1.801 -0.75,7.957 -2.7695,14.289 -6.9804,21.129 -0.4297,5.871 -0.4297,5.871 -0.2188,7.199 1.0781,0.582 3.2774,2.449 3.5977,3.602 0.332,0.14 0.6523,0.25 1.0117,0.359 0.2187,1.148 0.4297,2.269 0.6797,3.379 1.0078,0.109 1.0078,0.109 15.8789,-3.488 5.2617,-2.161 12.0193,-4.61 17.6403,-3.493 0.578,2.34 0.578,2.34 0.36,3.243 -11.1214,6.8 -20.3792,11.519 -33.7698,13.277 -1.3321,0.473 -1.3321,0.473 -5.3985,0.902 0.6875,0.68 0.6875,0.68 0.8985,2.02 0.289,0 0.5781,0 0.8984,0 0,0.32 0,0.609 0,0.898 5.4727,2.301 6.8398,1.371 12.6016,-0.648 3.1289,0 6.3007,0 9.4687,0 5.3591,-2.129 9.6521,-5.11 14.6211,-7.891 8.781,-8.308 14.398,-14.398 16.879,-16.418 4.359,-2.34 4.82,-3.203 4.5,-7.883 -0.899,0 -1.801,0 -2.699,0 -1.91,5.723 -19.621,5.832 -24.301,8.321 -8.2774,0.472 -16.0196,0.832 -24.3009,0.222 -0.25,-1.121 -0.25,-1.121 0.4336,-3.133 8.9688,-3.378 19.0781,-2.738 27.5783,-7.089 0,-0.649 0,-1.328 0,-2.02 -5.11,-3.281 -12.1681,-6.41 -14.5119,-12.488 -1.0781,-0.36 -1.1484,-0.43 -1.6875,-1.481 -0.789,-0.109 -1.582,-0.218 -2.3789,-0.32"
         style="fill:#ffffff;fill-opacity:1;fill-rule:evenodd;stroke:none"
         id="path182" /><path
         d="m 316.129,372.258 c -1.188,1.039 -1.617,1.578 -3.168,1.801 -0.07,0.316 -0.141,0.609 -0.223,0.898 -1.508,0.859 -1.617,0.969 -2.019,2.699 -0.36,0.11 -0.719,0.219 -1.039,0.321 -3.129,5.582 -9.68,8.859 -11.559,15.41 -2.633,0.859 -2.48,4.75 -5.082,5.761 -0.109,0.5 -0.219,0.969 -0.32,1.438 -1.981,0.652 -3.598,3.383 -4.071,5.402 -0.32,0 -0.609,0 -0.898,0 -1.121,3.02 -2.199,3.739 -5.398,3.848 -2.661,-2.66 5.218,-12.527 6.296,-16.449 -0.32,0 -0.609,0 -0.898,0 -0.25,0.761 -0.469,1.511 -0.691,2.269 -0.137,-0.14 -0.289,-0.289 -0.43,-0.468 -0.68,0.679 -0.68,0.679 -1.117,2.269 -0.364,0.109 -0.723,0.219 -1.043,0.32 -0.789,1.801 -2.199,2.879 -2.559,4.61 -2.879,0.941 -4.75,5.801 -4.64,8.679 0.32,0.11 0.679,0.219 1.039,0.321 0.14,0.609 0.293,1.218 0.429,1.801 0.293,0 0.582,0 0.903,0 0.109,3.417 0.468,6.257 -0.68,9.468 -0.902,18.903 -0.902,18.903 -1.332,22.032 -0.469,0.468 -0.469,0.468 -0.359,3.281 0.32,0.109 0.679,0.219 1.039,0.316 0,0.332 0,0.613 0,0.903 5.832,-0.141 15.882,-0.36 20.23,-4.719 5.402,-1.481 7.422,-4.461 11.121,-8.641 0.969,0.399 1.942,0.758 2.949,1.117 0.11,0.5 0.219,0.973 0.332,1.442 0.61,0.289 1.258,0.539 1.911,0.789 1.976,-3.309 1.187,-5.789 0.359,-9.321 -0.902,0 -1.801,0 -2.699,0 -0.114,-0.578 -0.184,-1.187 -0.25,-1.796 1.476,-1.731 2.988,-3.461 4.5,-5.184 -0.071,-0.648 -0.141,-1.328 -0.223,-2.02 -2.879,0 -4.57,1.583 -7.629,1.583 -0.398,-0.5 -0.789,-1.051 -1.148,-1.583 1.328,-5.109 6.91,-5.98 9.468,-10.367 -0.07,-3.133 -0.14,-6.261 -0.218,-9.429 -7.133,2.699 -8.641,11.589 -14.653,15.519 -5.73,-2.519 4.969,-14.223 7.2,-16.89 7.703,-5.692 8.171,-5.512 7.882,-14.833 -5.152,1.551 -7.961,5.981 -10.8,10.333 -0.321,0 -0.61,0 -0.903,0 -3.379,6.769 -3.379,6.769 -4.027,9 -1.691,0.539 -1.66,2.019 -2.27,3.597 -0.32,0 -0.613,0 -0.902,0 -0.687,1.801 -0.687,1.801 -2.129,3.742 -1.301,0 -2.59,0 -3.851,0 -0.028,-1.082 -0.071,-2.16 -0.11,-3.281 5.039,-9.359 10.481,-16.019 16.313,-23.98 0.328,-0.11 0.687,-0.219 1.047,-0.328 0.113,-0.321 0.222,-0.653 0.32,-1.012 0.5,-0.219 1.043,-0.43 1.582,-0.68 0.109,-0.328 0.219,-0.648 0.32,-1.008 5.11,-1.941 5.617,-3.711 5.508,-8.679 -0.5,-0.114 -0.969,-0.223 -1.437,-0.321"
         style="fill:#ffffff;fill-opacity:1;fill-rule:evenodd;stroke:none"
         id="path184" /><path
         d="m 269.77,375.855 c -0.141,0.903 -0.29,1.801 -0.43,2.704 -0.469,0 -0.942,0 -1.371,0 0,0.757 0,1.507 0,2.226 0.472,0 0.472,0 0.902,-1.797 0.43,0 0.899,0 1.367,0 0,-1.043 0,-2.09 0,-3.133 -0.179,0 -0.328,0 -0.468,0"
         style="fill:#ffffff;fill-opacity:1;fill-rule:evenodd;stroke:none"
         id="path186" /><path
         d="m 216.23,379.457 c -2.269,2.918 -13.101,5.981 -17.101,7.199 -1.481,4.102 -5.938,7.699 -6.981,12.129 0,14.403 0,14.403 0.43,16.203 1.981,4.18 4.102,8.098 5.184,12.598 0.289,0 0.578,0 0.898,0 0.289,1.223 0.578,2.41 0.899,3.602 2.382,0.789 2.453,5.148 2.382,7.339 -3.062,1.621 -4.652,0.321 -8.211,-0.14 -1.98,-4.25 -3.671,-7.809 -4.5,-12.602 -0.789,-0.039 -1.582,-0.07 -2.378,-0.109 -1.301,1.73 -3.172,5.359 -5.293,5.98 -0.688,4.141 -5.539,2.77 -8.68,3.922 -1.481,4.32 -3.199,7.09 -7.957,4.61 -0.32,-1.622 -0.613,-3.282 -0.902,-4.93 -5.54,-0.43 -10.801,1.437 -16.2,-0.223 -1.371,0.07 -2.742,0.141 -4.07,0.223 -0.25,2.558 -1.512,4.25 -2.23,6.73 6.48,-0.25 12.058,1.938 18.429,3.379 2.563,0.071 5.11,0.141 7.672,0.219 0.5,-1.508 1.801,-1.621 2.231,-3.129 0.289,-0.07 0.578,-0.141 0.898,-0.219 0.289,-0.5 0.578,-1.05 0.898,-1.582 2.09,-0.07 4.18,-0.14 6.301,-0.218 7.199,2.16 14.723,5.109 22.281,4.71 7.809,-5.511 21.821,1.579 30.821,1.579 1.578,-0.68 3.379,-2.481 5.871,-4.071 3.129,-0.898 3.129,-0.898 9.43,-1.578 0.75,-3.89 -1.731,-7.922 -3.383,-11.23 -2.66,4.097 -3.668,3.668 -7.848,1.578 -1.191,-2.09 -3.562,-2.738 -4.07,-5.18 -0.321,-0.07 -0.61,-0.141 -0.903,-0.219 -0.859,-1.55 -1.007,-1.55 -2.699,-2.05 -0.5,-1.512 -1.801,-1.622 -2.23,-3.129 -0.328,-0.071 -0.61,-0.141 -0.899,-0.223 -0.32,-0.5 -0.609,-1.047 -0.898,-1.578 -4.434,-1.082 -5.652,-10.582 -8.102,-14.399 -0.32,0 -0.609,0 -0.898,0 0,-0.293 0,-0.582 0,-0.902 -0.332,0 -0.613,0 -0.902,0 0,-0.289 0,-0.578 0,-0.898 -0.321,0 -0.61,0 -0.899,0 -0.18,-0.5 -0.332,-1.039 -0.473,-1.582 -0.289,3.531 0.973,5.043 1.801,8.32 2.09,0.68 6.481,12.062 7.199,14.402 0.293,0 0.582,0 0.903,0 1.328,4.5 7.988,11.45 5.98,16.34 -2.742,0.11 -4.14,-0.25 -4.609,-3.281 -0.332,0 -0.613,0 -0.902,0 -5.758,-11.449 -10.399,-22.641 -14.649,-34.672 0,-3.488 1.367,-5.148 1.149,-8.527 -0.329,0 -0.61,0 -0.899,0 -0.68,-2.27 -0.68,-2.27 -0.902,-7.2 1.66,-0.113 2.59,-0.222 4.14,0.317 0.11,0.363 0.219,0.691 0.36,1.012 3.281,0.761 6.16,6.41 7.633,9 2.519,0.832 3.418,4.789 3.597,7.199 2.551,0.832 2.949,6.191 6.301,7.199 0.25,0.652 0.5,1.301 0.789,1.941 0.332,0.11 0.652,0.219 1.012,0.321 0.859,3.558 7.379,5.621 8.097,10.328 0.293,0 0.582,0 0.903,0 0.179,-9.789 1.008,-15.52 5.179,-24.297 0,-0.582 0,-1.191 0,-1.801 -1.48,-1.469 -2.48,-2.121 -4.39,-3.019 -0.11,-0.332 -0.219,-0.653 -0.32,-1.012 -0.79,-0.25 -1.579,-0.5 -2.379,-0.789 -0.11,-0.332 -0.219,-0.649 -0.321,-1.012 -2.23,-0.359 -6.121,-3.238 -6.769,-5.398 -0.473,-0.071 -0.903,-0.141 -1.332,-0.219 -0.321,-0.5 -0.61,-1.051 -0.899,-1.582 -4.32,-0.719 -7.492,-5 -12.601,-5.398"
         style="fill:#ffffff;fill-opacity:1;fill-rule:evenodd;stroke:none"
         id="path188" /><path
         d="m 136.559,380.355 c -0.321,0.141 -0.61,0.293 -0.899,0.43 -0.14,1.371 -0.289,2.742 -0.43,4.07 2.551,0.223 3.379,1.192 5.508,-0.32 0.032,-0.937 0.071,-1.867 0.114,-2.847 -1.582,-1.11 -2.34,-1.192 -4.293,-1.333"
         style="fill:#000000;fill-opacity:1;fill-rule:evenodd;stroke:none"
         id="path190" /><path
         d="m 275.172,380.355 c -0.332,0.583 -0.332,0.583 -1.801,0.903 -2.019,4.027 -2.019,4.027 -2.23,5.398 -0.36,0.11 -0.719,0.219 -1.039,0.321 -0.43,0.941 -0.832,1.871 -1.223,2.808 -0.32,0 -0.609,0 -0.899,0 -0.359,1.692 -0.691,3.383 -1.011,5.082 0.472,0.11 0.972,0.219 1.48,0.321 0.141,-0.583 0.289,-1.192 0.43,-1.801 2.199,-0.719 2.949,-2.949 3.601,-4.93 2.301,-0.762 4.641,-5.762 5.399,-8.102 -0.899,0 -1.801,0 -2.699,0"
         style="fill:#ffffff;fill-opacity:1;fill-rule:evenodd;stroke:none"
         id="path192" /><path
         d="m 289.129,380.785 c -1.039,0.582 -1.481,0.653 -1.801,1.801 -3.308,0.762 -3.738,4.973 -6.769,5.871 -0.11,0.5 -0.219,1.012 -0.329,1.481 -2.48,0.828 -9.468,12.417 -10.8,16.199 -2.27,1.332 -3.059,3.172 -3.27,5.718 0.789,0.043 1.578,0.071 2.379,0.114 1.012,-1.332 1.871,-2.051 2.121,-3.711 1.762,-0.582 5.149,-5.36 5.399,-7.199 1.871,-0.614 4.32,-6.84 5.179,-8.571 8.102,-10.332 8.102,-10.332 8.782,-11.703 -0.329,0 -0.61,0 -0.899,0"
         style="fill:#ffffff;fill-opacity:1;fill-rule:evenodd;stroke:none"
         id="path194" /><path
         d="m 145.559,396.988 c -0.75,0.18 -1.508,0.321 -2.231,0.469 0,0.469 0,0.898 0,1.328 5.402,0.25 5.402,0.25 6.301,0 0,-0.43 0,-0.859 0,-1.328 -1.367,-0.141 -2.738,-0.289 -4.07,-0.469"
         style="fill:#ffffff;fill-opacity:1;fill-rule:evenodd;stroke:none"
         id="path196" /><path
         d="m 168.969,397.457 c 0.109,0.859 0.222,1.731 0.32,2.59 0.68,-0.359 1.371,-0.719 2.051,-1.109 0.109,-0.473 0.219,-0.973 0.32,-1.481 -0.898,0 -1.801,0 -2.699,0"
         style="fill:#ffffff;fill-opacity:1;fill-rule:evenodd;stroke:none"
         id="path198" /><path
         d="m 127.559,404.656 c -0.68,2.199 -5.258,6.949 -7.2,8.102 -1.871,2.629 -3.738,5.801 -7.199,6.301 -0.719,2.16 -3.82,2.988 -5.832,3.597 0,0.321 0,0.61 0,0.903 -1.078,0.328 -2.117,0.609 -3.168,0.898 -2.23,6.77 -19.6209,4.641 -24.7303,5.621 -3.3789,2.481 -3.3789,2.481 -5.5391,4.61 0,0.828 0,1.66 0,2.48 2.3789,1.008 2.3789,1.008 7.7813,1.91 2.0898,0.969 4.1797,1.938 6.2969,2.918 0,0.32 0,0.609 0,0.902 3.6015,1.579 3.6015,1.579 4.2929,2.27 8.7073,2.52 11.5193,4.68 19.5783,-0.68 5.43,-0.941 8.93,-1.121 13.93,1.367 4.07,0.903 4.07,0.903 8.57,1.333 3.129,-1.801 3.129,-1.801 6.301,-4.5 -1.371,-0.141 -2.743,-0.29 -4.071,-0.43 -2.09,-4 0.219,-9.223 0.11,-13.86 -1.078,-0.39 -2.16,-0.793 -3.239,-1.222 0,-0.289 0,-0.578 0,-0.899 -0.332,-0.07 -0.613,-0.14 -0.902,-0.218 -0.32,-0.5 -0.609,-1.051 -0.898,-1.582 -0.903,0 -1.801,0 -2.7,0 0,0.32 0,0.609 0,0.898 -0.972,0.434 -1.91,0.832 -2.839,1.223 -0.364,1.121 -7.852,6.66 -9.332,6.879 -0.071,0.32 -0.141,0.609 -0.219,0.898 -1.871,1.082 -2.52,2.344 -3.711,4.184 -1.371,0.968 -3.238,1.796 -3.711,3.457 -3.82,1.441 -5.149,1.98 -9,0 0.652,-2.7 1.691,-4.36 3.133,-6.731 0.289,-0.066 0.578,-0.137 0.898,-0.219 1.942,-3.378 7.918,-7.961 11.379,-9.578 0.68,-2.09 4.641,-3.601 6.051,-6.09 6.59,-4.25 7.629,-4.07 8.68,-11.589 -0.5,-0.114 -1.008,-0.223 -1.481,-0.321 -0.43,-0.941 -0.828,-1.871 -1.219,-2.812"
         style="fill:#ffffff;fill-opacity:1;fill-rule:evenodd;stroke:none"
         id="path200" /><path
         d="m 156.359,406.457 c -0.109,0.359 -0.218,0.68 -0.32,1.008 -4.18,1.621 -9.609,0.941 -14.078,0.793 1.367,10.301 2.769,8.5 11.699,6.519 3.059,-2.16 4.211,-3.129 8.102,-3.129 0.289,0.54 0.578,1.04 0.898,1.547 0.289,0 0.578,0 0.899,0 0.07,0.321 0.14,0.614 0.222,0.903 0.5,0.328 1.039,0.609 1.578,0.898 0,0.469 0,0.942 0,1.371 2.161,0.86 3.532,1.192 5.871,1.328 1.329,-3.738 3.891,-4.929 3.711,-9.109 -3.281,-0.141 -10.73,0.539 -13.179,-1.91 -1.801,-0.071 -3.602,-0.141 -5.403,-0.219"
         style="fill:#ffffff;fill-opacity:1;fill-rule:evenodd;stroke:none"
         id="path202" /><path
         d="m 136.559,410.488 c -0.68,1.367 -0.68,1.367 -0.68,3.598 0.223,0.25 0.43,0.473 0.68,0.691 0.613,-0.332 1.261,-0.652 1.91,-1.011 0,-0.969 0,-1.938 0,-2.918 -0.649,-0.11 -1.297,-0.223 -1.91,-0.36"
         style="fill:#ffffff;fill-opacity:1;fill-rule:evenodd;stroke:none"
         id="path204" /><path
         d="m 267.969,424.887 c -1.77,1.48 -1.578,2.16 -1.797,4.5 2.09,-0.828 3.527,-2.27 1.797,-4.5"
         style="fill:#ffffff;fill-opacity:1;fill-rule:evenodd;stroke:none"
         id="path206" /><path
         d="m 267.969,436.156 c -0.61,0.332 -1.219,0.61 -1.797,0.903 0.066,1.66 0.137,3.308 0.219,4.929 0.718,-0.543 1.437,-1.082 2.16,-1.66 0.027,-1.223 0.07,-2.492 0.109,-3.742 -0.25,-0.141 -0.469,-0.289 -0.68,-0.43"
         style="fill:#ffffff;fill-opacity:1;fill-rule:evenodd;stroke:none"
         id="path208" /><path
         d="m 314.77,449.188 c -5.731,4.859 -14.622,14.148 -14.622,22.07 4.032,-4.031 9.364,-7.813 15.09,-9.903 0.614,-2.949 1.942,-10.437 -0.468,-12.167"
         style="fill:#ffffff;fill-opacity:1;fill-rule:evenodd;stroke:none"
         id="path210" /><path
         d="m 267.969,449.656 c -0.649,2.16 -1.578,3.129 -1.797,5.403 0.75,0 1.508,0 2.269,0 0.649,-2.274 1.547,-3.602 1.797,-5.403 -0.758,0 -1.508,0 -2.269,0"
         style="fill:#ffffff;fill-opacity:1;fill-rule:evenodd;stroke:none"
         id="path212" /><path
         d="m 296.328,458.188 c -3.527,1.148 -7.777,9.898 -9.359,12.738 -1.117,0.652 -1.117,0.652 -2.117,2.121 0.218,1.219 0.5,1.328 1.437,2.121 2.84,-1.082 3.352,-3.352 4.18,-6.191 2.66,-0.86 2.121,-5 4.972,-5.829 0.649,-2.703 1.329,-3.382 1.797,-4.972 -0.328,0 -0.609,0 -0.898,0"
         style="fill:#ffffff;fill-opacity:1;fill-rule:evenodd;stroke:none"
         id="path214" /><path
         d="m 314.77,466.758 c -9.219,4.43 -13.61,12.777 -13.032,22.5 3.383,-1.481 5.832,-4.461 8.532,-6.981 1.66,-0.652 3.308,-1.332 4.968,-2.019 0.614,-3.461 1.582,-10.871 -0.468,-13.5"
         style="fill:#ffffff;fill-opacity:1;fill-rule:evenodd;stroke:none"
         id="path216" /><path
         d="m 57.8281,468.988 c -0.3281,0.18 -0.6093,0.321 -0.8984,0.469 -1.9414,8.93 1.9414,14.828 3.9219,22.609 0.3281,0.11 0.6484,0.219 1.0078,0.321 0.1406,0.761 0.289,1.511 0.4687,2.269 0.293,0 0.5821,0 0.9024,0 0.2187,0.903 0.4297,1.801 0.6484,2.699 2.1211,1.192 1.9414,2.59 4.3906,3.93 0.5821,-0.789 0.5821,-0.789 0.5821,-1.687 -4.9727,-9 -5.4024,-10.801 -6.3008,-12.129 -0.25,-2.383 -0.4727,-4.793 -0.6797,-7.203 10.7578,-1.039 21.668,-0.36 32.5078,-0.11 -0.1094,2.301 -0.2187,4.571 -0.3203,6.84 -1.7305,3.602 -3.457,7.199 -5.1797,10.801 -2.1992,1.191 -3.1289,3.308 -4.5,5.398 -0.3203,0 -0.6094,0 -0.8984,0 -0.5,2.16 -1.5821,2.274 -1.5821,4.973 3.9219,3.93 11.2305,-6.012 13.2813,-8.781 7.1293,-4.5 8.4223,-7.961 10.5823,-15.981 0,-9.359 1.117,-10.008 -7.8831,-11.449 -12.5586,-3.988 -26.8906,-2.519 -40.0273,-2.949"
         style="fill:#000000;fill-opacity:1;fill-rule:evenodd;stroke:none"
         id="path218" /><path
         d="m 217.57,469.457 c -4.609,3.852 -2.992,8.75 -2.019,13.93 0.539,0.359 0.539,0.359 1.578,0 0.43,-1.039 0.859,-2.09 1.332,-3.129 0.758,-0.223 1.508,-0.43 2.269,-0.68 2.559,0.027 22.86,-1.441 27.54,1.91 0.14,8.168 -3.532,15.297 -5.731,23.071 0.039,1.117 0.07,2.199 0.109,3.277 2.954,0.223 7.422,-3.348 8.211,-5.981 0.289,-0.07 0.582,-0.14 0.903,-0.218 0.289,-0.5 0.578,-1.051 0.898,-1.578 7.668,-1.911 9.578,-24.262 5.981,-28.911 -3.313,-1.66 -4.461,-1.66 -8.211,-0.582 -10.981,0 -21.891,-0.898 -32.871,-1.121"
         style="fill:#000000;fill-opacity:1;fill-rule:evenodd;stroke:none"
         id="path220" /><path
         d="m 137.93,494.656 c -0.578,-4.75 -2.95,-8.929 -2.95,-13.5 1.301,-1.301 6.411,-0.679 8.348,-0.679 9.363,1.371 18.902,0.761 28.332,1.582 0.25,5.218 -0.832,9.398 -2.48,14.398 -1.981,2.738 -7.989,8.32 -6.95,12.129 2.95,0.402 7.668,-2.051 8.532,-4.93 0.289,-0.07 0.578,-0.14 0.898,-0.218 0.289,-0.5 0.578,-1.051 0.899,-1.583 8.242,-1.367 14.472,-22.359 13.5,-28.796 -3.239,-0.582 -5.219,-0.434 -8.528,0.218 -14.832,-0.832 -28.91,-1.91 -43.672,-0.218 -0.07,0.316 -0.14,0.609 -0.218,0.898 -0.539,0.328 -1.082,0.609 -1.582,0.898 -0.68,4.5 -0.68,4.5 -1.118,5.403 0.969,5.18 2.047,11.59 6.981,14.398"
         style="fill:#000000;fill-opacity:1;fill-rule:evenodd;stroke:none"
         id="path222" /><path
         d="m 313.43,487.887 c -1.91,2.519 -3.782,3.422 -4.071,6.769 2.379,0.219 3.313,-0.218 5.512,-1.218 0.109,-1.84 0.219,-3.672 0.359,-5.54 -0.609,0 -1.218,0 -1.8,0"
         style="fill:#ffffff;fill-opacity:1;fill-rule:evenodd;stroke:none"
         id="path224" /><path
         d="m 137.93,494.656 c 0.14,1.039 0.289,2.09 0.429,3.129 0.539,-0.109 1.121,-0.219 1.692,-0.316 -1.012,-2.813 -1.012,-2.813 -1.473,-3.281 -0.219,0.179 -0.43,0.32 -0.648,0.468"
         style="fill:#949494;fill-opacity:1;fill-rule:evenodd;stroke:none"
         id="path226" /></g></g></svg>
