<?xml version="1.0" encoding="UTF-8" standalone="no"?>
<!-- Created with Inkscape (http://www.inkscape.org/) -->

<svg
   version="1.1"
   id="svg2"
   xml:space="preserve"
   width="26.693333"
   height="24.373333"
   viewBox="0 0 26.693333 24.373333"
   sodipodi:docname="Unofficial.ChaosSorcerer_EU.eps"
   xmlns:inkscape="http://www.inkscape.org/namespaces/inkscape"
   xmlns:sodipodi="http://sodipodi.sourceforge.net/DTD/sodipodi-0.dtd"
   xmlns="http://www.w3.org/2000/svg"
   xmlns:svg="http://www.w3.org/2000/svg"><defs
     id="defs6" /><sodipodi:namedview
     id="namedview4"
     pagecolor="#ffffff"
     bordercolor="#666666"
     borderopacity="1.0"
     inkscape:pageshadow="2"
     inkscape:pageopacity="0.0"
     inkscape:pagecheckerboard="0" /><g
     id="g8"
     inkscape:groupmode="layer"
     inkscape:label="ink_ext_XXXXXX"
     transform="matrix(1.3333333,0,0,-1.3333333,0,24.373333)"><g
       id="g10"
       transform="scale(0.1)"><path
         d="M 80.5742,22.875 C 0.09375,60.7148 26.8438,182.707 116.234,182.707 c 46.34,0 83.918,-37.57 83.918,-83.8828 0,-33.1875 -21.347,-67.6094 -53.839,-77.4492 -2.668,-1.8711 3.519,-15.05078 -24.04,-20.32031 -5.05,-0.96094 -17.941,-0.300784 -22.441,2.49219 -1.707,1.72656 -3.4492,2.07031 -5.8203,2.07031 -3.2383,2.77734 -8.789,7.59761 -8.789,12.87891 -0.1211,0.9492 -3.8985,2.8281 -4.6602,4.3711"
         style="fill:#000000;fill-opacity:1;fill-rule:evenodd;stroke:none"
         id="path12" /><path
         d="m 173.344,92.0039 -15.371,11.2231 c 0.89,8.839 11.289,34.867 -0.41,39.878 0,2.391 -11.219,10.661 -11.641,11.231 -0.41,0.82 -0.41,1.25 -0.41,1.66 l 16.621,-2.082 c 0,-2.488 7.89,-3.32 7.89,-6.641 2.079,0 9.141,-14.128 10.379,-16.617 1.68,0 0.43,-4.992 2.09,-4.992 0,-5.379 3.801,-5.18 1.25,-14.129 -0.418,0 -0.418,0 -0.418,0 -2,-5 -5.5,-17.2889 -9.961,-19.5194 z M 114.754,4.34375 c 0,0.41016 0,0.41016 0,0.41016 -16.1212,2.29297 -5.75,1.5625 -13.289,3.32031 -9.5705,2.23048 -12.883,6.78128 -12.883,17.04298 4.3203,0 8.6016,0.0391 12.063,-3.3203 0,-5.043 4.238,-4.1602 7.468,-4.1602 0.41,1.25 1.239,2.0781 2.078,2.9102 0,0.8281 0,1.6601 0,2.4883 0.422,0 1.25,0 2.082,0 2.079,-3.3204 2.079,-5.3985 6.231,-5.3985 3.789,3.8867 3.578,8.3086 9.969,8.3086 2.07,-4.1719 3.07,-8.6601 8.718,-6.2305 0,1.25 0,4.1602 1.684,4.1602 0,3.3086 1.66,1.2422 2.477,2.0703 l 1.242,-10.3906 c -0.821,-0.4102 -1.242,-1.25 -1.66,-2.0703 -1.411,0 -11.93,-7.71877 -19.11,-8.73049 -2.5,0 -4.98,0 -7.07,-0.41016 z m 12.051,32.41015 c -1.242,0.4102 -2.481,0.832 -3.742,1.2422 -0.829,2.0781 -1.239,3.7383 -1.649,5.4102 -4.172,1.3789 -5.332,-1.2891 -6.66,-4.5704 -0.402,0.4102 -0.402,0.4102 -0.402,0.4102 0,0 0,-0.4102 0,-0.8203 -1.25,0 -2.079,-0.4297 -2.911,-0.8399 -4.046,-0.9492 -5.777,4.6211 -9.976,0.4102 -1.6603,0 -2.0705,1.6602 -2.5002,2.9102 -2.2617,0.7578 -5.8203,2.2773 -5.8203,-1.6602 -1.6523,0.4102 -3.3203,0.4102 -4.5703,0.4102 0,1.6601 0,5.8203 1.25,7.0703 0,0.4179 0.4102,0.8281 0.8281,1.25 0,0.4179 0,0.8203 0,0.8203 2.4922,1.25 3.3204,4.1601 6.2305,4.1601 1.2188,3.6094 5.9612,5.8868 9.1402,7.4766 0,1.2422 0.411,2.4922 0.829,3.332 -4.258,7.0899 -7.9887,-3.8515 -22.02,-5.8203 -0.4101,0 -0.8281,-0.4219 -1.2382,-0.8398 -1.6602,0.4101 -3.3321,0.8398 -4.9805,0.8398 -2.4219,3.5899 -10.0899,20.5899 -7.8906,24.5117 2.9687,5.2969 9.2695,8.1485 14.5312,10.7969 0,1.2422 4.9805,3.3203 6.6484,3.3203 0,2.6602 3.711,2.4922 5.8204,2.4922 1.6601,0 6.6523,-7.8906 9.1403,-9.1406 0,-6.3594 18.629,-5.5117 22.45,-3.3203 5.781,3.3203 15.761,18.4805 20.351,4.5703 l 7.07,-2.0703 c 2.489,0 2.071,-4.1602 4.161,-4.1602 0,-1.6719 2.078,-0.8281 2.078,-2.9219 0.41,0 0.82,0 1.66,-0.4062 0,-2.6133 1.82,-14.8125 -0.84,-19.1211 -10.109,-16.3711 -25.758,-1.1719 -25.758,1.25 -13.14,0 5.68,-13.75 4.156,-23.2695 -0.406,-0.8399 -0.828,-1.6602 -1.25,-2.9102 -2.906,1.25 -4.578,4.5703 -6.648,6.6484 -4.609,0 -3.738,-2.5781 -3.738,-6.2382 -0.422,0.4297 -0.422,0.4297 -0.422,0.4297 0,-0.4297 0,-0.8399 0,-1.25 -1.25,0 -2.488,0 -3.32,-0.4102 z m 13.718,28.25 c -5.89,2.9727 -16.648,1.0703 -12.468,11.6328 1.16,2.9297 17.258,13.4297 21.609,11.6367 l 4.57,-4.9882 c 8.258,-3.4102 -1.859,-16.6211 -7.062,-17.8711 -2.5,0 -4.57,0 -6.637,-0.4102 z M 113.934,47.9648 c -1.25,0.4219 -2.5,0.8204 -3.743,0.8204 -7.796,11.6484 14.731,18.1992 15.793,10.3984 l -0.41,-7.8867 c -0.832,-0.4219 -1.66,-1.25 -2.082,-2.0821 -3.32,-0.4179 -6.64,-0.8203 -9.551,-1.2382 z M 90.2344,67.5039 c -5.75,0 -5.7696,4.2031 -8.7227,7.0508 0,4.5703 -0.8281,11.2187 3.7305,13.3008 5.4101,0 15.3908,0 18.2928,-5.8321 l 6.637,-2.4882 c 0,-4.2696 -1.527,-5.2696 -4.16,-7.8907 -2.668,0 -7.0589,-4.1484 -15.7972,-4.1484 z m 27.8396,27.4102 c 0,0.4218 0,0.4218 0,0.4218 -4.562,0 -8.73,3.3204 -11.633,6.2301 -0.406,0 -0.828,0 -0.828,0 -3.41,4.539 -6.82,6.778 -11.6286,9.129 0,4.262 3.7304,4.16 7.4806,5.391 1.789,3.559 22.859,10.43 22.859,6.238 l 9.129,-2.488 c 0.422,-0.422 0.84,-0.84 1.25,-1.25 4.16,0 9.141,-4.981 9.141,-8.719 -5.781,-3.844 -5.981,-9.351 -15.789,-13.3006 -3.321,-0.4101 -6.641,-0.832 -9.981,-1.6601 z m -2.07,9.5629 c -0.41,0.828 -0.41,1.66 -0.41,2.07 0.828,0 2.488,1.25 2.488,-0.82 -0.82,-0.422 -1.66,-0.832 -2.07,-1.25 z m 0.41,31.578 c 0,0.422 0,0.422 0,0.422 -6.191,1.109 -17.332,2.277 -19.5312,9.546 -3.6914,12.204 11.7692,29.071 26.5902,22.024 7.601,-3.621 16.289,-18.602 7.48,-27.422 l -11.23,-3.738 c -1.239,0 -2.481,-0.41 -3.321,-0.832 z M 55.7617,91.1836 c -2.1992,1.082 -6.2265,4.2422 -6.2265,6.6406 -0.4219,0 -0.4219,0 -0.4219,0 -1.5703,4.7308 -5.5508,23.5708 -2.0703,27.0118 0,2.211 0.9218,9.961 3.7304,9.961 0,3.75 6.2305,7.898 9.1407,8.726 0,1.672 13.1875,7.563 15.3711,8.313 4.1484,0.828 7.8984,5.82 12.0468,3.75 0,-0.832 0,-1.672 0.4102,-2.91 -11.0391,-3.75 -26.5899,-18.422 -23.2695,-31.571 0,0 0,0 0.4101,0 0,-3.738 4.5703,-11.218 8.3086,-12.468 -0.418,0 -0.418,0 -0.418,-0.422 1.6602,-0.84 3.7383,-1.66 5.8204,-2.488 -0.4219,0 -0.4219,0 -0.4219,-0.422 0,0 0,0 0.4219,-0.41 0,-5.3403 -15.3594,-13.7114 -22.8594,-13.7114"
         style="fill:#ffffff;fill-opacity:1;fill-rule:evenodd;stroke:none"
         id="path14" /></g></g></svg>
