<?xml version="1.0" encoding="UTF-8" standalone="no"?>
<!-- Created with Inkscape (http://www.inkscape.org/) -->

<svg
   version="1.1"
   id="svg2"
   xml:space="preserve"
   width="23.84"
   height="21.799999"
   viewBox="0 0 23.84 21.799999"
   sodipodi:docname="Zombie_EU.eps"
   xmlns:inkscape="http://www.inkscape.org/namespaces/inkscape"
   xmlns:sodipodi="http://sodipodi.sourceforge.net/DTD/sodipodi-0.dtd"
   xmlns="http://www.w3.org/2000/svg"
   xmlns:svg="http://www.w3.org/2000/svg"><defs
     id="defs6" /><sodipodi:namedview
     id="namedview4"
     pagecolor="#ffffff"
     bordercolor="#666666"
     borderopacity="1.0"
     inkscape:pageshadow="2"
     inkscape:pageopacity="0.0"
     inkscape:pagecheckerboard="0" /><g
     id="g8"
     inkscape:groupmode="layer"
     inkscape:label="ink_ext_XXXXXX"
     transform="matrix(1.3333333,0,0,-1.3333333,0,21.8)"><g
       id="g10"
       transform="scale(0.1)"><path
         d="m 89.3867,81.7383 v 0 0 z"
         style="fill:#000000;fill-opacity:1;fill-rule:nonzero;stroke:none"
         id="path12" /><path
         d="m 11.9492,45.8086 c -5.71873,2.9492 -8.21873,1.4219 -5.08982,8.7891 0,1.8398 -0.15235,3.6211 -0.40235,5.3711 C 5.5,63.3477 4.76953,66.8203 4.25781,70.3477 4.23047,70.5 4.1875,70.6406 4.16016,70.8008 4.14844,70.9805 4.12891,71.1484 4.11719,71.3281 3.75,74.1602 3.53906,77.0273 3.46875,79.9375 3,82.3594 2.07031,84.5977 0.0898438,86.5391 c 0.0390622,1.2617 0.0703122,2.5195 0.1093752,3.7382 1.910161,0.6329 3.347661,2.6836 4.429691,5.1719 0.98047,5.6408 2.53906,11.0778 4.6289,16.2698 0.03125,0.16 0.0625,0.32 0.08203,0.48 0.03907,0 0.07813,0 0.11719,0 1.76177,4.281 3.88277,8.379 6.32027,12.27 0.1602,1.859 0.2813,3.679 -0.8203,5.261 0,6.098 5.3125,5.34 9.7813,6.52 15.2109,16.641 37.2422,27.141 61.6914,27.141 29.9183,0 56.2303,-15.723 70.8283,-39.192 0.039,-0.031 0.07,-0.051 0.109,-0.078 3.492,0 6.16,1.656 9.903,1.797 0.5,-0.898 1.039,-1.797 1.578,-2.699 -0.539,-1.399 -1.078,-2.84 -1.578,-4.281 -2.192,-0.348 -3.93,-2.118 -4.93,-4.27 3.187,-7.07 5.379,-14.66 6.41,-22.6094 0.367,-0.4688 0.77,-0.8906 1.219,-1.2383 4.5,0 4.5,0 8.101,-0.6797 0.067,-2.8828 0.61,-5.1797 -0.793,-7.7422 -2.589,-0.539 -5.179,-1.1211 -7.738,-1.6875 -0.051,-0.1132 -0.101,-0.2304 -0.141,-0.3515 -0.078,-4.7696 -0.578,-9.4414 -1.468,-13.9805 0.429,-2.4805 -0.25,-4.3281 -1.45,-6.1289 -1.66,-5.9805 -4,-11.6797 -6.933,-17.0391 0.391,-3.8711 1.043,-4.5429 -3.16,-5.3007 C 141.629,15.1875 115.758,0.078125 86.418,0.078125 53.7969,0.078125 25.4805,18.7578 11.9297,45.8008"
         style="fill:#000000;fill-opacity:1;fill-rule:evenodd;stroke:none"
         id="path14" /><path
         d="m 79.0781,20.3984 c -1.3984,0.7227 -2.8086,1.4414 -4.1797,2.1211 -1.4101,2.6602 -3.0195,5.7578 -5.1484,7.8789 -1.5508,-0.1093 -3.1016,-0.2187 -4.6133,-0.3203 -4.207,2.0899 -6.4375,6.0117 -8.3476,10.1211 0,3.4883 -0.7891,16.0899 1.9101,17.8906 3.168,-2.2695 2.0899,-6.7695 3.168,-10.371 0.332,-0.1094 0.6523,-0.2188 1.0117,-0.3204 0.5,2.1211 1.0391,4.211 1.5781,6.3008 0.8321,9.9688 2.3828,11.1289 -6.5195,15.3008 -5.8008,10.1094 -0.5781,21.3477 0.2227,31.93 3.1289,6.258 3.8203,6.73 -0.5821,12.269 -2.1211,0.789 -4.1406,0.578 -6.4101,0.578 -5.6485,-3.488 -13.1407,-9.609 -20.2305,-5.867 -5.1484,0 -10.1875,-0.031 -15.3008,0.688 -0.1797,0.75 -0.3281,1.511 -0.4687,2.23 3.2812,0.832 6.5898,1.66 9.9023,2.481 4.8985,0 17.2383,-1.829 20.2695,3.82 4.6407,2.992 7.3399,5.789 12.8204,3.172 1.7968,-1.801 1.7968,-1.801 4.0273,-2.91 10.4727,7.418 -6.7695,19.078 -14.6172,11.23 -6.1523,0 -10.0117,0.649 -15.7305,-1.121 0,-0.289 0,-0.582 0,-0.902 -4.7226,-0.36 -11.2031,-2.95 -11.4921,4.031 0.539,0.359 0.539,0.359 4.289,0.25 3.4219,0.898 6.8711,1.801 10.3321,2.699 3.7109,2.633 7.4492,1.512 11.6992,2.231 3.1718,1.8 3.1718,1.8 9.9023,4.5 7.3789,0 9.3281,-2.59 11.918,-8.782 4.1406,-2.949 6.0508,2.481 9.6797,4.071 0,0.32 0,0.613 0,0.902 4.6093,1.578 9.0703,1.121 13.9687,1.121 4.793,1.399 12.8203,3.457 13.9333,-3.82 0.317,-0.113 0.649,-0.223 1.008,-0.332 1.039,-2.949 1.801,-6.59 3.82,-9 4.821,1.082 5.54,4.929 8.571,8.531 1.91,0.578 1.91,0.578 9.109,1.008 1.801,1.371 1.801,1.371 2.699,1.582 0.973,2.121 1.942,4.211 2.922,6.301 3.309,-5.18 2.231,-8.93 -2.922,-11.911 -1.617,-0.359 -8.64,-0.722 -9.429,-3.382 -2.95,-0.719 -5.618,-7.629 -5.868,-10.797 0.758,0.07 1.508,0.137 2.27,0.219 2.988,2.988 9.18,1.8 13.027,1.8 1.371,0.899 1.371,0.899 3.602,1.578 1.191,1.622 1.621,2.743 3.601,3.129 0.68,2.743 5.758,3.563 8.098,2.953 7.059,-5.179 8.93,-3.671 16.672,-2.953 0.07,-0.578 0.137,-1.187 0.219,-1.797 -3.891,-3.89 -9.762,-3.96 -14.621,-2.019 -2.27,0 -4.539,0 -6.77,0 -3.019,-1.332 -6.301,-4.184 -9.43,-4.934 -3.168,0 -6.339,0 -9.468,0 -2.66,-1.937 -5.43,-3.738 -5.071,-7.558 1.871,-1.051 8.028,-0.11 10.039,-0.11 2.231,-1.468 4.461,-2.988 6.731,-4.5 1.801,-0.429 1.801,-0.429 13.5,-0.429 9.969,-2.7425 8.93,-14.4027 20.269,-14.4027 2.661,0.6133 4.61,1.6915 7.2,0.6524 -0.18,-0.7188 -0.328,-1.4805 -0.469,-2.2305 -9.219,-5.3984 -18.07,-0.2187 -22.5,8.5313 -1.801,0.6797 -2.699,1.5781 -4.93,2.4804 -6.301,0.7579 -10.761,-2.5625 -17.101,0 -3.93,3.4571 -7.961,5.8671 -13.5,5.8671 -0.219,-0.18 -0.399,-0.359 -0.578,-0.578 0.359,-12.5625 4,-22.5703 -4.282,-33.9805 -4.82,-2.4101 -14.1482,-5.289 -11.019,-12.6015 0.359,0 0.719,0 1.121,0 0.859,1.1914 1.73,2.3398 2.59,3.4922 0.218,-0.0704 0.429,-0.1407 0.687,-0.2227 1.582,-6.6172 1.731,-17.207 -1.367,-23.3984 -3.492,-2.5899 -4.141,-3.711 -6.9531,-5.6211 -1.8672,-0.0391 -3.7071,-0.0703 -5.5391,-0.1094 -3.7383,-8.168 -4.1797,-8.418 -12.918,-8.668"
         style="fill:#ffffff;fill-opacity:1;fill-rule:evenodd;stroke:none"
         id="path16" /><path
         d="m 135.77,26.6992 c -2.301,4.1016 -3.711,8.711 -5.832,13.0313 -3.489,2.5195 -6.981,5.039 -10.481,7.5586 -2.84,4.6797 -5.219,12.8203 -1.797,18.2187 4.539,0.5 4.028,-9.539 5.289,-12.707 2.77,-3.3125 5.438,-8.0625 9.688,-9.4727 0.75,-1.4375 1.91,-2.1289 2.551,-3.2383 3.492,-1.1523 2.742,-9.6523 2.851,-12.4921 -0.762,-0.2891 -1.512,-0.5782 -2.269,-0.8985"
         style="fill:#ffffff;fill-opacity:1;fill-rule:evenodd;stroke:none"
         id="path18" /><path
         d="m 25.9688,37.0273 c -0.25,7.4219 0.6484,11.5938 6.8789,16.0938 0.1093,0.3594 0.2226,0.6797 0.3203,1.0078 7.4218,0.8984 9.4297,10.6211 12.8203,15.7695 1.9414,1.1211 2.9101,3.3789 5.6484,3.3789 C 55.418,69.5 50.918,65.0703 48.6875,61.3281 46.0977,53.7305 44.0469,51.2109 36.3398,48.3008 c 0,-0.293 0,-0.582 0,-0.9024 -4.2109,-1.5781 -6.9531,-6.0898 -8.1015,-10.3711 -0.7578,0 -1.5078,0 -2.2695,0"
         style="fill:#ffffff;fill-opacity:1;fill-rule:evenodd;stroke:none"
         id="path20" /><path
         d="m 70.9688,37.5 c -2.4805,5.1484 -3.2696,11.6992 -0.8985,17.0977 0.2891,0 0.5781,0 0.8985,0 0,0.3203 0,0.6132 0,0.9023 3.8203,1.1875 4.539,3.9297 6.621,7.3086 3.418,0.25 6.8086,-3.2383 10.4805,-3.918 3.3789,2.2696 4.6094,3.1992 8.7774,2.918 0.3203,-0.3281 0.3203,-0.3281 0.4296,-11.2695 -0.8984,-6.7305 -0.8984,-6.7305 -2.2304,-11.6993 -0.7188,-0.4023 -1.4375,-0.789 -2.1602,-1.2187 -3.707,7.8867 -7.6992,9.6484 -16.5273,7.7773 -2.0196,-2.5586 -3.0196,-5.8281 -5.4024,-7.8906"
         style="fill:#000000;fill-opacity:1;fill-rule:evenodd;stroke:none"
         id="path22" /><path
         d="m 154.68,40.1992 c -1.84,1.3281 -3.672,2.6289 -5.512,3.9219 -1.91,4.1797 -3.711,10.0078 -5.508,13.6094 -4.5,5.3593 -5.73,6.5898 -12.383,7.8789 -1.937,0.8281 -4.539,2.9883 -6.297,3.3789 -1.261,3.6719 -2.48,6.9492 -2.91,10.8008 0.469,0.582 0.938,1.1484 1.438,1.6914 3.351,-1.3008 5.43,-5.9024 5.98,-9.3594 1.012,-0.332 1.012,-0.332 1.692,-1.4414 4.968,-1.8008 9.429,-2.3008 14.078,-4.8594 0.43,-1.1211 0.43,-1.1211 2.019,-3.1328 1.942,-6.6602 2.84,-15.8672 8.891,-20.1172 0.109,-0.793 0.219,-1.582 0.32,-2.3828 -0.609,0 -1.218,0 -1.8,0"
         style="fill:#ffffff;fill-opacity:1;fill-rule:evenodd;stroke:none"
         id="path24" /><path
         d="m 11.5703,51.8984 c 0,0.7618 0,1.5118 0,2.2305 1.3672,0.7188 3.5274,2.4102 4.6094,3.4922 0.5781,9 0.7187,11.6289 9.3594,15.6562 7.0195,1.1211 9.6093,2.4532 12.5976,9.6524 1.3321,0.25 1.3321,0.25 2.2305,1.1484 3.6406,0.7617 7.0625,1.8008 10.8008,1.8008 5.1093,-5.1094 -4.9688,-6.9805 -7.6289,-8.1016 -0.6094,-1.1171 -0.7618,-1.5468 -1.9414,-1.9062 -0.25,-0.6523 -0.5,-1.3008 -0.75,-1.9414 -0.3282,0 -0.6094,0 -0.8985,0 C 39.2695,72.1289 37.6797,70.1094 37.25,69 32.957,68.5273 29.6172,67.6992 25.5469,66.3008 c 0,-0.293 0,-0.582 0,-0.9024 -2.9883,-0.7187 -3.918,-4.3203 -4.5,-7.1992 -0.3281,0 -0.6094,0 -0.8985,0 -0.6796,-3.1719 -0.6796,-3.1719 -1.8007,-5.3984 -2.2696,-0.293 -4.5391,-0.582 -6.7696,-0.9024"
         style="fill:#ffffff;fill-opacity:1;fill-rule:evenodd;stroke:none"
         id="path26" /><path
         d="m 160.539,63.1289 c -4.141,2.2305 -4.75,6.5899 -4.75,11.2695 -3.309,8.2422 -10.41,2.0196 -16.851,2.0196 -1.661,0.6797 -3.309,1.3711 -4.969,2.0195 -0.899,2.7734 -5.43,7.3828 -8.102,8.7813 -0.898,0.9023 -0.898,0.9023 -4.5,2.4804 -0.027,1.4102 -0.07,2.8086 -0.109,4.1797 6.34,3.3789 10.551,-7.7383 15.41,-9.1406 0.109,-0.3281 0.219,-0.6485 0.32,-1.0078 3.282,-1.0117 3.282,-1.0117 6.192,-1.4414 5.867,1.332 12.629,4.1015 16.668,-2.0508 0,-7.8477 0,-7.8477 0.429,-9.8985 1.371,-1.8007 1.371,-1.8007 1.582,-3.1289 0.321,-0.1132 0.649,-0.2226 1.008,-0.332 0.113,-1.0781 0.223,-2.1601 0.363,-3.2695 -0.902,-0.1406 -1.8,-0.2891 -2.703,-0.4688"
         style="fill:#ffffff;fill-opacity:1;fill-rule:evenodd;stroke:none"
         id="path28" /><path
         d="m 90.3398,70.8008 c -0.9023,1.7265 -0.9023,2.8398 0,4.5 3.2774,0.25 3.3086,0.3594 4.7188,-2.4805 -1.0508,-2.1992 -2.5195,-1.8711 -4.7188,-2.0195"
         style="fill:#000000;fill-opacity:1;fill-rule:evenodd;stroke:none"
         id="path30" /><path
         d="m 81.3398,71.6992 c -0.7617,0.3281 -1.5117,0.6094 -2.2695,0.8985 0.4688,2.8125 1.9375,2.8398 4.5,2.9101 0.5781,-0.539 0.5781,-0.539 0.8985,-3.3789 -1.0391,-0.1406 -2.0899,-0.2891 -3.129,-0.4297"
         style="fill:#000000;fill-opacity:1;fill-rule:evenodd;stroke:none"
         id="path32" /><path
         d="m 102.48,72.5977 c -0.32,0.582 -0.32,0.582 -4.4995,1.8007 -0.2227,2.6993 0.2187,3.6016 0.2187,5.8321 -1.7304,3.5273 -5.6211,6.2304 -6.0508,9.8984 3.0196,0.8984 10.3716,2.0899 11.6996,5.3984 0.582,0.1836 1.191,0.3204 1.8,0.4727 0.11,0.3594 0.219,0.6797 0.321,1.0078 4,1.8008 3.488,1.9102 7.308,0.332 0.973,-5.4023 1.731,-12.7812 0,-18 -0.32,0 -0.609,0 -0.898,0 -0.07,-0.289 -0.141,-0.582 -0.219,-0.9023 -1.371,-0.7891 -1.582,-0.7578 -1.91,-2.3398 -2.66,-1.5469 -4.68,-3.2071 -7.781,-3.4883"
         style="fill:#000000;fill-opacity:1;fill-rule:evenodd;stroke:none"
         id="path34" /><path
         d="M 64.25,74.3984 C 61.1875,78.4688 57.9883,99.1289 64,101.621 70.0078,97.2578 77.3477,93.1211 84.5898,91.1797 85.168,90.1406 85.168,90.1406 85.168,89.2383 81.5703,86.0391 78.5078,83.2578 74.4805,80.8203 71.8203,76.4688 69.7969,74.918 64.2578,74.4102"
         style="fill:#000000;fill-opacity:1;fill-rule:evenodd;stroke:none"
         id="path36" /><path
         d="m 103.367,80.2305 c -3.9568,1.9101 -5.1092,3.7383 -5.3982,8.0976 3.6012,2.5196 6.9802,4.711 11.3792,3.7422 1.73,-6.2617 -0.328,-9.3594 -5.981,-11.8398"
         style="fill:#ffffff;fill-opacity:1;fill-rule:evenodd;stroke:none"
         id="path38" /><path
         d="m 65.5703,82.9297 c -1.9101,3.0976 -2.0234,3.9883 -2.0234,7.668 2.8828,10.1133 7.9609,2.3007 14.7304,-0.7891 C 78.3867,88.8711 78.5,87.9375 78.6367,87 c -0.3281,0 -0.6094,0 -0.8984,0 -0.1797,-0.582 -0.3203,-1.1914 -0.4688,-1.8008 -4,-1.1211 -7.5625,-1.8008 -11.6992,-2.2695"
         style="fill:#ffffff;fill-opacity:1;fill-rule:evenodd;stroke:none"
         id="path40" /><path
         d="M 7.53906,86.5273 C 7.07031,86.7109 6.59766,86.8477 6.16797,87 c 0.90234,5.3984 6.41013,5.6211 10.80083,5.6211 4.5,2.3789 8.3515,4.7891 12.3789,7.8789 6.0507,1.77 10.5117,-0.6523 16.4218,0.688 3.0977,1.55 5.9375,4.101 9.1094,2.121 0.0313,-1.84 0.0703,-3.6684 0.1094,-5.5082 -3.3789,-4.75 -10.0508,-4.3906 -15.0508,-2.4922 -1.9805,0 -3.918,0 -5.8672,0 C 30.2188,93.0781 27.0469,90.0898 22.8398,88.5781 17.5078,88.2891 12.7578,87.25 7.53906,86.5273"
         style="fill:#ffffff;fill-opacity:1;fill-rule:evenodd;stroke:none"
         id="path42" /><path
         d="m 81.3398,97.3281 c -3.7109,2.9489 -5.4414,6.0119 -7.9921,10.0429 -3.1289,0.758 -4.7188,-0.793 -7.8907,-0.683 0.4727,5.332 5.8711,7.992 10.4805,6.839 2.0195,-4.027 2.0195,-4.027 4.3594,-7.527 1.5117,0.898 1.6211,1.938 2.2734,3.598 0.5,0 1.0391,0 1.5781,0 1.3985,-4.028 3.8204,-9 7.9883,-4.821 0.5821,-0.066 1.1914,-0.136 1.8008,-0.25 2.5625,-8.8864 10.1215,4.864 13.5005,5.871 0.109,0.36 0.222,0.68 0.32,1.012 7.422,3.02 5.652,-2.449 5.512,-8.211 -0.903,0 -1.801,0 -2.7,0 -0.582,1.012 -1.152,2.02 -1.691,3.02 -0.649,-0.11 -1.301,-0.219 -1.91,-0.328 -1.082,-3.313 -7.7385,-6.9535 -10.3323,-8.3129 -5.2578,0 -10.0469,0.4727 -15.2969,-0.25"
         style="fill:#000000;fill-opacity:1;fill-rule:evenodd;stroke:none"
         id="path44" /></g></g></svg>
